%!PS-Adobe-3.0 EPSF-3.0
%%Creator: cairo 1.15.12 (http://cairographics.org)
%%CreationDate: Sun May 26 01:50:03 2019
%%Pages: 1
%%DocumentData: Clean7Bit
%%LanguageLevel: 2
%%BoundingBox: 0 0 512 512
%%EndComments
%%BeginProlog
50 dict begin
/q { gsave } bind def
/Q { grestore } bind def
/cm { 6 array astore concat } bind def
/w { setlinewidth } bind def
/J { setlinecap } bind def
/j { setlinejoin } bind def
/M { setmiterlimit } bind def
/d { setdash } bind def
/m { moveto } bind def
/l { lineto } bind def
/c { curveto } bind def
/h { closepath } bind def
/re { exch dup neg 3 1 roll 5 3 roll moveto 0 rlineto
      0 exch rlineto 0 rlineto closepath } bind def
/S { stroke } bind def
/f { fill } bind def
/f* { eofill } bind def
/n { newpath } bind def
/W { clip } bind def
/W* { eoclip } bind def
/BT { } bind def
/ET { } bind def
/BDC { mark 3 1 roll /BDC pdfmark } bind def
/EMC { mark /EMC pdfmark } bind def
/cairo_store_point { /cairo_point_y exch def /cairo_point_x exch def } def
/Tj { show currentpoint cairo_store_point } bind def
/TJ {
  {
    dup
    type /stringtype eq
    { show } { -0.001 mul 0 cairo_font_matrix dtransform rmoveto } ifelse
  } forall
  currentpoint cairo_store_point
} bind def
/cairo_selectfont { cairo_font_matrix aload pop pop pop 0 0 6 array astore
    cairo_font exch selectfont cairo_point_x cairo_point_y moveto } bind def
/Tf { pop /cairo_font exch def /cairo_font_matrix where
      { pop cairo_selectfont } if } bind def
/Td { matrix translate cairo_font_matrix matrix concatmatrix dup
      /cairo_font_matrix exch def dup 4 get exch 5 get cairo_store_point
      /cairo_font where { pop cairo_selectfont } if } bind def
/Tm { 2 copy 8 2 roll 6 array astore /cairo_font_matrix exch def
      cairo_store_point /cairo_font where { pop cairo_selectfont } if } bind def
/g { setgray } bind def
/rg { setrgbcolor } bind def
/d1 { setcachedevice } bind def
/cairo_data_source {
  CairoDataIndex CairoData length lt
    { CairoData CairoDataIndex get /CairoDataIndex CairoDataIndex 1 add def }
    { () } ifelse
} def
/cairo_flush_ascii85_file { cairo_ascii85_file status { cairo_ascii85_file flushfile } if } def
/cairo_image { image cairo_flush_ascii85_file } def
/cairo_imagemask { imagemask cairo_flush_ascii85_file } def
%%EndProlog
%%BeginSetup
%%EndSetup
%%Page: 1 1
%%BeginPageSetup
%%PageBoundingBox: 0 0 512 512
%%EndPageSetup
q 0 0 512 512 rectclip
1 0 0 -1 0 512 cm q
0 g
504.5 124.25 m 508.641 124.25 512 120.895 512 116.75 c 512 7.5 l 512 3.355
 508.641 0 504.5 0 c 146.75 0 l 142.609 0 139.25 3.355 139.25 7.5 c 139.25
 11.645 142.609 15 146.75 15 c 248.5 15 l 248.5 248.5 l 15 248.5 l 15 146.75
 l 15 142.609 11.641 139.25 7.5 139.25 c 3.359 139.25 0 142.609 0 146.75
 c 0 504.5 l 0 508.645 3.359 512 7.5 512 c 365.25 512 l 369.391 512 372.75
 508.645 372.75 504.5 c 372.75 500.355 369.391 497 365.25 497 c 263.5 497
 l 263.5 263.5 l 497 263.5 l 497 497 l 395.25 497 l 391.109 497 387.75 500.355
 387.75 504.5 c 387.75 508.645 391.109 512 395.25 512 c 504.5 512 l 508.641
 512 512 508.645 512 504.5 c 512 146.75 l 512 142.609 508.641 139.25 504.5
 139.25 c 500.359 139.25 497 142.609 497 146.75 c 497 248.5 l 263.5 248.5
 l 263.5 15 l 497 15 l 497 116.75 l 497 120.895 500.359 124.25 504.5 124.25
 c h
15 263.5 m 248.5 263.5 l 248.5 497 l 15 497 l h
15 263.5 m f
432.578 244.809 m 436.719 244.809 440.078 241.449 440.078 237.309 c 440.078
 218.367 l 466.867 191.578 l 485.809 191.578 l 489.949 191.578 493.309 188.223
 493.309 184.078 c 493.309 179.938 489.949 176.578 485.809 176.578 c 463.762
 176.578 l 461.773 176.578 459.863 177.367 458.461 178.773 c 427.277 209.961
 l 425.867 211.367 425.078 213.273 425.078 215.262 c 425.078 237.309 l 425.078
 241.449 428.438 244.809 432.578 244.809 c h
432.578 244.809 m f
327.922 244.809 m 332.062 244.809 335.422 241.449 335.422 237.309 c 335.422
 215.262 l 335.422 213.273 334.633 211.367 333.227 209.957 c 302.043 178.773
 l 300.637 177.367 298.727 176.578 296.738 176.578 c 274.691 176.578 l 270.551
 176.578 267.191 179.934 267.191 184.078 c 267.191 188.223 270.551 191.578
 274.691 191.578 c 293.633 191.578 l 320.422 218.367 l 320.422 237.309 l
 320.422 241.449 323.781 244.809 327.922 244.809 c h
327.922 244.809 m f
274.691 86.922 m 296.738 86.922 l 298.727 86.922 300.637 86.133 302.039
 84.727 c 333.223 53.543 l 334.633 52.137 335.422 50.227 335.422 48.238 
c 335.422 26.191 l 335.422 22.051 332.062 18.691 327.922 18.691 c 323.777
 18.691 320.422 22.051 320.422 26.191 c 320.422 45.133 l 293.633 71.922 
l 274.691 71.922 l 270.551 71.922 267.191 75.277 267.191 79.422 c 267.191
 83.562 270.551 86.922 274.691 86.922 c h
274.691 86.922 m f
485.809 71.922 m 466.867 71.922 l 440.078 45.133 l 440.078 26.191 l 440.078
 22.051 436.719 18.691 432.578 18.691 c 428.438 18.691 425.078 22.051 425.078
 26.191 c 425.078 48.238 l 425.078 50.227 425.867 52.133 427.273 53.543 
c 458.457 84.727 l 459.863 86.133 461.773 86.922 463.762 86.922 c 485.809
 86.922 l 489.949 86.922 493.309 83.566 493.309 79.422 c 493.309 75.277 
489.949 71.922 485.809 71.922 c h
485.809 71.922 m f
358.629 186.355 m 362.984 181.996 l 372.504 172.48 387.992 172.48 397.512
 181.996 c 401.867 186.355 l 403.332 187.82 405.254 188.551 407.172 188.551
 c 409.09 188.551 411.012 187.82 412.477 186.355 c 434.852 163.977 l 436.262
 162.57 437.051 160.664 437.051 158.672 c 437.051 156.684 436.258 154.777
 434.852 153.367 c 430.496 149.012 l 420.977 139.492 420.977 124.004 430.496
 114.488 c 434.852 110.129 l 436.258 108.723 437.051 106.816 437.051 104.824
 c 437.051 102.836 436.262 100.93 434.852 99.523 c 412.477 77.145 l 409.547
 74.215 404.797 74.215 401.867 77.145 c 397.512 81.5 l 387.992 91.02 372.504
 91.02 362.984 81.5 c 358.629 77.145 l 355.699 74.215 350.953 74.215 348.023
 77.145 c 325.645 99.523 l 324.238 100.93 323.449 102.836 323.449 104.824
 c 323.449 106.816 324.238 108.723 325.645 110.129 c 330.004 114.488 l 339.523
 124.008 339.523 139.492 330.004 149.012 c 325.645 153.367 l 324.238 154.773
 323.449 156.684 323.449 158.672 c 323.449 160.664 324.238 162.57 325.645
 163.977 c 348.023 186.355 l 350.953 189.281 355.699 189.281 358.629 186.355
 c h
341.539 104.844 m 353.344 93.039 l 368.449 107.168 392.051 107.168 407.156
 93.039 c 418.961 104.844 l 404.832 119.949 404.836 143.551 418.961 158.656
 c 407.156 170.461 l 399.605 163.398 389.93 159.867 380.25 159.867 c 370.57
 159.867 360.895 163.395 353.344 170.461 c 341.539 158.656 l 355.668 143.551
 355.664 119.949 341.539 104.844 c h
341.539 104.844 m f
7.5 124.25 m 11.641 124.25 15 120.895 15 116.75 c 15 15 l 116.75 15 l 120.891
 15 124.25 11.645 124.25 7.5 c 124.25 3.355 120.891 0 116.75 0 c 7.5 0 l
 3.359 0 0 3.355 0 7.5 c 0 116.75 l 0 120.895 3.359 124.25 7.5 124.25 c 
h
7.5 124.25 m f
237.309 176.578 m 215.262 176.578 l 213.273 176.578 211.363 177.367 209.961
 178.773 c 178.777 209.957 l 177.367 211.363 176.578 213.273 176.578 215.262
 c 176.578 237.309 l 176.578 241.449 179.938 244.809 184.078 244.809 c 188.223
 244.809 191.578 241.449 191.578 237.309 c 191.578 218.367 l 218.367 191.578
 l 237.309 191.578 l 241.449 191.578 244.809 188.223 244.809 184.078 c 244.809
 179.938 241.449 176.578 237.309 176.578 c h
237.309 176.578 m f
79.422 244.809 m 83.562 244.809 86.922 241.449 86.922 237.309 c 86.922 
215.262 l 86.922 213.273 86.133 211.367 84.727 209.957 c 53.543 178.773 
l 52.137 177.367 50.227 176.578 48.238 176.578 c 26.191 176.578 l 22.051
 176.578 18.691 179.934 18.691 184.078 c 18.691 188.223 22.051 191.578 26.191
 191.578 c 45.133 191.578 l 71.922 218.367 l 71.922 237.309 l 71.922 241.449
 75.281 244.809 79.422 244.809 c h
79.422 244.809 m f
26.191 86.922 m 48.238 86.922 l 50.227 86.922 52.137 86.133 53.539 84.727
 c 84.723 53.543 l 86.133 52.137 86.922 50.227 86.922 48.238 c 86.922 26.191
 l 86.922 22.051 83.562 18.691 79.422 18.691 c 75.277 18.691 71.922 22.051
 71.922 26.191 c 71.922 45.133 l 45.133 71.922 l 26.191 71.922 l 22.051 
71.922 18.691 75.277 18.691 79.422 c 18.691 83.562 22.051 86.922 26.191 
86.922 c h
26.191 86.922 m f
184.078 18.691 m 179.938 18.691 176.578 22.051 176.578 26.191 c 176.578
 48.238 l 176.578 50.227 177.367 52.133 178.773 53.543 c 209.957 84.727 
l 211.363 86.133 213.273 86.922 215.262 86.922 c 237.309 86.922 l 241.449
 86.922 244.809 83.566 244.809 79.422 c 244.809 75.277 241.449 71.922 237.309
 71.922 c 218.367 71.922 l 191.578 45.133 l 191.578 26.191 l 191.578 22.051
 188.219 18.691 184.078 18.691 c h
184.078 18.691 m f
153.371 77.145 m 149.016 81.504 l 139.492 91.02 124.008 91.02 114.488 81.504
 c 110.133 77.145 l 107.203 74.219 102.453 74.219 99.523 77.145 c 77.145
 99.523 l 75.738 100.93 74.949 102.836 74.949 104.824 c 74.949 106.816 75.738
 108.723 77.145 110.129 c 81.504 114.488 l 91.023 124.008 91.023 139.492
 81.504 149.012 c 77.145 153.367 l 75.738 154.773 74.949 156.684 74.949 
158.672 c 74.949 160.664 75.738 162.57 77.145 163.977 c 99.523 186.355 l
 102.453 189.281 107.199 189.281 110.129 186.355 c 114.484 181.996 l 124.008
 172.48 139.492 172.48 149.012 181.996 c 153.367 186.355 l 154.832 187.82
 156.754 188.551 158.672 188.551 c 160.59 188.551 162.512 187.82 163.977
 186.355 c 186.352 163.977 l 187.762 162.57 188.551 160.664 188.551 158.672
 c 188.551 156.684 187.758 154.777 186.352 153.367 c 181.996 149.012 l 172.477
 139.492 172.477 124.004 181.996 114.488 c 186.352 110.129 l 187.758 108.723
 188.551 106.816 188.551 104.824 c 188.551 102.836 187.762 100.93 186.352
 99.523 c 163.977 77.145 l 161.047 74.219 156.301 74.219 153.371 77.145 
c h
170.461 158.656 m 158.656 170.461 l 151.105 163.398 141.43 159.867 131.75
 159.867 c 122.07 159.867 112.395 163.395 104.844 170.461 c 93.039 158.656
 l 107.168 143.551 107.164 119.949 93.039 104.844 c 104.844 93.039 l 119.949
 107.168 143.551 107.168 158.656 93.039 c 170.461 104.844 l 156.332 119.949
 156.336 143.551 170.461 158.656 c h
170.461 158.656 m f
485.809 425.078 m 463.762 425.078 l 461.773 425.078 459.863 425.867 458.461
 427.273 c 427.277 458.457 l 425.867 459.863 425.078 461.773 425.078 463.762
 c 425.078 485.809 l 425.078 489.949 428.438 493.309 432.578 493.309 c 436.723
 493.309 440.078 489.949 440.078 485.809 c 440.078 466.867 l 466.867 440.078
 l 485.809 440.078 l 489.949 440.078 493.309 436.723 493.309 432.578 c 493.309
 428.438 489.949 425.078 485.809 425.078 c h
485.809 425.078 m f
327.922 493.309 m 332.062 493.309 335.422 489.949 335.422 485.809 c 335.422
 463.762 l 335.422 461.773 334.633 459.867 333.227 458.457 c 302.043 427.273
 l 300.637 425.867 298.727 425.078 296.738 425.078 c 274.691 425.078 l 270.551
 425.078 267.191 428.434 267.191 432.578 c 267.191 436.723 270.551 440.078
 274.691 440.078 c 293.633 440.078 l 320.422 466.867 l 320.422 485.809 l
 320.422 489.949 323.781 493.309 327.922 493.309 c h
327.922 493.309 m f
274.691 335.422 m 296.738 335.422 l 298.727 335.422 300.637 334.633 302.039
 333.227 c 333.223 302.043 l 334.633 300.637 335.422 298.727 335.422 296.738
 c 335.422 274.691 l 335.422 270.551 332.062 267.191 327.922 267.191 c 323.777
 267.191 320.422 270.551 320.422 274.691 c 320.422 293.633 l 293.633 320.422
 l 274.691 320.422 l 270.551 320.422 267.191 323.777 267.191 327.922 c 267.191
 332.062 270.551 335.422 274.691 335.422 c h
274.691 335.422 m f
432.578 267.191 m 428.438 267.191 425.078 270.551 425.078 274.691 c 425.078
 296.738 l 425.078 298.727 425.867 300.633 427.273 302.043 c 458.457 333.227
 l 459.863 334.633 461.773 335.422 463.762 335.422 c 485.809 335.422 l 489.949
 335.422 493.309 332.066 493.309 327.922 c 493.309 323.777 489.949 320.422
 485.809 320.422 c 466.867 320.422 l 440.078 293.633 l 440.078 274.691 l
 440.078 270.551 436.719 267.191 432.578 267.191 c h
432.578 267.191 m f
358.629 434.855 m 362.984 430.496 l 372.504 420.98 387.992 420.98 397.512
 430.496 c 401.867 434.855 l 403.332 436.32 405.254 437.051 407.172 437.051
 c 409.09 437.051 411.012 436.32 412.477 434.855 c 434.852 412.477 l 436.262
 411.07 437.051 409.164 437.051 407.172 c 437.051 405.184 436.258 403.277
 434.852 401.867 c 430.496 397.512 l 420.977 387.992 420.977 372.504 430.496
 362.988 c 434.852 358.629 l 436.258 357.223 437.051 355.316 437.051 353.324
 c 437.051 351.336 436.262 349.43 434.852 348.023 c 412.477 325.645 l 409.547
 322.715 404.797 322.715 401.867 325.645 c 397.512 330 l 387.992 339.52 
372.504 339.52 362.984 330 c 358.629 325.645 l 355.699 322.715 350.953 322.715
 348.023 325.645 c 325.645 348.023 l 324.238 349.43 323.449 351.336 323.449
 353.324 c 323.449 355.316 324.238 357.223 325.645 358.629 c 330.004 362.988
 l 339.523 372.508 339.523 387.992 330.004 397.512 c 325.645 401.867 l 324.238
 403.273 323.449 405.184 323.449 407.172 c 323.449 409.164 324.238 411.07
 325.645 412.477 c 348.023 434.855 l 350.953 437.781 355.699 437.781 358.629
 434.855 c h
341.539 353.344 m 353.344 341.539 l 368.449 355.668 392.051 355.668 407.156
 341.539 c 418.961 353.344 l 404.832 368.449 404.836 392.051 418.961 407.156
 c 407.156 418.961 l 399.605 411.898 389.93 408.367 380.25 408.367 c 370.57
 408.367 360.895 411.895 353.344 418.961 c 341.539 407.156 l 355.668 392.051
 355.664 368.449 341.539 353.344 c h
341.539 353.344 m f
237.309 425.078 m 215.262 425.078 l 213.273 425.078 211.363 425.867 209.961
 427.273 c 178.777 458.457 l 177.367 459.863 176.578 461.773 176.578 463.762
 c 176.578 485.809 l 176.578 489.949 179.938 493.309 184.078 493.309 c 188.223
 493.309 191.578 489.949 191.578 485.809 c 191.578 466.867 l 218.367 440.078
 l 237.309 440.078 l 241.449 440.078 244.809 436.723 244.809 432.578 c 244.809
 428.438 241.449 425.078 237.309 425.078 c h
237.309 425.078 m f
53.543 427.273 m 52.137 425.867 50.227 425.078 48.238 425.078 c 26.191 
425.078 l 22.051 425.078 18.691 428.434 18.691 432.578 c 18.691 436.723 
22.051 440.078 26.191 440.078 c 45.133 440.078 l 71.922 466.867 l 71.922
 485.809 l 71.922 489.949 75.281 493.309 79.422 493.309 c 83.562 493.309
 86.922 489.949 86.922 485.809 c 86.922 463.762 l 86.922 461.773 86.133 
459.863 84.727 458.457 c h
53.543 427.273 m f
26.191 335.422 m 48.238 335.422 l 50.227 335.422 52.137 334.633 53.539 
333.227 c 84.723 302.043 l 86.133 300.637 86.922 298.727 86.922 296.738 
c 86.922 274.691 l 86.922 270.551 83.562 267.191 79.422 267.191 c 75.277
 267.191 71.922 270.551 71.922 274.691 c 71.922 293.633 l 45.133 320.422
 l 26.191 320.422 l 22.051 320.422 18.691 323.777 18.691 327.922 c 18.691
 332.062 22.051 335.422 26.191 335.422 c h
26.191 335.422 m f
237.309 320.422 m 218.367 320.422 l 191.578 293.633 l 191.578 274.691 l
 191.578 270.551 188.219 267.191 184.078 267.191 c 179.938 267.191 176.578
 270.551 176.578 274.691 c 176.578 296.738 l 176.578 298.727 177.367 300.637
 178.773 302.043 c 209.957 333.227 l 211.363 334.633 213.273 335.422 215.262
 335.422 c 237.309 335.422 l 241.449 335.422 244.809 332.066 244.809 327.922
 c 244.809 323.781 241.449 320.422 237.309 320.422 c h
237.309 320.422 m f
188.551 407.176 m 188.551 405.184 187.762 403.277 186.355 401.871 c 181.996
 397.512 l 172.477 387.992 172.477 372.508 181.996 362.988 c 186.355 358.633
 l 187.762 357.227 188.551 355.316 188.551 353.328 c 188.551 351.336 187.762
 349.43 186.355 348.023 c 163.977 325.645 l 161.047 322.719 156.301 322.719
 153.371 325.645 c 149.016 330.004 l 139.492 339.52 124.008 339.52 114.488
 330.004 c 110.133 325.645 l 107.203 322.719 102.453 322.719 99.523 325.645
 c 77.148 348.023 l 75.738 349.43 74.949 351.336 74.949 353.328 c 74.949
 355.316 75.742 357.223 77.148 358.633 c 81.504 362.988 l 91.023 372.508
 91.023 387.996 81.504 397.512 c 77.148 401.871 l 75.742 403.277 74.949 
405.184 74.949 407.176 c 74.949 409.164 75.738 411.07 77.148 412.477 c 99.523
 434.855 l 102.453 437.785 107.203 437.785 110.133 434.855 c 114.488 430.5
 l 124.008 420.98 139.496 420.98 149.016 430.5 c 153.371 434.855 l 154.836
 436.32 156.754 437.051 158.676 437.051 c 160.594 437.051 162.512 436.32
 163.977 434.855 c 186.355 412.477 l 187.762 411.07 188.551 409.164 188.551
 407.176 c h
158.656 418.961 m 151.105 411.898 141.43 408.367 131.75 408.367 c 122.07
 408.367 112.395 411.895 104.844 418.961 c 93.039 407.156 l 107.168 392.051
 107.164 368.449 93.039 353.344 c 104.844 341.539 l 119.949 355.668 143.551
 355.668 158.656 341.539 c 170.461 353.344 l 156.332 368.449 156.336 392.051
 170.461 407.156 c h
158.656 418.961 m f
Q Q
showpage
%%Trailer
end
%%EOF
