%!PS-Adobe-3.0 EPSF-3.0
%%Creator: cairo 1.14.6 (http://cairographics.org)
%%CreationDate: Mon May  6 08:44:06 2019
%%Pages: 1
%%DocumentData: Clean7Bit
%%LanguageLevel: 2
%%BoundingBox: 0 47 512 464
%%EndComments
%%BeginProlog
save
50 dict begin
/q { gsave } bind def
/Q { grestore } bind def
/cm { 6 array astore concat } bind def
/w { setlinewidth } bind def
/J { setlinecap } bind def
/j { setlinejoin } bind def
/M { setmiterlimit } bind def
/d { setdash } bind def
/m { moveto } bind def
/l { lineto } bind def
/c { curveto } bind def
/h { closepath } bind def
/re { exch dup neg 3 1 roll 5 3 roll moveto 0 rlineto
      0 exch rlineto 0 rlineto closepath } bind def
/S { stroke } bind def
/f { fill } bind def
/f* { eofill } bind def
/n { newpath } bind def
/W { clip } bind def
/W* { eoclip } bind def
/BT { } bind def
/ET { } bind def
/pdfmark where { pop globaldict /?pdfmark /exec load put }
    { globaldict begin /?pdfmark /pop load def /pdfmark
    /cleartomark load def end } ifelse
/BDC { mark 3 1 roll /BDC pdfmark } bind def
/EMC { mark /EMC pdfmark } bind def
/cairo_store_point { /cairo_point_y exch def /cairo_point_x exch def } def
/Tj { show currentpoint cairo_store_point } bind def
/TJ {
  {
    dup
    type /stringtype eq
    { show } { -0.001 mul 0 cairo_font_matrix dtransform rmoveto } ifelse
  } forall
  currentpoint cairo_store_point
} bind def
/cairo_selectfont { cairo_font_matrix aload pop pop pop 0 0 6 array astore
    cairo_font exch selectfont cairo_point_x cairo_point_y moveto } bind def
/Tf { pop /cairo_font exch def /cairo_font_matrix where
      { pop cairo_selectfont } if } bind def
/Td { matrix translate cairo_font_matrix matrix concatmatrix dup
      /cairo_font_matrix exch def dup 4 get exch 5 get cairo_store_point
      /cairo_font where { pop cairo_selectfont } if } bind def
/Tm { 2 copy 8 2 roll 6 array astore /cairo_font_matrix exch def
      cairo_store_point /cairo_font where { pop cairo_selectfont } if } bind def
/g { setgray } bind def
/rg { setrgbcolor } bind def
/d1 { setcachedevice } bind def
%%EndProlog
%%BeginSetup
%%EndSetup
%%Page: 1 1
%%BeginPageSetup
%%PageBoundingBox: 0 47 512 464
%%EndPageSetup
q 0 47 512 417 rectclip q
1 0.901961 0.752941 rg
382.703 344.918 m 259.699 344.918 l 355.828 248.785 l 382.703 263.188 l
 f
1 0.796078 0.486275 rg
120.445 57.828 m 241.719 57.828 l 421.309 154.062 l 408.668 212.277 l f
1 0.901961 0.752941 rg
396.062 270.344 m 10.875 63.941 l 12.441 60.344 16.023 57.828 20.195 57.828
 c 120.445 57.828 l 408.668 212.277 l h
396.062 270.344 m f
1 0.796078 0.486275 rg
355.828 248.785 m 259.699 344.918 l 154.137 344.918 l 287.098 211.957 l
 h
355.828 248.785 m f
1 0.901961 0.752941 rg
154.137 344.918 m 37.125 344.918 l 210.91 171.133 l 287.098 211.957 l h
154.137 344.918 m f
381.777 132.879 m 241.719 57.828 l 442.199 57.828 l f
1 0.796078 0.486275 rg
442.199 359.711 m 409.344 359.711 382.703 333.074 382.703 300.215 c 382.703
 206.492 l 382.703 239.348 409.34 265.984 442.199 265.984 c 475.059 265.984
 501.695 239.348 501.695 206.492 c 501.695 300.215 l 501.695 333.074 475.059
 359.711 442.199 359.711 c h
442.199 359.711 m f
1 0.901961 0.752941 rg
442.199 265.984 m 409.344 265.984 382.703 239.348 382.703 206.492 c 382.703
 117.324 l 382.703 84.465 409.34 57.828 442.199 57.828 c 475.059 57.828 
501.695 84.465 501.695 117.324 c 501.695 206.492 l 501.695 239.348 475.059
 265.984 442.199 265.984 c h
442.199 265.984 m f
442.199 453.832 m 409.344 453.832 382.703 427.195 382.703 394.336 c 382.703
 300.215 l 382.703 333.074 409.34 359.711 442.199 359.711 c 475.059 359.711
 501.695 333.074 501.695 300.215 c 501.695 394.336 l 501.695 427.195 475.059
 453.832 442.199 453.832 c h
442.199 453.832 m f
1 0.796078 0.486275 rg
501.695 117.324 m 501.695 84.465 475.059 57.828 442.199 57.828 c 409.34
 57.828 382.703 84.465 382.703 117.324 c 382.703 150.18 409.34 176.82 442.199
 176.82 c 475.059 176.82 501.695 150.18 501.695 117.324 c h
501.695 117.324 m f
0.976471 g
465.215 117.324 m 465.215 104.609 454.91 94.305 442.199 94.305 c 429.488
 94.305 419.184 104.609 419.184 117.324 c 419.184 130.035 429.488 140.34
 442.199 140.34 c 454.91 140.34 465.215 130.035 465.215 117.324 c h
465.215 117.324 m f
1 0.796078 0.486275 rg
86 296.043 m 10.027 255.895 l 10.027 192.164 l 127.699 254.344 l h
86 296.043 m f
1 0.901961 0.752941 rg
37.125 344.918 m 20.195 344.918 l 14.582 344.918 10.027 340.363 10.027 
334.75 c 10.027 255.895 l 86 296.043 l h
37.125 344.918 m f
127.699 254.344 m 10.027 192.164 l 10.027 128.875 l 169.105 212.934 l h
127.699 254.344 m f
1 0.796078 0.486275 rg
169.105 212.934 m 10.027 128.875 l 10.027 67.996 l 10.027 66.555 10.332
 65.184 10.875 63.941 c 210.91 171.133 l h
169.105 212.934 m f
0 g
512 394.336 m 512 432.75 480.75 464 442.336 464 c 403.926 464 372.676 432.75
 372.676 394.336 c 372.676 355.082 l 20.332 355.082 l 9.121 355.082 0 345.961
 0 334.75 c 1.336 60.828 l 3.871 52.965 12.301 47.664 20.332 47.664 c 442.336
 47.664 l 480.75 47.664 512 78.914 512 117.324 c h
372.676 204.469 m 295.859 163.359 l 284.57 157.32 293.746 139.16 305.457
 145.434 c 372.676 181.406 l 372.676 139.465 l 239.305 67.996 l 161.082 
67.996 l 234.398 107.281 l 245.906 113.449 236.316 131.379 224.793 125.207
 c 118.031 67.996 l 40.117 68 l 372.676 246.203 l h
178.82 334.75 m 255.629 334.75 l 339.098 251.281 l 289.09 224.484 l h
110.906 256.895 m 20.332 209.035 l 20.332 249.766 l 84.254 283.547 l h
20.332 186.035 m 125.953 241.848 l 152.316 215.488 l 20.332 145.746 l h
167.363 200.441 m 194.18 173.625 l 20.332 80.469 l 20.332 122.746 l h
372.676 269.273 m 357.82 261.312 l 284.383 334.75 l 372.676 334.75 l h
270.363 214.449 m 212.902 183.656 l 61.812 334.75 l 150.062 334.75 l h
20.332 334.75 m 33.055 334.75 l 69.211 298.594 l 20.332 272.766 l h
282.355 67.996 m 372.699 116.406 l 372.945 97.52 380.734 80.418 393.199
 67.996 c h
442.336 67.996 m 415.137 67.996 393.008 90.125 393.008 117.324 c 393.008
 144.523 415.137 166.652 442.336 166.652 c 469.539 166.652 491.668 144.523
 491.668 117.324 c 491.668 90.125 469.539 67.996 442.336 67.996 c h
442.336 186.988 m 423.082 186.988 405.633 179.133 393.008 166.461 c 393.008
 206.492 l 393.008 233.316 415.512 255.82 442.336 255.82 c 469.16 255.82
 491.668 233.316 491.668 206.492 c 491.668 166.461 l 479.043 179.133 461.594
 186.988 442.336 186.988 c h
490.477 256.773 m 463.457 282.652 419.426 282.148 393.012 255.633 c 393.012
 263.105 l 393.012 263.133 393.012 263.156 393.012 263.184 c 393.012 300.215
 l 393.012 327.039 415.516 349.543 442.34 349.543 c 469.164 349.543 491.668
 327.039 491.668 300.215 c 491.668 255.633 l 491.27 256.012 490.871 256.395
 490.477 256.773 c h
490.492 350.48 m 463.473 376.371 419.438 375.879 393.008 349.359 c 393.008
 394.336 l 393.008 421.535 415.137 443.664 442.336 443.664 c 469.539 443.664
 491.668 421.535 491.668 394.336 c 491.668 349.359 l 491.277 349.73 490.883
 350.105 490.492 350.48 c 490.062 350.895 490.867 350.121 490.492 350.48
 c h
490.492 350.48 m f
442.336 150.508 m 424.039 150.508 409.152 135.621 409.152 117.324 c 409.152
 99.027 424.039 84.141 442.336 84.141 c 460.637 84.141 475.523 99.027 475.523
 117.324 c 475.523 135.621 460.637 150.508 442.336 150.508 c h
442.336 104.473 m 435.254 104.473 429.488 110.238 429.488 117.324 c 429.488
 124.41 435.254 130.172 442.336 130.172 c 449.422 130.172 455.188 124.41
 455.188 117.324 c 455.188 110.238 449.422 104.473 442.336 104.473 c h
442.336 104.473 m f
264.906 146.242 m 259.379 146.242 254.738 141.598 254.738 136.074 c 254.738
 130.547 259.383 125.91 264.906 125.906 c 270.273 125.906 274.816 130.277
 275.051 135.629 c 275.301 141.316 270.609 146.242 264.906 146.242 c h
264.906 146.242 m f
Q Q
showpage
%%Trailer
end restore
%%EOF
