%!PS-Adobe-3.0 EPSF-3.0
%%Creator: cairo 1.16.0 (https://cairographics.org)
%%CreationDate: Fri May 24 06:27:42 2019
%%Pages: 1
%%DocumentData: Clean7Bit
%%LanguageLevel: 2
%%BoundingBox: 0 0 512 512
%%EndComments
%%BeginProlog
50 dict begin
/q { gsave } bind def
/Q { grestore } bind def
/cm { 6 array astore concat } bind def
/w { setlinewidth } bind def
/J { setlinecap } bind def
/j { setlinejoin } bind def
/M { setmiterlimit } bind def
/d { setdash } bind def
/m { moveto } bind def
/l { lineto } bind def
/c { curveto } bind def
/h { closepath } bind def
/re { exch dup neg 3 1 roll 5 3 roll moveto 0 rlineto
      0 exch rlineto 0 rlineto closepath } bind def
/S { stroke } bind def
/f { fill } bind def
/f* { eofill } bind def
/n { newpath } bind def
/W { clip } bind def
/W* { eoclip } bind def
/BT { } bind def
/ET { } bind def
/BDC { mark 3 1 roll /BDC pdfmark } bind def
/EMC { mark /EMC pdfmark } bind def
/cairo_store_point { /cairo_point_y exch def /cairo_point_x exch def } def
/Tj { show currentpoint cairo_store_point } bind def
/TJ {
  {
    dup
    type /stringtype eq
    { show } { -0.001 mul 0 cairo_font_matrix dtransform rmoveto } ifelse
  } forall
  currentpoint cairo_store_point
} bind def
/cairo_selectfont { cairo_font_matrix aload pop pop pop 0 0 6 array astore
    cairo_font exch selectfont cairo_point_x cairo_point_y moveto } bind def
/Tf { pop /cairo_font exch def /cairo_font_matrix where
      { pop cairo_selectfont } if } bind def
/Td { matrix translate cairo_font_matrix matrix concatmatrix dup
      /cairo_font_matrix exch def dup 4 get exch 5 get cairo_store_point
      /cairo_font where { pop cairo_selectfont } if } bind def
/Tm { 2 copy 8 2 roll 6 array astore /cairo_font_matrix exch def
      cairo_store_point /cairo_font where { pop cairo_selectfont } if } bind def
/g { setgray } bind def
/rg { setrgbcolor } bind def
/d1 { setcachedevice } bind def
/cairo_data_source {
  CairoDataIndex CairoData length lt
    { CairoData CairoDataIndex get /CairoDataIndex CairoDataIndex 1 add def }
    { () } ifelse
} def
/cairo_flush_ascii85_file { cairo_ascii85_file status { cairo_ascii85_file flushfile } if } def
/cairo_image { image cairo_flush_ascii85_file } def
/cairo_imagemask { imagemask cairo_flush_ascii85_file } def
%%EndProlog
%%BeginSetup
%%EndSetup
%%Page: 1 1
%%BeginPageSetup
%%PageBoundingBox: 0 0 512 512
%%EndPageSetup
q 0 0 512 512 rectclip
1 0 0 -1 0 512 cm q
0.705882 0.905882 0.992157 rg
256.504 146.934 m 256.504 480.695 l 256.504 493.801 267.129 504.426 280.238
 504.426 c 484.23 504.426 l 484.23 146.934 l h
256.504 146.934 m f
0.25098 0.756863 0.980392 rg
280.238 409.5 m 293.344 409.5 303.969 420.125 303.969 433.23 c 303.969 
446.34 293.344 456.965 280.238 456.965 c 267.129 456.965 256.504 467.59 
256.504 480.695 c 256.504 409.5 l h
280.238 409.5 m f
0.576471 0.862745 0.988235 rg
468.742 146.934 15.488 357.492 re f
0.705882 0.905882 0.992157 rg
70.184 70.184 m 280.234 70.184 l 293.344 70.184 303.969 80.809 303.969 
93.918 c 303.969 433.23 l 303.969 420.125 293.344 409.5 280.234 409.5 c 
70.184 409.5 l h
70.184 70.184 m f
0.576471 0.862745 0.988235 rg
280.238 70.184 m 264.754 70.184 l 277.859 70.184 288.484 80.809 288.484
 93.918 c 288.484 410.973 l 297.523 414.324 303.969 423.023 303.969 433.23
 c 303.969 93.918 l 303.969 80.809 293.344 70.184 280.238 70.184 c h
280.238 70.184 m f
70.184 409.5 m 121.172 409.5 l 139.344 394.672 150.973 372.117 150.973 
346.887 c 150.973 70.184 l 70.184 70.184 l h
70.184 409.5 m f
0.447059 0.819608 0.984314 rg
132.797 346.887 m 132.797 381.469 104.766 409.5 70.184 409.5 c 35.605 409.5
 7.574 381.469 7.574 346.887 c 7.574 312.309 35.605 284.277 70.184 284.277
 c 104.766 284.277 132.797 312.309 132.797 346.887 c h
132.797 346.887 m f
0.25098 0.756863 0.980392 rg
108.262 297.199 m 116.359 307.75 121.184 320.945 121.184 335.273 c 121.184
 369.852 93.152 397.887 58.574 397.887 c 44.242 397.887 31.047 393.062 20.496
 384.965 c 31.941 399.875 49.938 409.496 70.188 409.496 c 104.766 409.496
 132.797 381.465 132.797 346.887 c 132.797 326.637 123.176 308.645 108.262
 297.199 c h
108.262 297.199 m f
0.705882 0.905882 0.992157 rg
104.52 346.887 m 104.52 365.852 89.148 381.223 70.184 381.223 c 51.223 
381.223 35.852 365.852 35.852 346.887 c 35.852 327.926 51.223 312.555 70.184
 312.555 c 89.148 312.555 104.52 327.926 104.52 346.887 c h
104.52 346.887 m f
0.576471 0.862745 0.988235 rg
7.574 346.887 m 7.574 312.309 35.605 284.277 70.184 284.277 c 104.766 284.277
 132.797 312.309 132.797 346.887 c 132.797 70.184 l 132.797 35.605 104.766
 7.574 70.184 7.574 c 35.605 7.574 7.574 35.605 7.574 70.184 c h
7.574 346.887 m f
0.447059 0.819608 0.984314 rg
115.629 27.141 m 115.629 65.828 l 115.727 67.27 115.797 68.719 115.797 
70.184 c 115.797 304.02 l 126.332 315.223 132.797 330.297 132.797 346.887
 c 132.797 70.184 l 132.797 53.508 126.262 38.363 115.629 27.141 c h
115.629 27.141 m f
0 g
112.094 346.887 m 112.094 323.777 93.297 304.98 70.188 304.98 c 47.078 
304.98 28.277 323.777 28.277 346.887 c 28.277 369.996 47.078 388.797 70.188
 388.797 c 93.297 388.797 112.094 369.996 112.094 346.887 c h
43.426 346.887 m 43.426 332.133 55.43 320.129 70.184 320.129 c 84.941 320.129
 96.945 332.133 96.945 346.887 c 96.945 361.645 84.941 373.648 70.184 373.648
 c 55.43 373.648 43.426 361.645 43.426 346.887 c h
43.426 346.887 m f
504.426 187.008 m 508.609 187.008 512 183.617 512 179.434 c 512 175.25 
508.609 171.859 504.426 171.859 c 491.805 171.859 l 491.805 154.508 l 504.426
 154.508 l 508.609 154.508 512 151.117 512 146.934 c 512 142.754 508.609
 139.359 504.426 139.359 c 311.543 139.359 l 311.543 93.918 l 311.543 76.656
 297.496 62.609 280.234 62.609 c 215.141 62.609 l 210.961 62.609 207.566
 66.004 207.566 70.184 c 207.566 74.367 210.961 77.758 215.141 77.758 c 
280.234 77.758 l 289.145 77.758 296.395 85.008 296.395 93.918 c 296.395 
406.426 l 291.676 403.57 286.145 401.926 280.234 401.926 c 113.66 401.926
 l 129.914 389.059 140.371 369.18 140.371 346.887 c 140.371 77.758 l 179.82
 77.758 l 184.004 77.758 187.395 74.367 187.395 70.184 c 187.395 66.004 
184.004 62.609 179.82 62.609 c 139.957 62.609 l 136.164 27.461 106.324 0
 70.184 0 c 31.484 0 0 31.484 0 70.184 c 0 121.098 l 0 125.281 3.391 128.672
 7.574 128.672 c 11.758 128.672 15.148 125.281 15.148 121.098 c 15.148 70.184
 l 15.148 39.836 39.84 15.148 70.184 15.148 c 100.531 15.148 125.223 39.84
 125.223 70.184 c 125.223 303.41 l 112.355 287.16 92.477 276.703 70.184 
276.703 c 47.895 276.703 28.012 287.16 15.148 303.41 c 15.148 156.527 l 
15.148 152.348 11.758 148.953 7.574 148.953 c 3.391 148.953 0 152.348 0 
156.527 c 0 346.887 l 0 385.59 31.484 417.074 70.184 417.074 c 248.93 417.074
 l 248.93 480.695 l 248.93 497.957 262.977 512 280.238 512 c 381.77 512 
l 385.953 512 389.344 508.609 389.344 504.426 c 389.344 500.242 385.953 
496.852 381.77 496.852 c 280.238 496.852 l 271.328 496.852 264.078 489.602
 264.078 480.695 c 264.078 471.785 271.328 464.535 280.238 464.535 c 297.5
 464.535 311.543 450.492 311.543 433.23 c 311.543 154.508 l 476.656 154.508
 l 476.656 496.852 l 417.074 496.852 l 412.891 496.852 409.5 500.242 409.5
 504.426 c 409.5 508.609 412.891 512 417.074 512 c 504.426 512 l 508.609
 512 512 508.609 512 504.426 c 512 500.242 508.609 496.852 504.426 496.852
 c 491.805 496.852 l 491.805 479.5 l 504.426 479.5 l 508.609 479.5 512 476.109
 512 471.926 c 512 467.742 508.609 464.352 504.426 464.352 c 491.805 464.352
 l 491.805 447 l 504.426 447 l 508.609 447 512 443.609 512 439.426 c 512
 435.242 508.609 431.852 504.426 431.852 c 491.805 431.852 l 491.805 414.504
 l 504.426 414.504 l 508.609 414.504 512 411.109 512 406.93 c 512 402.746
 508.609 399.355 504.426 399.355 c 491.805 399.355 l 491.805 382.004 l 504.426
 382.004 l 508.609 382.004 512 378.613 512 374.43 c 512 370.246 508.609 
366.855 504.426 366.855 c 491.805 366.855 l 491.805 349.504 l 504.426 349.504
 l 508.609 349.504 512 346.113 512 341.93 c 512 337.746 508.609 334.355 
504.426 334.355 c 491.805 334.355 l 491.805 317.004 l 504.426 317.004 l 
508.609 317.004 512 313.613 512 309.43 c 512 305.246 508.609 301.855 504.426
 301.855 c 491.805 301.855 l 491.805 284.504 l 504.426 284.504 l 508.609
 284.504 512 281.113 512 276.93 c 512 272.746 508.609 269.355 504.426 269.355
 c 491.805 269.355 l 491.805 252.004 l 504.426 252.004 l 508.609 252.004
 512 248.613 512 244.43 c 512 240.246 508.609 236.855 504.426 236.855 c 
491.805 236.855 l 491.805 219.508 l 504.426 219.508 l 508.609 219.508 512
 216.113 512 211.934 c 512 207.75 508.609 204.359 504.426 204.359 c 491.805
 204.359 l 491.805 187.008 l h
15.148 346.887 m 15.148 316.539 39.84 291.852 70.184 291.852 c 100.531 
291.852 125.223 316.539 125.223 346.887 c 125.223 377.234 100.531 401.926
 70.184 401.926 c 39.84 401.926 15.148 377.234 15.148 346.887 c h
280.238 449.391 m 274.328 449.391 268.801 451.035 264.078 453.891 c 264.078
 417.074 l 280.238 417.074 l 289.145 417.074 296.395 424.32 296.395 433.23
 c 296.395 442.141 289.145 449.391 280.238 449.391 c h
280.238 449.391 m f
Q Q
showpage
%%Trailer
end
%%EOF
