%!PS-Adobe-3.0 EPSF-3.0
%%Creator: cairo 1.15.12 (http://cairographics.org)
%%CreationDate: Sun May 26 01:50:03 2019
%%Pages: 1
%%DocumentData: Clean7Bit
%%LanguageLevel: 2
%%BoundingBox: 27 0 485 512
%%EndComments
%%BeginProlog
50 dict begin
/q { gsave } bind def
/Q { grestore } bind def
/cm { 6 array astore concat } bind def
/w { setlinewidth } bind def
/J { setlinecap } bind def
/j { setlinejoin } bind def
/M { setmiterlimit } bind def
/d { setdash } bind def
/m { moveto } bind def
/l { lineto } bind def
/c { curveto } bind def
/h { closepath } bind def
/re { exch dup neg 3 1 roll 5 3 roll moveto 0 rlineto
      0 exch rlineto 0 rlineto closepath } bind def
/S { stroke } bind def
/f { fill } bind def
/f* { eofill } bind def
/n { newpath } bind def
/W { clip } bind def
/W* { eoclip } bind def
/BT { } bind def
/ET { } bind def
/BDC { mark 3 1 roll /BDC pdfmark } bind def
/EMC { mark /EMC pdfmark } bind def
/cairo_store_point { /cairo_point_y exch def /cairo_point_x exch def } def
/Tj { show currentpoint cairo_store_point } bind def
/TJ {
  {
    dup
    type /stringtype eq
    { show } { -0.001 mul 0 cairo_font_matrix dtransform rmoveto } ifelse
  } forall
  currentpoint cairo_store_point
} bind def
/cairo_selectfont { cairo_font_matrix aload pop pop pop 0 0 6 array astore
    cairo_font exch selectfont cairo_point_x cairo_point_y moveto } bind def
/Tf { pop /cairo_font exch def /cairo_font_matrix where
      { pop cairo_selectfont } if } bind def
/Td { matrix translate cairo_font_matrix matrix concatmatrix dup
      /cairo_font_matrix exch def dup 4 get exch 5 get cairo_store_point
      /cairo_font where { pop cairo_selectfont } if } bind def
/Tm { 2 copy 8 2 roll 6 array astore /cairo_font_matrix exch def
      cairo_store_point /cairo_font where { pop cairo_selectfont } if } bind def
/g { setgray } bind def
/rg { setrgbcolor } bind def
/d1 { setcachedevice } bind def
/cairo_data_source {
  CairoDataIndex CairoData length lt
    { CairoData CairoDataIndex get /CairoDataIndex CairoDataIndex 1 add def }
    { () } ifelse
} def
/cairo_flush_ascii85_file { cairo_ascii85_file status { cairo_ascii85_file flushfile } if } def
/cairo_image { image cairo_flush_ascii85_file } def
/cairo_imagemask { imagemask cairo_flush_ascii85_file } def
%%EndProlog
%%BeginSetup
%%EndSetup
%%Page: 1 1
%%BeginPageSetup
%%PageBoundingBox: 27 0 485 512
%%EndPageSetup
q 27 0 458 512 rectclip
1 0 0 -1 0 512 cm q
0 g
327 257 m 327 314.898 279.898 362 222 362 c 164.102 362 117 314.898 117
 257 c 117 0 l 87 0 l 87 257 l 87 320.898 132.418 376.535 194.996 389.285
 c 207 391.73 l 207 512 l 237 512 l 237 435 l 237 410.188 257.188 390 282
 390 c 306.812 390 327 410.188 327 435 c 327 512 l 357 512 l 357 0 l 327
 0 l h
327 257 m f
297 435 m 297 426.73 290.27 420 282 420 c 273.73 420 267 426.73 267 435
 c 267 512 l 297 512 l h
297 435 m f
207 197 m 207 205.27 213.73 212 222 212 c 230.27 212 237 205.27 237 197
 c 237 0 l 207 0 l h
207 197 m f
177 415.762 m 106.773 395.844 57 330.949 57 257 c 57 0 l 27 0 l 27 512 
l 177 512 l h
177 415.762 m f
147 257 m 147 298.355 180.645 332 222 332 c 263.355 332 297 298.355 297
 257 c 297 0 l 267 0 l 267 197 l 267 221.812 246.812 242 222 242 c 197.188
 242 177 221.812 177 197 c 177 0 l 147 0 l h
147 257 m f
439.5 512 m 464.352 512 484.5 491.852 484.5 467 c 394.5 467 l 394.5 491.852
 414.648 512 439.5 512 c h
439.5 512 m f
394.5 287 90 150 re f
394.5 182 m 409.5 212 l 409.5 257 l 469.5 257 l 469.5 212 l 484.5 182 l
 484.5 75 l 394.5 75 l h
394.5 182 m f
394.5 0 90 45 re f
Q Q
showpage
%%Trailer
end
%%EOF
