%!PS-Adobe-3.0 EPSF-3.0
%%Creator: cairo 1.15.12 (http://cairographics.org)
%%CreationDate: Sun May 26 01:50:03 2019
%%Pages: 1
%%DocumentData: Clean7Bit
%%LanguageLevel: 2
%%BoundingBox: 0 0 511 511
%%EndComments
%%BeginProlog
50 dict begin
/q { gsave } bind def
/Q { grestore } bind def
/cm { 6 array astore concat } bind def
/w { setlinewidth } bind def
/J { setlinecap } bind def
/j { setlinejoin } bind def
/M { setmiterlimit } bind def
/d { setdash } bind def
/m { moveto } bind def
/l { lineto } bind def
/c { curveto } bind def
/h { closepath } bind def
/re { exch dup neg 3 1 roll 5 3 roll moveto 0 rlineto
      0 exch rlineto 0 rlineto closepath } bind def
/S { stroke } bind def
/f { fill } bind def
/f* { eofill } bind def
/n { newpath } bind def
/W { clip } bind def
/W* { eoclip } bind def
/BT { } bind def
/ET { } bind def
/BDC { mark 3 1 roll /BDC pdfmark } bind def
/EMC { mark /EMC pdfmark } bind def
/cairo_store_point { /cairo_point_y exch def /cairo_point_x exch def } def
/Tj { show currentpoint cairo_store_point } bind def
/TJ {
  {
    dup
    type /stringtype eq
    { show } { -0.001 mul 0 cairo_font_matrix dtransform rmoveto } ifelse
  } forall
  currentpoint cairo_store_point
} bind def
/cairo_selectfont { cairo_font_matrix aload pop pop pop 0 0 6 array astore
    cairo_font exch selectfont cairo_point_x cairo_point_y moveto } bind def
/Tf { pop /cairo_font exch def /cairo_font_matrix where
      { pop cairo_selectfont } if } bind def
/Td { matrix translate cairo_font_matrix matrix concatmatrix dup
      /cairo_font_matrix exch def dup 4 get exch 5 get cairo_store_point
      /cairo_font where { pop cairo_selectfont } if } bind def
/Tm { 2 copy 8 2 roll 6 array astore /cairo_font_matrix exch def
      cairo_store_point /cairo_font where { pop cairo_selectfont } if } bind def
/g { setgray } bind def
/rg { setrgbcolor } bind def
/d1 { setcachedevice } bind def
/cairo_data_source {
  CairoDataIndex CairoData length lt
    { CairoData CairoDataIndex get /CairoDataIndex CairoDataIndex 1 add def }
    { () } ifelse
} def
/cairo_flush_ascii85_file { cairo_ascii85_file status { cairo_ascii85_file flushfile } if } def
/cairo_image { image cairo_flush_ascii85_file } def
/cairo_imagemask { imagemask cairo_flush_ascii85_file } def
%%EndProlog
%%BeginSetup
%%EndSetup
%%Page: 1 1
%%BeginPageSetup
%%PageBoundingBox: 0 0 511 511
%%EndPageSetup
q 0 0 511 511 rectclip
1 0 0 -1 0 511 cm q
0 g
429.785 34.594 m 401.051 -2.93 347.367 -10.113 309.777 18.527 c 137.895
 149.82 l 100.367 178.555 93.18 232.242 121.824 269.828 c 198.414 370.094
 l 203.289 376.516 211.227 379.84 219.223 378.812 c 227.223 377.785 234.062
 372.562 237.16 365.117 c 240.254 357.668 239.133 349.141 234.223 342.742
 c 157.633 242.477 l 144.066 224.672 147.469 199.242 165.246 185.633 c 337.129
 54.34 l 354.934 40.766 380.367 44.176 393.977 61.949 c 470.562 162.215 
l 478.117 172.102 492.254 173.996 502.145 166.445 c 512.031 158.891 513.93
 144.75 506.371 134.863 c h
429.785 34.594 m f
30.758 501.18 m 37.672 510.535 49.879 514.277 60.852 510.414 c 115.352 
489.742 127.805 414.023 185.383 397.391 c 188.262 396.652 190.586 394.531
 191.574 391.734 c 192.566 388.934 192.094 385.824 190.32 383.445 c 161.25
 345.391 l 159.422 343.059 156.543 341.785 153.586 342.004 c 150.625 342.223
 147.969 343.902 146.5 346.488 c 115.305 397.672 38.98 389.762 4.703 436.902
 c -1.914 446.469 -1.512 459.234 5.688 468.367 c h
30.758 501.18 m f
280.207 313.289 m 284.008 310.387 284.734 304.953 281.832 301.148 c 270.465
 286.27 l 269.074 284.441 267.008 283.242 264.73 282.938 c 262.453 282.637
 260.148 283.246 258.324 284.645 c 227.012 308.562 l 248.895 337.215 l h
280.207 313.289 m f
238.059 274.121 m 223.246 254.73 l 220.305 251.059 214.969 250.406 211.227
 253.262 c 207.488 256.121 206.715 261.441 209.484 265.246 c 224.297 284.633
 l 227.234 288.305 232.574 288.957 236.316 286.102 c 240.055 283.242 240.828
 277.922 238.059 274.121 c h
238.059 274.121 m f
408.168 170.184 m 404.367 173.09 403.637 178.523 406.543 182.324 c 417.906
 197.211 l 420.812 201.012 426.246 201.738 430.047 198.836 c 459.551 176.297
 l 437.668 147.648 l h
408.168 170.184 m f
402.305 117.965 m 399.398 114.164 393.965 113.434 390.16 116.336 c 386.359
 119.238 385.629 124.676 388.531 128.48 c 403.336 147.863 l 405.215 150.324
 408.262 151.594 411.332 151.199 c 414.402 150.805 417.027 148.801 418.219
 145.941 c 419.406 143.086 418.988 139.809 417.105 137.348 c h
402.305 117.965 m f
292.234 270.523 m 288.434 273.426 287.707 278.859 290.609 282.668 c 293.512
 286.469 298.949 287.195 302.75 284.293 c 392.477 215.762 l 396.277 212.855
 397.008 207.422 394.105 203.621 c 391.199 199.816 385.766 199.086 381.965
 201.988 c h
292.234 270.523 m f
Q Q
showpage
%%Trailer
end
%%EOF
