%!PS-Adobe-3.0 EPSF-3.0
%%Creator: cairo 1.16.0 (https://cairographics.org)
%%CreationDate: Fri May 17 07:14:05 2019
%%Pages: 1
%%DocumentData: Clean7Bit
%%LanguageLevel: 2
%%BoundingBox: 1 0 510 511
%%EndComments
%%BeginProlog
50 dict begin
/q { gsave } bind def
/Q { grestore } bind def
/cm { 6 array astore concat } bind def
/w { setlinewidth } bind def
/J { setlinecap } bind def
/j { setlinejoin } bind def
/M { setmiterlimit } bind def
/d { setdash } bind def
/m { moveto } bind def
/l { lineto } bind def
/c { curveto } bind def
/h { closepath } bind def
/re { exch dup neg 3 1 roll 5 3 roll moveto 0 rlineto
      0 exch rlineto 0 rlineto closepath } bind def
/S { stroke } bind def
/f { fill } bind def
/f* { eofill } bind def
/n { newpath } bind def
/W { clip } bind def
/W* { eoclip } bind def
/BT { } bind def
/ET { } bind def
/BDC { mark 3 1 roll /BDC pdfmark } bind def
/EMC { mark /EMC pdfmark } bind def
/cairo_store_point { /cairo_point_y exch def /cairo_point_x exch def } def
/Tj { show currentpoint cairo_store_point } bind def
/TJ {
  {
    dup
    type /stringtype eq
    { show } { -0.001 mul 0 cairo_font_matrix dtransform rmoveto } ifelse
  } forall
  currentpoint cairo_store_point
} bind def
/cairo_selectfont { cairo_font_matrix aload pop pop pop 0 0 6 array astore
    cairo_font exch selectfont cairo_point_x cairo_point_y moveto } bind def
/Tf { pop /cairo_font exch def /cairo_font_matrix where
      { pop cairo_selectfont } if } bind def
/Td { matrix translate cairo_font_matrix matrix concatmatrix dup
      /cairo_font_matrix exch def dup 4 get exch 5 get cairo_store_point
      /cairo_font where { pop cairo_selectfont } if } bind def
/Tm { 2 copy 8 2 roll 6 array astore /cairo_font_matrix exch def
      cairo_store_point /cairo_font where { pop cairo_selectfont } if } bind def
/g { setgray } bind def
/rg { setrgbcolor } bind def
/d1 { setcachedevice } bind def
/cairo_data_source {
  CairoDataIndex CairoData length lt
    { CairoData CairoDataIndex get /CairoDataIndex CairoDataIndex 1 add def }
    { () } ifelse
} def
/cairo_flush_ascii85_file { cairo_ascii85_file status { cairo_ascii85_file flushfile } if } def
/cairo_image { image cairo_flush_ascii85_file } def
/cairo_imagemask { imagemask cairo_flush_ascii85_file } def
%%EndProlog
%%BeginSetup
%%EndSetup
%%Page: 1 1
%%BeginPageSetup
%%PageBoundingBox: 1 0 510 511
%%EndPageSetup
q 1 0 509 511 rectclip
1 0 0 -1 0 511 cm q
0.427451 0.254902 0.133333 rg
192.82 389.828 m 136.184 406.18 123.922 480.613 70.348 500.969 c 59.543
 504.738 47.539 501.047 40.711 491.859 c 34.664 483.938 l 16.098 459.578
 l 9.027 450.605 8.613 438.082 15.078 428.66 c 48.801 382.332 123.836 390.086
 154.578 339.75 c 156.016 337.211 158.617 335.559 161.523 335.336 c 164.43
 335.113 167.254 336.352 169.059 338.641 c 175.875 341.965 l 192.906 350.223
 l 197.59 376.117 l 199.332 378.445 199.805 381.488 198.848 384.238 c 197.895
 386.984 195.633 389.082 192.82 389.828 c h
192.82 389.828 m f
0.568627 0.337255 0.176471 rg
174.172 372.793 m 117.535 389.145 105.355 463.582 51.699 483.938 c 46.203
 485.98 40.156 485.98 34.664 483.938 c 16.098 459.578 l 9.027 450.605 8.613
 438.082 15.078 428.66 c 48.801 382.332 123.836 390.086 154.578 339.75 c
 156.016 337.211 158.617 335.559 161.523 335.336 c 164.43 335.113 167.254
 336.352 169.059 338.641 c 175.875 341.965 l 179.023 359.082 l 180.77 361.422
 181.234 364.48 180.258 367.234 c 179.285 369.992 177 372.074 174.172 372.793
 c h
174.172 372.793 m f
1 0.862745 0 rg
274.531 315.613 m 232 348.098 l 213.902 339.809 l 210.48 319.93 l 253.012
 287.445 l 256.75 284.586 262.098 285.305 264.949 289.043 c 276.129 303.676
 l 278.98 307.414 278.27 312.758 274.531 315.613 c h
274.531 315.613 m f
464.402 170.582 m 421.871 203.066 l 418.137 205.918 412.793 205.207 409.934
 201.469 c 398.758 186.836 l 395.902 183.098 396.617 177.75 400.355 174.898
 c 442.887 142.414 l 461.543 147.18 l h
464.402 170.582 m f
0.0117647 0.466667 0.737255 rg
492.781 171.203 m 488.109 174.781 482.203 176.352 476.371 175.57 c 470.539
 174.785 465.258 171.711 461.695 167.031 c 445.684 146.078 l 386.406 68.492
 l 373.039 51.008 348.039 47.652 330.539 60.996 c 161.48 190.109 l 148.219
 200.258 142.68 217.59 147.598 233.547 c 148.93 238.051 151.098 242.27 153.984
 245.977 c 219.477 331.742 l 229.273 344.602 l 234.098 350.883 235.195 359.266
 232.152 366.578 c 229.105 373.891 222.387 379.016 214.527 380.02 c 206.672
 381.02 198.879 377.746 194.102 371.43 c 118.809 272.891 l 114.656 267.496
 111.195 261.605 108.504 255.348 c 93.113 219.836 103.859 178.406 134.566
 154.852 c 303.625 25.734 l 340.594 -2.379 393.34 4.703 421.578 41.574 c
 487.074 127.258 l 496.957 140.199 l 504.359 149.914 502.492 163.793 492.781
 171.203 c h
492.781 171.203 m f
0.00784314 0.662745 0.956863 rg
478.73 148.719 m 474.066 152.309 468.168 153.891 462.336 153.129 c 456.504
 152.359 451.215 149.305 447.641 144.629 c 372.355 46.004 l 358.984 28.523
 333.988 25.168 316.484 38.512 c 147.426 167.621 l 129.945 180.992 126.59
 205.992 139.934 223.496 c 147.598 233.547 l 215.219 322.117 l 222.648 331.832
 220.801 345.73 211.09 353.164 c 201.375 360.594 187.477 358.742 180.047
 349.031 c 108.504 255.348 l 93.113 219.836 103.859 178.406 134.566 154.852
 c 303.625 25.734 l 340.594 -2.379 393.34 4.703 421.578 41.574 c 487.074
 127.258 l 488.566 135.414 485.336 143.711 478.73 148.719 c h
478.73 148.719 m f
0 g
211.766 388.703 m 210.383 388.703 209.004 388.609 207.637 388.426 c 199.566
 387.371 192.254 383.129 187.332 376.645 c 112.016 278.047 l 81.004 237.344
 88.789 179.215 129.422 148.102 c 298.438 19 l 339.137 -12.023 397.273 -4.238
 428.383 36.398 c 503.691 134.996 l 510.344 143.699 511.844 155.297 507.629
 165.414 c 503.41 175.527 494.121 182.621 483.258 184.027 c 472.391 185.438
 461.594 180.938 454.945 172.23 c 379.633 73.633 l 369.105 59.891 349.445
 57.258 335.672 67.746 c 166.656 196.859 l 152.914 207.387 150.277 227.047
 160.766 240.816 c 236.086 339.41 l 243.152 348.672 244.363 361.145 239.207
 371.594 c 234.055 382.047 223.422 388.672 211.77 388.703 c h
354.512 17.027 m 337.973 17.016 321.895 22.469 308.773 32.539 c 139.762
 161.641 l 106.594 187.039 100.242 234.484 125.562 267.711 c 200.867 366.305
 l 205.48 372.176 213.945 373.246 219.875 368.719 c 225.805 364.191 226.992
 355.738 222.543 349.75 c 147.23 251.152 l 131.031 229.902 135.098 199.555
 156.316 183.316 c 325.332 54.211 l 346.586 38.016 376.93 42.078 393.168
 63.293 c 468.484 161.887 l 470.68 164.762 473.926 166.645 477.508 167.125
 c 481.094 167.602 484.719 166.641 487.59 164.445 c 487.598 164.445 l 490.477
 162.25 492.359 159.004 492.84 155.422 c 493.316 151.832 492.352 148.203
 490.152 145.332 c 414.84 46.738 l 402.691 30.758 384.652 20.305 364.746
 17.707 c 361.352 17.254 357.934 17.027 354.512 17.027 c h
354.512 17.027 m f
61.844 511 m 50.891 510.918 40.59 505.762 33.965 497.039 c 9.312 464.766
 l -0.031 452.785 -0.473 436.113 8.223 423.652 c 25.973 399.234 53.5 388.844
 80.109 378.801 c 107.27 368.555 132.918 358.875 147.273 335.32 c 150.289
 330.328 155.578 327.148 161.398 326.82 c 167.023 326.492 172.438 329.008
 175.824 333.512 c 204.402 370.926 l 207.824 375.395 208.816 381.262 207.059
 386.602 c 205.215 392.137 200.754 396.395 195.145 397.992 c 168.652 405.648
 152.562 427.848 135.531 451.348 c 118.836 474.383 101.582 498.203 73.348
 508.906 c 69.672 510.297 65.773 511.004 61.844 511 c h
162.281 343.852 m 144.41 372.738 114.781 383.926 86.125 394.738 c 60.738
 404.32 36.758 413.375 21.992 433.668 c 17.703 440.031 18.047 448.445 22.848
 454.434 c 47.5 486.699 l 52.008 492.91 60.035 495.457 67.301 492.98 c 90.766
 484.082 105.812 463.324 121.734 441.352 c 139.703 416.547 158.285 390.902
 190.414 381.621 c 190.84 381.504 190.887 381.246 190.887 381.242 c h
162.281 343.852 m f
232.008 356.609 m 229.352 356.617 226.844 355.379 225.234 353.266 c 203.723
 325.102 l 202.348 323.305 201.75 321.039 202.051 318.801 c 202.344 316.559
 203.523 314.531 205.32 313.16 c 247.848 280.672 l 255.324 274.965 266.012
 276.395 271.723 283.871 c 282.898 298.504 l 288.609 305.984 287.18 316.668
 279.707 322.379 c 279.703 322.383 l 237.168 354.863 l 235.688 356 233.875
 356.613 232.008 356.609 c h
222.422 321.523 m 233.598 336.152 l 269.367 308.832 l 258.184 294.207 l
 h
222.422 321.523 m f
238.66 306.926 m 236.008 306.93 233.5 305.695 231.891 303.578 c 204.988
 268.367 l 203.059 265.953 202.582 262.688 203.75 259.828 c 204.914 256.965
 207.539 254.961 210.605 254.586 c 213.676 254.211 216.703 255.531 218.52
 258.027 c 245.418 293.242 l 247.383 295.816 247.719 299.277 246.289 302.18
 c 244.852 305.082 241.898 306.922 238.66 306.926 c h
238.66 306.926 m f
416.727 213.32 m 411.414 213.332 406.402 210.863 403.168 206.645 c 391.988
 192.004 l 386.277 184.527 387.707 173.84 395.18 168.129 c 437.711 135.637
 l 441.449 132.785 446.797 133.5 449.652 137.242 c 471.176 165.414 l 474.027
 169.148 473.309 174.488 469.574 177.348 c 427.051 209.832 l 424.086 212.098
 420.457 213.324 416.727 213.32 c h
441.285 154.348 m 405.523 181.664 l 416.703 196.301 l 452.465 168.984 l
 h
441.285 154.348 m f
414.723 172.445 m 412.066 172.449 409.555 171.215 407.945 169.098 c 381.047
 133.883 l 379.199 131.465 378.785 128.246 379.957 125.434 c 381.125 122.629
 383.707 120.656 386.727 120.266 c 389.746 119.875 392.742 121.129 394.59
 123.543 c 421.484 158.762 l 423.449 161.336 423.785 164.801 422.352 167.699
 c 420.922 170.605 417.961 172.445 414.727 172.445 c h
414.723 172.445 m f
270.547 304.875 m 266.895 304.879 263.652 302.551 262.48 299.094 c 261.309
 295.633 262.473 291.812 265.371 289.594 c 399.172 187.387 l 401.586 185.484
 404.84 185.027 407.68 186.195 c 410.523 187.363 412.52 189.969 412.898 
193.02 c 413.277 196.066 411.984 199.086 409.516 200.918 c 275.711 303.125
 l 274.23 304.262 272.418 304.879 270.547 304.875 c h
270.547 304.875 m f
Q Q
showpage
%%Trailer
end
%%EOF
