%!PS-Adobe-3.0 EPSF-3.0
%%Creator: cairo 1.15.12 (http://cairographics.org)
%%CreationDate: Sun May 26 01:50:03 2019
%%Pages: 1
%%DocumentData: Clean7Bit
%%LanguageLevel: 2
%%BoundingBox: 1 0 510 511
%%EndComments
%%BeginProlog
50 dict begin
/q { gsave } bind def
/Q { grestore } bind def
/cm { 6 array astore concat } bind def
/w { setlinewidth } bind def
/J { setlinecap } bind def
/j { setlinejoin } bind def
/M { setmiterlimit } bind def
/d { setdash } bind def
/m { moveto } bind def
/l { lineto } bind def
/c { curveto } bind def
/h { closepath } bind def
/re { exch dup neg 3 1 roll 5 3 roll moveto 0 rlineto
      0 exch rlineto 0 rlineto closepath } bind def
/S { stroke } bind def
/f { fill } bind def
/f* { eofill } bind def
/n { newpath } bind def
/W { clip } bind def
/W* { eoclip } bind def
/BT { } bind def
/ET { } bind def
/BDC { mark 3 1 roll /BDC pdfmark } bind def
/EMC { mark /EMC pdfmark } bind def
/cairo_store_point { /cairo_point_y exch def /cairo_point_x exch def } def
/Tj { show currentpoint cairo_store_point } bind def
/TJ {
  {
    dup
    type /stringtype eq
    { show } { -0.001 mul 0 cairo_font_matrix dtransform rmoveto } ifelse
  } forall
  currentpoint cairo_store_point
} bind def
/cairo_selectfont { cairo_font_matrix aload pop pop pop 0 0 6 array astore
    cairo_font exch selectfont cairo_point_x cairo_point_y moveto } bind def
/Tf { pop /cairo_font exch def /cairo_font_matrix where
      { pop cairo_selectfont } if } bind def
/Td { matrix translate cairo_font_matrix matrix concatmatrix dup
      /cairo_font_matrix exch def dup 4 get exch 5 get cairo_store_point
      /cairo_font where { pop cairo_selectfont } if } bind def
/Tm { 2 copy 8 2 roll 6 array astore /cairo_font_matrix exch def
      cairo_store_point /cairo_font where { pop cairo_selectfont } if } bind def
/g { setgray } bind def
/rg { setrgbcolor } bind def
/d1 { setcachedevice } bind def
/cairo_data_source {
  CairoDataIndex CairoData length lt
    { CairoData CairoDataIndex get /CairoDataIndex CairoDataIndex 1 add def }
    { () } ifelse
} def
/cairo_flush_ascii85_file { cairo_ascii85_file status { cairo_ascii85_file flushfile } if } def
/cairo_image { image cairo_flush_ascii85_file } def
/cairo_imagemask { imagemask cairo_flush_ascii85_file } def
%%EndProlog
%%BeginSetup
%%EndSetup
%%Page: 1 1
%%BeginPageSetup
%%PageBoundingBox: 1 0 510 511
%%EndPageSetup
q 1 0 509 511 rectclip
1 0 0 -1 0 511 cm q
0 g
147.273 335.32 m 132.918 358.875 107.27 368.555 80.109 378.801 c 53.5 388.844
 25.977 399.234 8.223 423.652 c -0.473 436.113 -0.031 452.785 9.312 464.766
 c 33.965 497.039 l 40.59 505.762 50.891 510.918 61.844 511 c 65.773 511.004
 69.668 510.297 73.34 508.906 c 101.574 498.203 118.832 474.383 135.523 
451.348 c 152.555 427.844 168.648 405.648 195.141 397.992 c 200.156 396.523
 204.258 392.91 206.336 388.125 c 206.777 388.203 207.188 388.367 207.637
 388.426 c 209.004 388.613 210.383 388.703 211.766 388.703 c 221.031 388.691
 229.793 384.477 235.59 377.246 c 241.383 370.016 243.59 360.543 241.582
 351.496 c 279.699 322.383 l 279.703 322.379 l 287.176 316.668 288.605 305.984
 282.895 298.508 c 282.48 297.961 l 402.746 206.086 l 403.168 206.645 l 
408.898 214.102 419.57 215.527 427.051 209.828 c 465.16 180.719 l 477.879
 187.395 493.531 184.32 502.789 173.336 c 512.047 162.348 512.422 146.402
 503.691 134.996 c 428.383 36.398 l 397.273 -4.238 339.137 -12.023 298.438
 19 c 129.422 148.102 l 88.789 179.215 81.004 237.344 112.016 278.047 c 
151.973 330.348 l 150.102 331.688 148.5 333.375 147.273 335.32 c h
233.598 336.152 m 222.422 321.523 l 258.184 294.203 l 263.77 301.516 l 
263.777 301.527 l 263.785 301.531 l 269.367 308.836 l h
272.145 284.422 m 271.719 283.867 l 266.008 276.391 255.316 274.961 247.844
 280.672 c 240.25 286.473 l 218.52 258.023 l 216.699 255.531 213.672 254.211
 210.605 254.582 c 207.539 254.957 204.914 256.965 203.75 259.824 c 202.578
 262.684 203.055 265.953 204.988 268.363 c 226.715 296.812 l 212.086 307.992
 l 160.766 240.812 l 150.277 227.043 152.914 207.383 166.656 196.855 c 335.672
 67.742 l 349.445 57.254 369.105 59.887 379.633 73.629 c 430.945 140.809
 l 416.312 151.984 l 394.59 123.535 l 392.742 121.121 389.742 119.867 386.727
 120.258 c 383.707 120.648 381.125 122.621 379.953 125.426 c 378.785 128.238
 379.199 131.457 381.043 133.875 c 402.777 162.324 l 395.18 168.125 l 387.707
 173.832 386.277 184.523 391.988 191.996 c 392.406 192.547 l h
416.703 196.301 m 411.113 188.988 l 411.113 188.98 l 405.531 181.668 l 
419.871 170.715 l 419.895 170.703 l 419.91 170.688 l 441.293 154.352 l 452.465
 168.988 l h
139.762 161.641 m 308.773 32.539 l 321.895 22.469 337.973 17.016 354.512
 17.027 c 357.934 17.027 361.352 17.25 364.746 17.703 c 384.652 20.301 402.691
 30.754 414.84 46.734 c 490.152 145.328 l 492.352 148.199 493.312 151.828
 492.836 155.414 c 492.359 159 490.473 162.246 487.594 164.441 c 487.586
 164.441 l 484.715 166.637 481.09 167.598 477.504 167.121 c 473.922 166.641
 470.676 164.758 468.484 161.883 c 461.812 153.152 l 449.652 137.234 l 449.648
 137.234 l 393.168 63.293 l 376.93 42.078 346.586 38.012 325.332 54.207 
c 156.316 183.316 l 135.098 199.555 131.031 229.902 147.23 251.152 c 203.715
 325.094 l 203.715 325.098 l 222.547 349.758 l 227.055 355.742 225.891 364.242
 219.938 368.793 c 213.984 373.344 205.473 372.242 200.879 366.32 c 175.824
 333.516 l 175.809 333.504 l 125.562 267.715 l 100.238 234.488 106.594 187.039
 139.762 161.641 c h
187.336 376.645 m 187.398 376.73 187.48 376.785 187.543 376.867 c 190.891
 381.242 l 190.891 381.246 190.844 381.5 190.418 381.621 c 158.289 390.906
 139.707 416.547 121.738 441.352 c 105.812 463.324 90.773 484.082 67.309
 492.98 c 60.043 495.457 52.012 492.91 47.504 486.699 c 22.852 454.434 l
 18.051 448.445 17.707 440.031 21.996 433.668 c 36.762 413.375 60.742 404.32
 86.129 394.738 c 114.789 383.922 144.418 372.738 162.285 343.852 c h
187.336 376.645 m f
Q Q
showpage
%%Trailer
end
%%EOF
