%!PS-Adobe-3.0 EPSF-3.0
%%Creator: cairo 1.15.12 (http://cairographics.org)
%%CreationDate: Sun May 26 01:50:03 2019
%%Pages: 1
%%DocumentData: Clean7Bit
%%LanguageLevel: 2
%%BoundingBox: 30 0 354 384
%%EndComments
%%BeginProlog
50 dict begin
/q { gsave } bind def
/Q { grestore } bind def
/cm { 6 array astore concat } bind def
/w { setlinewidth } bind def
/J { setlinecap } bind def
/j { setlinejoin } bind def
/M { setmiterlimit } bind def
/d { setdash } bind def
/m { moveto } bind def
/l { lineto } bind def
/c { curveto } bind def
/h { closepath } bind def
/re { exch dup neg 3 1 roll 5 3 roll moveto 0 rlineto
      0 exch rlineto 0 rlineto closepath } bind def
/S { stroke } bind def
/f { fill } bind def
/f* { eofill } bind def
/n { newpath } bind def
/W { clip } bind def
/W* { eoclip } bind def
/BT { } bind def
/ET { } bind def
/BDC { mark 3 1 roll /BDC pdfmark } bind def
/EMC { mark /EMC pdfmark } bind def
/cairo_store_point { /cairo_point_y exch def /cairo_point_x exch def } def
/Tj { show currentpoint cairo_store_point } bind def
/TJ {
  {
    dup
    type /stringtype eq
    { show } { -0.001 mul 0 cairo_font_matrix dtransform rmoveto } ifelse
  } forall
  currentpoint cairo_store_point
} bind def
/cairo_selectfont { cairo_font_matrix aload pop pop pop 0 0 6 array astore
    cairo_font exch selectfont cairo_point_x cairo_point_y moveto } bind def
/Tf { pop /cairo_font exch def /cairo_font_matrix where
      { pop cairo_selectfont } if } bind def
/Td { matrix translate cairo_font_matrix matrix concatmatrix dup
      /cairo_font_matrix exch def dup 4 get exch 5 get cairo_store_point
      /cairo_font where { pop cairo_selectfont } if } bind def
/Tm { 2 copy 8 2 roll 6 array astore /cairo_font_matrix exch def
      cairo_store_point /cairo_font where { pop cairo_selectfont } if } bind def
/g { setgray } bind def
/rg { setrgbcolor } bind def
/d1 { setcachedevice } bind def
/cairo_data_source {
  CairoDataIndex CairoData length lt
    { CairoData CairoDataIndex get /CairoDataIndex CairoDataIndex 1 add def }
    { () } ifelse
} def
/cairo_flush_ascii85_file { cairo_ascii85_file status { cairo_ascii85_file flushfile } if } def
/cairo_image { image cairo_flush_ascii85_file } def
/cairo_imagemask { imagemask cairo_flush_ascii85_file } def
%%EndProlog
%%BeginSetup
%%EndSetup
%%Page: 1 1
%%BeginPageSetup
%%PageBoundingBox: 30 0 354 384
%%EndPageSetup
q 30 0 324 384 rectclip
1 0 0 -1 0 384 cm q
0 g
299.965 0 m 84.035 0 l 74.105 0 66.023 8.082 66.023 18.012 c 66.023 131.988
 l 66.023 148.531 52.566 161.988 36.023 161.988 c 32.707 161.988 30.023 
164.672 30.023 167.988 c 30.023 354 l 30.023 370.543 43.48 384 60.023 384
 c 167.93 384 l 177.816 384 186.535 379.129 192 371.73 c 197.465 379.129
 206.18 384 216.07 384 c 323.977 384 l 340.52 384 353.977 370.543 353.977
 354 c 353.977 167.988 l 353.977 164.672 351.293 161.988 347.977 161.988
 c 331.434 161.988 317.977 148.531 317.977 131.988 c 317.977 18.012 l 317.977
 8.082 309.895 0 299.965 0 c h
306.035 342 m 234.023 342 l 234.023 330 l 306.035 330 l h
234.023 318 m 234.023 306 l 306.035 306 l 306.035 318 l h
150.031 342 m 78.02 342 l 78.02 330 l 150.031 330 l h
78.02 318 m 78.02 306 l 150.031 306 l 150.031 318 l h
288.023 54 m 276.031 54 l 276.031 12 l 288.023 12 l h
264.031 59.969 m 264.031 59.98 264.023 59.988 264.023 60 c 264.023 60.012
 264.031 60.02 264.031 60.031 c 264.031 192 l 197.93 192 l 197.93 157.633
 l 261.887 12 l 264.023 12 l 264.023 59.969 l h
192 141.281 m 135.223 12 l 248.777 12 l h
122.113 12 m 185.934 157.312 l 185.934 192 l 120.02 192 l 120.02 12 l h
108.02 54 m 96.023 54 l 96.023 12 l 108.02 12 l h
96.023 66 m 108.02 66 l 108.02 192 l 96.023 192 l h
185.93 204 m 185.93 216 l 42.023 216 l 42.023 204 l h
306.043 258 m 306.043 270 l 234.023 270 l 234.023 258 l h
234.023 282 m 306.035 282 l 306.035 294 l 234.023 294 l h
318.035 276.031 m 318.035 276.02 318.043 276.012 318.043 276 c 318.043 
252 l 318.043 248.684 315.359 246 312.043 246 c 228.023 246 l 224.707 246
 222.023 248.684 222.023 252 c 222.023 294 l 197.93 294 l 197.93 228 l 341.977
 228 l 341.977 294 l 318.035 294 l h
185.93 294 m 162.031 294 l 162.031 276.031 l 162.031 276.02 162.035 276.012
 162.035 276 c 162.035 252 l 162.035 248.684 159.355 246 156.035 246 c 72.02
 246 l 68.699 246 66.02 248.684 66.02 252 c 66.02 294 l 42.023 294 l 42.023
 228 l 185.93 228 l h
150.035 258 m 150.035 270 l 78.02 270 l 78.02 258 l h
78.02 282 m 150.031 282 l 150.031 294 l 78.02 294 l h
42.023 306 m 66.02 306 l 66.02 318 l 42.023 318 l h
162.031 306 m 185.93 306 l 185.93 318 l 162.031 318 l h
197.93 306 m 222.023 306 l 222.023 318 l 197.93 318 l h
318.035 306 m 341.977 306 l 341.977 318 l 318.035 318 l h
341.977 216 m 197.93 216 l 197.93 204 l 341.977 204 l h
276.031 192 m 276.031 66 l 288.023 66 l 288.023 192 l h
78.023 131.988 m 78.023 18.012 l 78.023 14.699 80.711 12.012 84.023 12 
c 84.023 192 l 42.023 192 l 42.023 173.508 l 62.348 170.578 78.023 153.102
 78.023 131.988 c h
167.93 372 m 60.023 372 l 50.102 372 42.023 363.926 42.023 354 c 42.023
 330 l 66.02 330 l 66.02 348 l 66.02 351.316 68.699 354 72.02 354 c 156.031
 354 l 159.348 354 162.031 351.316 162.031 348 c 162.031 330 l 185.93 330
 l 185.93 354 l 185.93 363.926 177.859 372 167.93 372 c h
323.977 372 m 216.07 372 l 206.148 372 198.07 363.926 198.07 354 c 198.07
 353.754 197.957 353.543 197.934 353.305 c 197.934 330 l 222.031 330 l 222.031
 348 l 222.031 351.316 224.711 354 228.031 354 c 312.043 354 l 315.359 354
 318.043 351.316 318.043 348 c 318.043 330 l 341.98 330 l 341.98 354 l 341.977
 363.926 333.898 372 323.977 372 c h
341.977 173.508 m 341.977 192 l 300.023 192 l 300.023 12.012 l 303.312 
12.047 305.977 14.719 305.977 18.012 c 305.977 131.988 l 305.977 153.102
 321.652 170.578 341.977 173.508 c h
341.977 173.508 m f
Q Q
showpage
%%Trailer
end
%%EOF
