%!PS-Adobe-3.0 EPSF-3.0
%%Creator: cairo 1.15.12 (http://cairographics.org)
%%CreationDate: Sun May 26 01:50:03 2019
%%Pages: 1
%%DocumentData: Clean7Bit
%%LanguageLevel: 2
%%BoundingBox: 13 0 500 512
%%EndComments
%%BeginProlog
50 dict begin
/q { gsave } bind def
/Q { grestore } bind def
/cm { 6 array astore concat } bind def
/w { setlinewidth } bind def
/J { setlinecap } bind def
/j { setlinejoin } bind def
/M { setmiterlimit } bind def
/d { setdash } bind def
/m { moveto } bind def
/l { lineto } bind def
/c { curveto } bind def
/h { closepath } bind def
/re { exch dup neg 3 1 roll 5 3 roll moveto 0 rlineto
      0 exch rlineto 0 rlineto closepath } bind def
/S { stroke } bind def
/f { fill } bind def
/f* { eofill } bind def
/n { newpath } bind def
/W { clip } bind def
/W* { eoclip } bind def
/BT { } bind def
/ET { } bind def
/BDC { mark 3 1 roll /BDC pdfmark } bind def
/EMC { mark /EMC pdfmark } bind def
/cairo_store_point { /cairo_point_y exch def /cairo_point_x exch def } def
/Tj { show currentpoint cairo_store_point } bind def
/TJ {
  {
    dup
    type /stringtype eq
    { show } { -0.001 mul 0 cairo_font_matrix dtransform rmoveto } ifelse
  } forall
  currentpoint cairo_store_point
} bind def
/cairo_selectfont { cairo_font_matrix aload pop pop pop 0 0 6 array astore
    cairo_font exch selectfont cairo_point_x cairo_point_y moveto } bind def
/Tf { pop /cairo_font exch def /cairo_font_matrix where
      { pop cairo_selectfont } if } bind def
/Td { matrix translate cairo_font_matrix matrix concatmatrix dup
      /cairo_font_matrix exch def dup 4 get exch 5 get cairo_store_point
      /cairo_font where { pop cairo_selectfont } if } bind def
/Tm { 2 copy 8 2 roll 6 array astore /cairo_font_matrix exch def
      cairo_store_point /cairo_font where { pop cairo_selectfont } if } bind def
/g { setgray } bind def
/rg { setrgbcolor } bind def
/d1 { setcachedevice } bind def
/cairo_data_source {
  CairoDataIndex CairoData length lt
    { CairoData CairoDataIndex get /CairoDataIndex CairoDataIndex 1 add def }
    { () } ifelse
} def
/cairo_flush_ascii85_file { cairo_ascii85_file status { cairo_ascii85_file flushfile } if } def
/cairo_image { image cairo_flush_ascii85_file } def
/cairo_imagemask { imagemask cairo_flush_ascii85_file } def
%%EndProlog
%%BeginSetup
%%EndSetup
%%Page: 1 1
%%BeginPageSetup
%%PageBoundingBox: 13 0 500 512
%%EndPageSetup
q 13 0 487 512 rectclip
1 0 0 -1 0 512 cm q
0 g
187.234 318.445 m 157.211 318.445 l 147.859 318.445 140.25 310.84 140.25
 301.484 c 140.25 284.75 l 140.25 283.762 139.551 282.906 138.516 282.621
 c 128.105 279.785 118.066 275.613 108.68 270.227 c 107.828 269.738 106.824
 269.836 106.188 270.473 c 94.234 282.426 l 91.031 285.629 86.773 287.391
 82.242 287.391 c 77.715 287.391 73.453 285.629 70.25 282.426 c 49.02 261.195
 l 45.816 257.992 44.051 253.73 44.051 249.203 c 44.051 244.672 45.816 240.41
 49.02 237.211 c 60.969 225.258 l 61.609 224.621 61.707 223.617 61.215 222.766
 c 55.832 213.379 51.66 203.34 48.824 192.93 c 48.539 191.895 47.684 191.195
 46.695 191.195 c 29.961 191.195 l 20.609 191.195 13 183.586 13 174.234 
c 13 144.211 l 13 134.859 20.609 127.25 29.961 127.25 c 46.695 127.25 l 
47.684 127.25 48.539 126.555 48.824 125.516 c 51.66 115.109 55.832 105.07
 61.219 95.68 c 61.707 94.828 61.609 93.824 60.973 93.188 c 49.02 81.234
 l 45.816 78.035 44.051 73.773 44.051 69.242 c 44.051 64.715 45.816 60.453
 49.02 57.25 c 70.25 36.02 l 73.453 32.816 77.711 31.055 82.242 31.055 c
 86.773 31.055 91.035 32.816 94.238 36.023 c 106.188 47.973 l 106.824 48.609
 107.824 48.707 108.68 48.219 c 118.066 42.832 128.102 38.664 138.512 35.824
 c 139.555 35.539 140.25 34.684 140.25 33.695 c 140.25 16.961 l 140.25 7.609
 147.859 0 157.211 0 c 187.234 0 l 196.586 0 204.195 7.609 204.195 16.961
 c 204.195 33.695 l 204.195 34.684 204.891 35.539 205.93 35.82 c 216.336
 38.66 226.375 42.832 235.762 48.219 c 236.617 48.707 237.617 48.609 238.258
 47.973 c 250.207 36.02 l 256.836 29.395 267.566 29.391 274.195 36.023 c
 276.441 38.27 l 283.453 45.277 272.855 55.895 265.836 48.875 c 264.453 
47.68 262.68 44.762 260.816 46.629 c 248.863 58.578 l 243.457 63.984 235
 65.074 228.297 61.227 c 220.016 56.477 211.16 52.797 201.984 50.293 c 194.453
 48.242 189.191 41.414 189.191 33.691 c 189.191 16.961 l 189.191 15.879 
188.312 15 187.23 15 c 157.207 15 l 156.129 15 155.25 15.879 155.25 16.961
 c 155.25 33.695 l 155.25 41.418 149.988 48.242 142.457 50.297 c 133.277
 52.801 124.422 56.477 116.141 61.227 c 109.441 65.074 100.984 63.984 95.578
 58.578 c 83.629 46.629 l 83.152 46.152 82.613 46.055 82.242 46.055 c 81.871
 46.055 81.332 46.152 80.859 46.629 c 59.625 67.859 l 59.152 68.332 59.051
 68.875 59.051 69.242 c 59.051 69.613 59.152 70.156 59.625 70.629 c 71.578
 82.582 l 76.984 87.988 78.074 96.441 74.227 103.145 c 69.477 111.43 65.797
 120.281 63.293 129.461 c 61.242 136.992 54.414 142.25 46.695 142.25 c 29.961
 142.25 l 28.879 142.25 28 143.133 28 144.211 c 28 174.234 l 28 175.316 
28.879 176.195 29.961 176.195 c 46.695 176.195 l 54.414 176.195 61.242 181.453
 63.297 188.984 c 65.797 198.168 69.477 207.02 74.227 215.301 c 78.074 222.004
 76.984 230.457 71.578 235.863 c 59.629 247.816 l 59.152 248.289 59.055 
248.832 59.055 249.203 c 59.055 249.57 59.156 250.113 59.629 250.59 c 80.859
 271.816 l 81.625 272.582 82.867 272.586 83.633 271.816 c 95.582 259.867
 l 100.988 254.461 109.445 253.371 116.148 257.219 c 124.43 261.969 133.281
 265.648 142.461 268.152 c 149.992 270.203 155.254 277.031 155.254 284.754
 c 155.254 301.484 l 155.254 302.566 156.133 303.445 157.211 303.445 c 187.234
 303.445 l 188.316 303.445 189.195 302.566 189.195 301.484 c 189.195 284.754
 l 189.195 277.031 194.457 270.203 201.988 268.152 c 211.57 265.543 215.5
 280.016 205.934 282.621 c 204.895 282.906 204.195 283.762 204.195 284.754
 c 204.195 301.484 l 204.195 310.836 196.586 318.445 187.234 318.445 c h
187.234 318.445 m f
101.535 159.223 m 101.535 109.629 151.402 75.633 197.355 93.141 c 206.617
 96.676 201.293 110.695 192.012 107.16 c 155.746 93.336 116.531 120.258 
116.531 159.223 c 116.531 190.918 143.227 216.707 175.547 214.812 c 185.43
 214.215 186.355 229.203 176.43 229.789 c 135.676 232.188 101.535 199.688
 101.535 159.223 c h
101.535 159.223 m f
428.039 333.051 m 352.047 318.273 l 352.047 299.496 l 373.387 284.938 384.941
 264.32 387.457 241.164 c 398.535 240.285 407.277 230.992 407.277 219.695
 c 407.277 204.281 l 425.336 196.43 422.898 170.074 403.793 165.629 c 403.793
 159.68 l 403.793 106.191 360.43 62.828 306.945 62.828 c 298.824 62.828 
l 245.336 62.828 201.977 106.191 201.977 159.676 c 201.977 165.629 l 182.879
 170.07 180.426 196.43 198.492 204.281 c 198.492 219.695 l 198.492 230.992
 207.234 240.285 218.312 241.164 c 220.508 261.367 229.977 279.859 244.914
 292.719 c 247.773 295.184 250.711 297.441 253.723 299.496 c 253.723 318.273
 l 177.73 333.051 l 137.637 340.848 106.387 363.449 106.387 405.152 c 106.387
 481.438 l 106.387 498.316 120.07 512 136.949 512 c 468.82 512 l 485.699
 512 499.383 498.316 499.383 481.438 c 499.383 405.152 l 499.383 363.586
 468.324 340.883 428.039 333.051 c h
365.613 336.191 m 360.168 344.109 351.844 356.195 342.852 369.211 c 339.188
 374.52 332.613 375.195 330.043 373.656 c 318.195 366.551 l 329.75 359.727
 345.738 348.008 350.59 333.27 c h
302.883 357.805 m 291.492 352.07 268.785 337.902 268.723 324.512 c 268.723
 324.492 268.723 324.473 268.723 324.453 c 268.723 307.777 l 290.551 317.191
 315.191 317.203 337.047 307.777 c 337.047 324.453 l 337.047 337.867 314.285
 352.066 302.883 357.805 c h
216.977 159.676 m 216.977 128.91 234.039 102.055 259.199 88.078 c 259.199
 97.48 l 259.199 107.395 274.199 107.41 274.199 97.48 c 274.199 81.613 l
 280.93 79.484 288.031 78.207 295.383 77.902 c 295.383 114.988 l 295.383
 124.902 310.383 124.918 310.383 114.988 c 310.383 77.902 l 317.734 78.207
 324.84 79.484 331.57 81.613 c 331.57 97.48 l 331.57 107.395 346.57 107.41
 346.57 97.48 c 346.57 88.078 l 371.73 102.055 388.793 128.91 388.793 159.676
 c 388.793 165.098 l 216.977 165.098 l h
206.609 180.098 m 399.16 180.098 l 406.348 180.098 406.34 190.961 399.16
 190.961 c 206.609 190.961 l 199.418 190.961 199.426 180.098 206.609 180.098
 c h
232.836 233.57 m 232.75 229.492 229.418 226.23 225.336 226.23 c 224.086
 225.922 213.488 228.18 213.488 219.695 c 213.488 205.965 l 392.277 205.965
 l 392.277 219.695 l 392.277 228.164 381.398 225.992 380.43 226.23 c 376.352
 226.23 373.02 229.492 372.93 233.57 c 372.527 252.32 364.559 269.734 351.07
 281.352 c 322.426 306.016 283.344 306.02 254.699 281.352 c 241.207 269.734
 233.238 252.32 232.836 233.57 c h
255.176 333.27 m 260.031 348.008 276.016 359.727 287.574 366.551 c 275.699
 372.91 276.539 374.812 271.145 374.176 c 267.789 373.773 264.777 371.906
 262.855 369.125 c 253.887 356.141 245.59 344.09 240.152 336.191 c h
168.641 497 m 136.945 497 l 128.352 497 121.383 490.031 121.383 481.438
 c 121.383 405.152 l 121.383 382.676 131.594 367.137 153.992 356.402 c 154.898
 360.395 168.641 397.695 168.641 449.816 c h
295.383 497 m 183.641 497 l 183.641 449.816 l 183.641 393.344 169.383 356.98
 167.98 350.824 c 176.738 347.914 170.234 350.156 224.098 339.312 c 239.578
 361.809 268.469 403.781 285.5 427.988 c 291.969 437.18 295.383 447.977 
295.383 459.215 c h
302.883 427.848 m 301.391 424.922 299.684 422.086 297.77 419.359 c 292.012
 411.18 284.539 400.445 276.742 389.191 c 279.059 388.68 281.32 387.789 
283.441 386.52 c 302.883 374.859 l 322.328 386.52 l 324.445 387.789 326.711
 388.68 329.027 389.191 c 321.23 400.438 313.758 411.172 308 419.359 c 306.082
 422.086 304.375 424.922 302.883 427.848 c h
484.383 481.438 m 484.383 490.031 477.418 497 468.82 497 c 437.125 497 
l 437.125 468.703 l 437.125 458.789 422.125 458.773 422.125 468.703 c 422.125
 497 l 310.383 497 l 310.383 459.215 l 310.383 447.977 313.801 437.18 320.266
 427.992 c 329.953 414.223 369.84 356.664 381.672 339.312 c 435.508 350.152
 429.016 347.91 437.785 350.824 c 436.695 355.438 424.074 389.738 422.332
 438.395 c 421.973 448.332 436.965 448.82 437.32 438.934 c 439.008 391.848
 450.559 361.551 451.773 356.402 c 474.172 367.137 484.383 382.676 484.383
 405.148 c h
484.383 481.438 m f
Q Q
showpage
%%Trailer
end
%%EOF
