%!PS-Adobe-3.0 EPSF-3.0
%%Creator: cairo 1.15.12 (http://cairographics.org)
%%CreationDate: Sun May 26 01:50:03 2019
%%Pages: 1
%%DocumentData: Clean7Bit
%%LanguageLevel: 2
%%BoundingBox: 0 7 274 267
%%EndComments
%%BeginProlog
50 dict begin
/q { gsave } bind def
/Q { grestore } bind def
/cm { 6 array astore concat } bind def
/w { setlinewidth } bind def
/J { setlinecap } bind def
/j { setlinejoin } bind def
/M { setmiterlimit } bind def
/d { setdash } bind def
/m { moveto } bind def
/l { lineto } bind def
/c { curveto } bind def
/h { closepath } bind def
/re { exch dup neg 3 1 roll 5 3 roll moveto 0 rlineto
      0 exch rlineto 0 rlineto closepath } bind def
/S { stroke } bind def
/f { fill } bind def
/f* { eofill } bind def
/n { newpath } bind def
/W { clip } bind def
/W* { eoclip } bind def
/BT { } bind def
/ET { } bind def
/BDC { mark 3 1 roll /BDC pdfmark } bind def
/EMC { mark /EMC pdfmark } bind def
/cairo_store_point { /cairo_point_y exch def /cairo_point_x exch def } def
/Tj { show currentpoint cairo_store_point } bind def
/TJ {
  {
    dup
    type /stringtype eq
    { show } { -0.001 mul 0 cairo_font_matrix dtransform rmoveto } ifelse
  } forall
  currentpoint cairo_store_point
} bind def
/cairo_selectfont { cairo_font_matrix aload pop pop pop 0 0 6 array astore
    cairo_font exch selectfont cairo_point_x cairo_point_y moveto } bind def
/Tf { pop /cairo_font exch def /cairo_font_matrix where
      { pop cairo_selectfont } if } bind def
/Td { matrix translate cairo_font_matrix matrix concatmatrix dup
      /cairo_font_matrix exch def dup 4 get exch 5 get cairo_store_point
      /cairo_font where { pop cairo_selectfont } if } bind def
/Tm { 2 copy 8 2 roll 6 array astore /cairo_font_matrix exch def
      cairo_store_point /cairo_font where { pop cairo_selectfont } if } bind def
/g { setgray } bind def
/rg { setrgbcolor } bind def
/d1 { setcachedevice } bind def
/cairo_data_source {
  CairoDataIndex CairoData length lt
    { CairoData CairoDataIndex get /CairoDataIndex CairoDataIndex 1 add def }
    { () } ifelse
} def
/cairo_flush_ascii85_file { cairo_ascii85_file status { cairo_ascii85_file flushfile } if } def
/cairo_image { image cairo_flush_ascii85_file } def
/cairo_imagemask { imagemask cairo_flush_ascii85_file } def
%%EndProlog
%%BeginSetup
%%EndSetup
%%Page: 1 1
%%BeginPageSetup
%%PageBoundingBox: 0 7 274 267
%%EndPageSetup
q 0 7 274 260 rectclip
1 0 0 -1 0 274 cm q
0 g
184.652 250.016 m 183.34 249.188 179.254 248.141 178.129 247.277 c 155.066
 262.426 l 136.316 243.676 l 152.441 217.988 l 151.84 216.902 151.953 216.715
 151.43 215.551 c 121.727 210.266 l 121.84 181.352 l 143.516 177.602 l 132.715
 167.062 l 123.715 174.414 112.691 178.766 100.914 178.766 c 100.84 178.766
 l 89.703 178.766 79.277 174.863 70.578 168.266 c 59.59 178.766 l 38.102
 178.766 l 28.203 178.766 20.441 182.141 14.402 189.152 c -3.262 209.551
 -0.297 253.5 1.09 266.965 c 187.879 266.965 l h
56.18 124.391 m 57.602 136.652 62.742 147.562 70.242 155.551 c 71.816 157.238
 73.465 158.777 75.227 160.164 c 77.477 161.965 79.84 163.5 82.352 164.812
 c 88.016 167.738 94.242 169.426 100.879 169.426 c 107.516 169.426 113.738
 167.738 119.402 164.812 c 121.914 163.5 124.277 161.965 126.527 160.164
 c 128.289 158.738 129.977 157.203 131.551 155.516 c 139.016 147.527 144.152
 136.727 145.578 124.539 c 145.727 124.539 145.84 124.578 145.988 124.578
 c 153.789 124.578 160.129 117.301 160.129 108.34 c 160.129 102.902 157.801
 98.141 154.238 95.176 c 49.914 95.176 l 46.352 98.141 44.027 102.902 44.027
 108.34 c 44.027 116.59 49.316 123.301 56.18 124.391 c h
273.977 201.828 m 273.977 189.34 l 247.992 184.652 l 246.828 179.812 244.914
 175.312 242.402 171.188 c 257.516 149.59 l 248.664 140.738 l 226.992 155.812
 l 222.867 153.301 218.328 151.391 213.527 150.266 c 208.918 124.316 l 196.43
 124.316 l 191.742 150.301 l 186.906 151.465 182.406 153.379 178.281 155.891
 c 156.68 140.777 l 147.828 149.629 l 162.906 171.301 l 160.391 175.426 
158.48 179.965 157.355 184.766 c 131.406 189.375 l 131.406 201.863 l 157.391
 206.551 l 158.555 211.391 160.469 215.891 162.98 220.016 c 147.828 241.613
 l 156.68 250.465 l 178.355 235.391 l 182.48 237.902 187.016 239.812 191.816
 240.938 c 196.43 266.891 l 208.914 266.891 l 213.602 240.902 l 218.441 
239.738 222.941 237.828 227.066 235.312 c 248.664 250.426 l 257.516 241.578
 l 242.441 219.902 l 244.953 215.777 246.867 211.238 247.992 206.438 c h
202.652 214.875 m 192.004 214.875 183.379 206.25 183.379 195.602 c 183.379
 184.953 192.004 176.328 202.652 176.328 c 213.305 176.328 221.93 184.953
 221.93 195.602 c 221.93 206.25 213.305 214.875 202.652 214.875 c h
81.078 25.613 m 65.477 33.562 53.18 49.465 48.527 64.914 c 47.48 68.215
 l 38.93 68.215 l 38.93 86.965 l 165.227 86.965 l 165.227 68.215 l 156.828
 68.215 l 155.777 64.914 l 151.129 49.465 138.828 33.715 123.227 25.766 
c 123.227 65.965 l 123.227 66.266 123.227 66.414 123.227 66.562 c 123.078
 68.215 122.777 69.715 122.027 71.215 c 120.078 74.965 116.176 77.664 111.676
 77.664 c 92.777 77.664 l 88.578 77.664 84.828 75.414 82.879 72.113 c 81.977
 70.766 81.527 69.266 81.227 67.613 c 81.078 67.016 81.078 66.562 81.078
 65.965 c h
92.777 72.715 m 111.527 72.715 l 114.227 72.715 116.477 71.215 117.68 68.965
 c 118.277 67.914 118.578 66.863 118.578 65.664 c 118.578 16.312 l 118.578
 15.113 118.277 14.062 117.977 13.016 c 116.629 9.562 113.18 7.016 109.277
 7.016 c 92.777 7.016 l 89.176 7.016 86.176 9.715 85.879 13.164 c 85.879
 13.465 85.727 13.766 85.727 14.062 c 85.727 65.664 l 85.727 67.164 86.18
 68.516 86.93 69.715 c 88.277 71.516 90.379 72.715 92.777 72.715 c h
92.777 72.715 m f
Q Q
showpage
%%Trailer
end
%%EOF
