%!PS-Adobe-3.0 EPSF-3.0
%%Creator: cairo 1.15.12 (http://cairographics.org)
%%CreationDate: Sun May 26 01:50:03 2019
%%Pages: 1
%%DocumentData: Clean7Bit
%%LanguageLevel: 2
%%BoundingBox: 0 19 224 206
%%EndComments
%%BeginProlog
50 dict begin
/q { gsave } bind def
/Q { grestore } bind def
/cm { 6 array astore concat } bind def
/w { setlinewidth } bind def
/J { setlinecap } bind def
/j { setlinejoin } bind def
/M { setmiterlimit } bind def
/d { setdash } bind def
/m { moveto } bind def
/l { lineto } bind def
/c { curveto } bind def
/h { closepath } bind def
/re { exch dup neg 3 1 roll 5 3 roll moveto 0 rlineto
      0 exch rlineto 0 rlineto closepath } bind def
/S { stroke } bind def
/f { fill } bind def
/f* { eofill } bind def
/n { newpath } bind def
/W { clip } bind def
/W* { eoclip } bind def
/BT { } bind def
/ET { } bind def
/BDC { mark 3 1 roll /BDC pdfmark } bind def
/EMC { mark /EMC pdfmark } bind def
/cairo_store_point { /cairo_point_y exch def /cairo_point_x exch def } def
/Tj { show currentpoint cairo_store_point } bind def
/TJ {
  {
    dup
    type /stringtype eq
    { show } { -0.001 mul 0 cairo_font_matrix dtransform rmoveto } ifelse
  } forall
  currentpoint cairo_store_point
} bind def
/cairo_selectfont { cairo_font_matrix aload pop pop pop 0 0 6 array astore
    cairo_font exch selectfont cairo_point_x cairo_point_y moveto } bind def
/Tf { pop /cairo_font exch def /cairo_font_matrix where
      { pop cairo_selectfont } if } bind def
/Td { matrix translate cairo_font_matrix matrix concatmatrix dup
      /cairo_font_matrix exch def dup 4 get exch 5 get cairo_store_point
      /cairo_font where { pop cairo_selectfont } if } bind def
/Tm { 2 copy 8 2 roll 6 array astore /cairo_font_matrix exch def
      cairo_store_point /cairo_font where { pop cairo_selectfont } if } bind def
/g { setgray } bind def
/rg { setrgbcolor } bind def
/d1 { setcachedevice } bind def
/cairo_data_source {
  CairoDataIndex CairoData length lt
    { CairoData CairoDataIndex get /CairoDataIndex CairoDataIndex 1 add def }
    { () } ifelse
} def
/cairo_flush_ascii85_file { cairo_ascii85_file status { cairo_ascii85_file flushfile } if } def
/cairo_image { image cairo_flush_ascii85_file } def
/cairo_imagemask { imagemask cairo_flush_ascii85_file } def
%%EndProlog
%%BeginSetup
%%EndSetup
%%Page: 1 1
%%BeginPageSetup
%%PageBoundingBox: 0 19 224 206
%%EndPageSetup
q 0 19 224 187 rectclip
1 0 0 -1 0 224 cm q
0 g
216.633 192.223 m 190.363 192.223 l 190.363 174.223 l 195.598 172.828 199.238
 169.777 199.238 166.227 c 199.238 161.359 192.41 157.414 183.988 157.414
 c 175.566 157.414 168.738 161.359 168.738 166.227 c 168.738 169.773 172.379
 172.828 177.613 174.223 c 177.613 192.223 l 151.344 192.223 l 147.82 192.223
 144.969 195.078 144.969 198.598 c 144.969 202.117 147.82 204.973 151.344
 204.973 c 216.633 204.973 l 220.152 204.973 223.008 202.117 223.008 198.598
 c 223.008 195.078 220.152 192.223 216.633 192.223 c h
216.633 192.223 m f
162.477 111.367 m 168.352 117.711 l 169.891 119.375 172.488 119.477 174.148
 117.934 c 185.551 107.371 l 187.215 105.832 187.316 103.238 185.773 101.574
 c 179.898 95.23 l 181.367 93.871 l 183.949 91.48 184.102 87.445 181.711
 84.863 c 179.316 82.281 175.285 82.125 172.699 84.516 c 171.234 85.875 
l 165.359 79.531 l 163.82 77.871 161.223 77.77 159.559 79.312 c 148.156 
89.871 l 146.496 91.414 146.395 94.008 147.934 95.672 c 153.809 102.016 
l 137.98 116.676 l 140.859 121.012 141.883 126.512 140.387 131.828 c h
162.477 111.367 m f
127.289 38.734 m 127.289 50.16 118.023 59.426 106.598 59.426 c 95.168 59.426
 85.902 50.16 85.902 38.734 c 85.902 27.305 95.168 18.043 106.598 18.043
 c 118.023 18.043 127.289 27.305 127.289 38.734 c h
127.289 38.734 m f
125.77 118.008 m 95.133 107.379 l 88.488 81.641 l 101.328 100.004 l 107.938
 102.293 l 112.914 89.254 l 115.668 82.043 112.055 73.965 104.84 71.211 
c 81.555 62.316 l 72.258 59.43 66.035 63.875 63.508 70.391 c 39.504 133.266
 l 38.77 135.43 38.008 137.125 38.438 140 c 44.953 182.469 l 11.25 182.469
 l 5.035 182.469 0 187.508 0 193.719 c 0 199.934 5.035 204.969 11.25 204.969
 c 58.066 204.969 l 61.348 204.969 64.465 203.535 66.602 201.047 c 68.742
 198.555 69.684 195.254 69.184 192.012 c 62.75 150.105 l 91.594 157.371 
l 83.602 191.129 l 82.172 197.172 85.91 203.234 91.957 204.668 c 97.992 
206.098 104.062 202.367 105.496 196.312 c 116.043 151.762 l 116.727 148.875
 116.223 145.984 114.855 143.594 c 89.816 134.906 98.227 137.824 81.289 
131.949 c 73.406 129.215 69.336 121.754 69.234 117.129 c 70.906 88.539 l
 78.234 116.934 l 79.02 119.973 81.273 122.418 84.238 123.445 c 119.625 
135.723 l 124.516 137.418 129.859 134.832 131.555 129.938 c 133.254 125.047
 130.664 119.703 125.77 118.008 c h
125.77 118.008 m f
Q Q
showpage
%%Trailer
end
%%EOF
