%!PS-Adobe-3.0 EPSF-3.0
%%Creator: cairo 1.15.12 (http://cairographics.org)
%%CreationDate: Sun May 26 01:50:03 2019
%%Pages: 1
%%DocumentData: Clean7Bit
%%LanguageLevel: 2
%%BoundingBox: 0 47 512 464
%%EndComments
%%BeginProlog
50 dict begin
/q { gsave } bind def
/Q { grestore } bind def
/cm { 6 array astore concat } bind def
/w { setlinewidth } bind def
/J { setlinecap } bind def
/j { setlinejoin } bind def
/M { setmiterlimit } bind def
/d { setdash } bind def
/m { moveto } bind def
/l { lineto } bind def
/c { curveto } bind def
/h { closepath } bind def
/re { exch dup neg 3 1 roll 5 3 roll moveto 0 rlineto
      0 exch rlineto 0 rlineto closepath } bind def
/S { stroke } bind def
/f { fill } bind def
/f* { eofill } bind def
/n { newpath } bind def
/W { clip } bind def
/W* { eoclip } bind def
/BT { } bind def
/ET { } bind def
/BDC { mark 3 1 roll /BDC pdfmark } bind def
/EMC { mark /EMC pdfmark } bind def
/cairo_store_point { /cairo_point_y exch def /cairo_point_x exch def } def
/Tj { show currentpoint cairo_store_point } bind def
/TJ {
  {
    dup
    type /stringtype eq
    { show } { -0.001 mul 0 cairo_font_matrix dtransform rmoveto } ifelse
  } forall
  currentpoint cairo_store_point
} bind def
/cairo_selectfont { cairo_font_matrix aload pop pop pop 0 0 6 array astore
    cairo_font exch selectfont cairo_point_x cairo_point_y moveto } bind def
/Tf { pop /cairo_font exch def /cairo_font_matrix where
      { pop cairo_selectfont } if } bind def
/Td { matrix translate cairo_font_matrix matrix concatmatrix dup
      /cairo_font_matrix exch def dup 4 get exch 5 get cairo_store_point
      /cairo_font where { pop cairo_selectfont } if } bind def
/Tm { 2 copy 8 2 roll 6 array astore /cairo_font_matrix exch def
      cairo_store_point /cairo_font where { pop cairo_selectfont } if } bind def
/g { setgray } bind def
/rg { setrgbcolor } bind def
/d1 { setcachedevice } bind def
/cairo_data_source {
  CairoDataIndex CairoData length lt
    { CairoData CairoDataIndex get /CairoDataIndex CairoDataIndex 1 add def }
    { () } ifelse
} def
/cairo_flush_ascii85_file { cairo_ascii85_file status { cairo_ascii85_file flushfile } if } def
/cairo_image { image cairo_flush_ascii85_file } def
/cairo_imagemask { imagemask cairo_flush_ascii85_file } def
%%EndProlog
%%BeginSetup
%%EndSetup
%%Page: 1 1
%%BeginPageSetup
%%PageBoundingBox: 0 47 512 464
%%EndPageSetup
q 0 47 512 417 rectclip
1 0 0 -1 0 512 cm q
0 g
512 117.664 m 512 79.25 480.75 48 442.336 48 c 403.926 48 372.676 79.25
 372.676 117.664 c 372.676 156.918 l 20.332 156.918 l 9.121 156.918 0 166.039
 0 177.25 c 1.336 451.172 l 3.871 459.035 12.301 464.336 20.332 464.336 
c 442.336 464.336 l 480.75 464.336 512 433.086 512 394.676 c h
372.676 307.531 m 295.859 348.641 l 284.57 354.68 293.746 372.84 305.457
 366.566 c 372.676 330.594 l 372.676 372.535 l 239.305 444.004 l 161.082
 444.004 l 234.398 404.719 l 245.906 398.551 236.316 380.621 224.793 386.793
 c 118.031 444.004 l 40.117 444 l 372.676 265.797 l h
178.82 177.25 m 255.629 177.25 l 339.098 260.719 l 289.09 287.516 l h
110.906 255.105 m 20.332 302.965 l 20.332 262.234 l 84.254 228.453 l h
20.332 325.965 m 125.953 270.152 l 152.316 296.512 l 20.332 366.254 l h
167.363 311.559 m 194.18 338.375 l 20.332 431.531 l 20.332 389.254 l h
372.676 242.727 m 357.82 250.688 l 284.383 177.25 l 372.676 177.25 l h
270.363 297.551 m 212.902 328.344 l 61.812 177.25 l 150.062 177.25 l h
20.332 177.25 m 33.055 177.25 l 69.211 213.406 l 20.332 239.234 l h
282.355 444.004 m 372.699 395.594 l 372.945 414.48 380.734 431.582 393.199
 444.004 c h
442.336 444.004 m 415.137 444.004 393.008 421.875 393.008 394.676 c 393.008
 367.477 415.137 345.348 442.336 345.348 c 469.539 345.348 491.668 367.477
 491.668 394.676 c 491.668 421.875 469.539 444.004 442.336 444.004 c h
442.336 325.012 m 423.082 325.012 405.633 332.867 393.008 345.539 c 393.008
 305.508 l 393.008 278.684 415.512 256.18 442.336 256.18 c 469.16 256.18
 491.668 278.684 491.668 305.508 c 491.668 345.539 l 479.043 332.867 461.594
 325.012 442.336 325.012 c h
490.477 255.227 m 463.457 229.348 419.426 229.852 393.012 256.367 c 393.012
 248.895 l 393.012 248.867 393.012 248.844 393.012 248.816 c 393.012 211.785
 l 393.012 184.961 415.516 162.457 442.34 162.457 c 469.164 162.457 491.668
 184.961 491.668 211.785 c 491.668 256.367 l 491.27 255.988 490.871 255.605
 490.477 255.227 c h
490.492 161.52 m 463.473 135.629 419.438 136.121 393.008 162.641 c 393.008
 117.664 l 393.008 90.465 415.137 68.336 442.336 68.336 c 469.539 68.336
 491.668 90.465 491.668 117.664 c 491.668 162.641 l 491.277 162.27 490.883
 161.895 490.492 161.52 c 490.062 161.105 490.867 161.879 490.492 161.52
 c h
490.492 161.52 m f
442.336 361.492 m 424.039 361.492 409.152 376.379 409.152 394.676 c 409.152
 412.973 424.039 427.859 442.336 427.859 c 460.637 427.859 475.523 412.973
 475.523 394.676 c 475.523 376.379 460.637 361.492 442.336 361.492 c h
442.336 407.527 m 435.254 407.527 429.488 401.762 429.488 394.676 c 429.488
 387.59 435.254 381.828 442.336 381.828 c 449.422 381.828 455.188 387.59
 455.188 394.676 c 455.188 401.762 449.422 407.527 442.336 407.527 c h
442.336 407.527 m f
264.906 365.758 m 259.379 365.758 254.738 370.402 254.738 375.926 c 254.738
 381.453 259.383 386.09 264.906 386.094 c 270.273 386.094 274.816 381.723
 275.051 376.371 c 275.301 370.684 270.609 365.758 264.906 365.758 c h
264.906 365.758 m f
Q Q
showpage
%%Trailer
end
%%EOF
