%!PS-Adobe-3.0 EPSF-3.0
%%Creator: cairo 1.16.0 (https://cairographics.org)
%%CreationDate: Thu May 23 06:23:50 2019
%%Pages: 1
%%DocumentData: Clean7Bit
%%LanguageLevel: 2
%%BoundingBox: 0 68 384 316
%%EndComments
%%BeginProlog
50 dict begin
/q { gsave } bind def
/Q { grestore } bind def
/cm { 6 array astore concat } bind def
/w { setlinewidth } bind def
/J { setlinecap } bind def
/j { setlinejoin } bind def
/M { setmiterlimit } bind def
/d { setdash } bind def
/m { moveto } bind def
/l { lineto } bind def
/c { curveto } bind def
/h { closepath } bind def
/re { exch dup neg 3 1 roll 5 3 roll moveto 0 rlineto
      0 exch rlineto 0 rlineto closepath } bind def
/S { stroke } bind def
/f { fill } bind def
/f* { eofill } bind def
/n { newpath } bind def
/W { clip } bind def
/W* { eoclip } bind def
/BT { } bind def
/ET { } bind def
/BDC { mark 3 1 roll /BDC pdfmark } bind def
/EMC { mark /EMC pdfmark } bind def
/cairo_store_point { /cairo_point_y exch def /cairo_point_x exch def } def
/Tj { show currentpoint cairo_store_point } bind def
/TJ {
  {
    dup
    type /stringtype eq
    { show } { -0.001 mul 0 cairo_font_matrix dtransform rmoveto } ifelse
  } forall
  currentpoint cairo_store_point
} bind def
/cairo_selectfont { cairo_font_matrix aload pop pop pop 0 0 6 array astore
    cairo_font exch selectfont cairo_point_x cairo_point_y moveto } bind def
/Tf { pop /cairo_font exch def /cairo_font_matrix where
      { pop cairo_selectfont } if } bind def
/Td { matrix translate cairo_font_matrix matrix concatmatrix dup
      /cairo_font_matrix exch def dup 4 get exch 5 get cairo_store_point
      /cairo_font where { pop cairo_selectfont } if } bind def
/Tm { 2 copy 8 2 roll 6 array astore /cairo_font_matrix exch def
      cairo_store_point /cairo_font where { pop cairo_selectfont } if } bind def
/g { setgray } bind def
/rg { setrgbcolor } bind def
/d1 { setcachedevice } bind def
/cairo_data_source {
  CairoDataIndex CairoData length lt
    { CairoData CairoDataIndex get /CairoDataIndex CairoDataIndex 1 add def }
    { () } ifelse
} def
/cairo_flush_ascii85_file { cairo_ascii85_file status { cairo_ascii85_file flushfile } if } def
/cairo_image { image cairo_flush_ascii85_file } def
/cairo_imagemask { imagemask cairo_flush_ascii85_file } def
%%EndProlog
%%BeginSetup
%%EndSetup
%%Page: 1 1
%%BeginPageSetup
%%PageBoundingBox: 0 68 384 316
%%EndPageSetup
q 0 68 384 248 rectclip
1 0 0 -1 0 384 cm q
0.964706 0.733333 0.258824 rg
378.023 207.035 m 378.023 243.035 l 377.965 243.035 l 336.035 285.035 l
 300.035 285.035 l 377.902 207.035 l h
378.023 207.035 m f
365.914 182.965 m 347.914 201.035 l 347.852 200.965 l 329.914 182.965 l
 245.977 99.035 l 281.977 99.035 l h
365.914 182.965 m f
131.914 201.035 m 47.977 285.035 l 11.977 285.035 l 95.914 201.035 l 113.914
 182.965 l 131.852 200.965 l h
131.914 201.035 m f
347.914 201.035 m 263.977 285.035 l 227.977 285.035 l 311.914 201.035 l
 329.914 182.965 l 347.852 200.965 l h
347.914 201.035 m f
257.914 182.965 m 173.977 99.035 l 209.977 99.035 l 293.914 182.965 l 275.914
 201.035 l 275.852 200.965 l h
257.914 182.965 m f
0.929412 0.670588 0.215686 rg
311.914 201.035 m 227.977 285.035 l 191.977 285.035 l 275.914 201.035 l
 293.914 182.965 l 311.852 200.965 l h
311.914 201.035 m f
1 0.807843 0.329412 rg
173.977 99.035 m 83.852 99.035 l 83.852 74.965 l 191.852 74.965 l 191.852
 99.035 l h
173.977 99.035 m f
191.977 285.035 m 299.914 285.035 l 299.914 309.035 l 191.852 309.035 l
 191.852 285.035 l h
191.977 285.035 m f
0.929412 0.670588 0.215686 rg
83.852 99.035 m 101.977 99.035 l 185.914 182.965 l 167.914 201.035 l 167.852
 200.965 l 149.914 182.965 l 65.977 99.035 l h
83.852 99.035 m f
299.914 99.035 m 318.035 99.035 l 378.023 159.035 l 378.023 194.965 l 377.902
 194.965 l 365.914 182.965 l 281.977 99.035 l h
299.914 99.035 m f
0.964706 0.733333 0.258824 rg
275.914 201.035 m 191.977 285.035 l 155.977 285.035 l 239.914 201.035 l
 257.914 182.965 l 275.852 200.965 l h
275.914 201.035 m f
0.929412 0.670588 0.215686 rg
257.914 182.965 m 239.914 201.035 l 239.852 200.965 l 221.914 182.965 l
 137.977 99.035 l 173.977 99.035 l h
257.914 182.965 m f
167.914 201.035 m 83.977 285.035 l 47.977 285.035 l 131.914 201.035 l 149.914
 182.965 l 167.852 200.965 l h
167.914 201.035 m f
378.023 99.035 m 378.023 122.965 l 354.098 99.035 l h
378.023 99.035 m f
1 0.807843 0.329412 rg
299.914 98.965 m 299.914 99.035 l 191.852 99.035 l 191.852 74.965 l 299.914
 74.965 l h
299.914 98.965 m f
0.929412 0.670588 0.215686 rg
329.914 182.965 m 311.914 201.035 l 311.852 200.965 l 293.914 182.965 l
 209.977 99.035 l 245.977 99.035 l h
329.914 182.965 m f
0.964706 0.733333 0.258824 rg
149.914 182.965 m 131.914 201.035 l 131.852 200.965 l 113.914 182.965 l
 29.977 99.035 l 65.977 99.035 l h
149.914 182.965 m f
0.929412 0.670588 0.215686 rg
23.855 201.035 m 5.977 218.852 l 5.977 183.098 l 23.797 200.965 l h
23.855 201.035 m f
0.964706 0.733333 0.258824 rg
203.914 201.035 m 119.977 285.035 l 83.977 285.035 l 167.914 201.035 l 
185.914 182.965 l 203.852 200.965 l h
203.914 201.035 m f
41.855 182.965 m 59.852 200.965 l 5.977 254.965 l 5.977 218.852 l 23.855
 201.035 l h
41.855 182.965 m f
1 0.807843 0.329412 rg
5.977 285.035 77.875 24 re f
0.929412 0.670588 0.215686 rg
239.914 201.035 m 155.977 285.035 l 119.977 285.035 l 203.914 201.035 l
 221.914 182.965 l 239.852 200.965 l h
239.914 201.035 m f
1 0.807843 0.329412 rg
354.098 99.035 m 299.914 99.035 l 299.914 74.965 l 378.023 74.965 l 378.023
 99.035 l h
354.098 99.035 m f
83.852 98.965 m 83.852 99.035 l 5.977 99.035 l 5.977 74.965 l 83.852 74.965
 l h
83.852 98.965 m f
0.929412 0.670588 0.215686 rg
378.023 243.035 m 378.023 279.035 l 377.965 279.035 l 371.965 285.035 l
 336.035 285.035 l 377.965 243.035 l h
378.023 243.035 m f
1 0.807843 0.329412 rg
300.035 285.035 m 378.023 285.035 l 378.023 309.035 l 299.914 309.035 l
 299.914 285.035 l h
300.035 285.035 m f
0.964706 0.733333 0.258824 rg
221.914 182.965 m 203.914 201.035 l 203.852 200.965 l 185.914 182.965 l
 101.977 99.035 l 137.977 99.035 l h
221.914 182.965 m f
0.929412 0.670588 0.215686 rg
377.902 194.965 m 378.023 194.965 l 378.023 207.035 l 377.902 207.035 l
 300.035 285.035 l 263.977 285.035 l 347.914 201.035 l 365.914 182.965 l
 h
377.902 194.965 m f
0.964706 0.733333 0.258824 rg
378.023 122.965 m 378.023 159.035 l 318.035 99.035 l 354.098 99.035 l h
378.023 122.965 m f
0.929412 0.670588 0.215686 rg
113.914 182.965 m 95.914 201.035 l 95.852 200.965 l 5.977 111.035 l 5.977
 99.035 l 29.977 99.035 l h
113.914 182.965 m f
1 0.807843 0.329412 rg
83.977 285.035 m 191.852 285.035 l 191.852 309.035 l 83.852 309.035 l 83.852
 285.035 l h
83.977 285.035 m f
0.929412 0.670588 0.215686 rg
5.977 147.035 m 41.855 182.965 l 23.855 201.035 l 23.797 200.965 l 5.977
 183.098 l h
5.977 147.035 m f
95.84 200.965 m 77.891 182.965 l 59.891 201.035 l 5.977 254.988 l 5.977
 285.035 l 11.953 285.035 l 95.891 201.035 l h
95.84 200.965 m f
0.964706 0.733333 0.258824 rg
5.977 111.047 m 5.977 147.07 l 59.84 200.965 l 59.891 201.035 l 77.891 
182.965 l h
5.977 111.047 m f
371.965 285.035 m 377.965 285.035 l 377.965 279.035 l h
371.965 285.035 m f
0 g
12 291.012 m 10.465 291.012 8.93 290.426 7.758 289.262 c 5.41 286.914 5.41
 283.121 7.754 280.77 c 109.668 178.711 l 112.016 176.363 115.812 176.371
 118.156 178.703 c 120.504 181.051 120.504 184.844 118.164 187.195 c 16.246
 289.254 l 15.078 290.426 13.535 291.012 12 291.012 c h
12 291.012 m f
48 291.012 m 46.465 291.012 44.93 290.426 43.758 289.262 c 41.41 286.914
 41.41 283.121 43.754 280.77 c 145.668 178.711 l 148.016 176.363 151.812
 176.371 154.156 178.703 c 156.504 181.051 156.504 184.844 154.164 187.195
 c 52.246 289.254 l 51.078 290.426 49.535 291.012 48 291.012 c h
48 291.012 m f
84 291.012 m 82.465 291.012 80.93 290.426 79.758 289.262 c 77.41 286.914
 77.41 283.121 79.754 280.77 c 181.668 178.711 l 184.016 176.363 187.812
 176.371 190.156 178.703 c 192.504 181.051 192.504 184.844 190.164 187.195
 c 88.246 289.254 l 87.078 290.426 85.535 291.012 84 291.012 c h
84 291.012 m f
120 291.012 m 118.465 291.012 116.93 290.426 115.758 289.262 c 113.41 286.914
 113.41 283.121 115.754 280.77 c 217.668 178.711 l 220.016 176.363 223.812
 176.371 226.156 178.703 c 228.504 181.051 228.504 184.844 226.164 187.195
 c 124.246 289.254 l 123.078 290.426 121.535 291.012 120 291.012 c h
120 291.012 m f
156 291.012 m 154.465 291.012 152.93 290.426 151.758 289.262 c 149.41 286.914
 149.41 283.121 151.754 280.77 c 253.668 178.711 l 256.016 176.363 259.812
 176.371 262.156 178.703 c 264.504 181.051 264.504 184.844 262.164 187.195
 c 160.246 289.254 l 159.078 290.426 157.535 291.012 156 291.012 c h
156 291.012 m f
192 291.012 m 190.465 291.012 188.93 290.426 187.758 289.262 c 185.41 286.914
 185.41 283.121 187.754 280.77 c 289.668 178.711 l 292.016 176.363 295.812
 176.371 298.156 178.703 c 300.504 181.051 300.504 184.844 298.164 187.195
 c 196.246 289.254 l 195.078 290.426 193.535 291.012 192 291.012 c h
192 291.012 m f
228 291.012 m 226.465 291.012 224.93 290.426 223.758 289.262 c 221.41 286.914
 221.41 283.121 223.754 280.77 c 325.668 178.711 l 328.016 176.363 331.812
 176.371 334.156 178.703 c 336.504 181.051 336.504 184.844 334.164 187.195
 c 232.246 289.254 l 231.078 290.426 229.535 291.012 228 291.012 c h
228 291.012 m f
264 291.012 m 262.465 291.012 260.93 290.426 259.758 289.262 c 257.41 286.914
 257.41 283.121 259.754 280.77 c 361.668 178.711 l 364.016 176.363 367.812
 176.371 370.156 178.703 c 372.504 181.051 372.504 184.844 370.164 187.195
 c 268.246 289.254 l 267.078 290.426 265.535 291.012 264 291.012 c h
264 291.012 m f
95.891 206.941 m 94.355 206.941 92.82 206.352 91.648 205.184 c 1.758 115.242
 l -0.59 112.895 -0.59 109.105 1.758 106.758 c 4.105 104.41 7.895 104.41
 10.242 106.758 c 100.133 196.699 l 102.48 199.043 102.48 202.836 100.133
 205.184 c 98.965 206.359 97.43 206.941 95.891 206.941 c h
95.891 206.941 m f
5.914 261.012 m 4.379 261.012 2.844 260.426 1.676 259.262 c -0.672 256.914
 -0.672 253.121 1.668 250.77 c 73.559 178.789 l 75.906 176.441 79.703 176.449
 82.051 178.781 c 84.395 181.129 84.395 184.922 82.055 187.273 c 10.164 
259.254 l 8.992 260.426 7.453 261.012 5.914 261.012 c h
5.914 261.012 m f
59.891 206.965 m 58.355 206.965 56.82 206.375 55.648 205.207 c 1.723 151.266
 l -0.625 148.922 -0.625 145.129 1.723 142.781 c 4.066 140.438 7.859 140.438
 10.207 142.781 c 64.133 196.723 l 66.48 199.066 66.48 202.859 64.133 205.207
 c 62.965 206.375 61.43 206.965 59.891 206.965 c h
59.891 206.965 m f
5.914 224.93 m 4.379 224.93 2.844 224.34 1.676 223.176 c -0.672 220.828
 -0.672 217.039 1.668 214.688 c 37.598 178.711 l 39.941 176.363 43.738 176.371
 46.086 178.703 c 48.434 181.051 48.434 184.844 46.094 187.195 c 10.164 
223.172 l 8.992 224.348 7.453 224.93 5.914 224.93 c h
5.914 224.93 m f
23.824 206.941 m 22.289 206.941 20.754 206.352 19.586 205.184 c 1.758 187.344
 l -0.59 184.996 -0.59 181.199 1.758 178.859 c 4.105 176.516 7.895 176.516
 10.242 178.859 c 28.066 196.699 l 30.414 199.043 30.414 202.844 28.066 
205.184 c 26.891 206.359 25.363 206.941 23.824 206.941 c h
23.824 206.941 m f
131.891 206.941 m 130.355 206.941 128.82 206.352 127.648 205.184 c 25.648
 103.121 l 23.305 100.777 23.305 96.977 25.648 94.637 c 27.996 92.293 31.789
 92.293 34.133 94.637 c 136.133 196.699 l 138.48 199.043 138.48 202.844 
136.133 205.184 c 134.965 206.359 133.43 206.941 131.891 206.941 c h
131.891 206.941 m f
167.891 206.941 m 166.355 206.941 164.82 206.352 163.648 205.184 c 61.648
 103.121 l 59.305 100.777 59.305 96.977 61.648 94.637 c 63.996 92.293 67.789
 92.293 70.133 94.637 c 172.133 196.699 l 174.48 199.043 174.48 202.844 
172.133 205.184 c 170.965 206.359 169.43 206.941 167.891 206.941 c h
167.891 206.941 m f
203.891 206.941 m 202.355 206.941 200.82 206.352 199.648 205.184 c 97.648
 103.121 l 95.305 100.777 95.305 96.977 97.648 94.637 c 99.996 92.293 103.789
 92.293 106.133 94.637 c 208.133 196.699 l 210.48 199.043 210.48 202.844
 208.133 205.184 c 206.965 206.359 205.43 206.941 203.891 206.941 c h
203.891 206.941 m f
239.891 206.941 m 238.355 206.941 236.82 206.352 235.648 205.184 c 133.648
 103.121 l 131.305 100.777 131.305 96.977 133.648 94.637 c 135.996 92.293
 139.789 92.293 142.133 94.637 c 244.133 196.699 l 246.48 199.043 246.48
 202.844 244.133 205.184 c 242.965 206.359 241.43 206.941 239.891 206.941
 c h
239.891 206.941 m f
275.891 206.941 m 274.355 206.941 272.82 206.352 271.648 205.184 c 169.648
 103.121 l 167.305 100.777 167.305 96.977 169.648 94.637 c 171.996 92.293
 175.789 92.293 178.133 94.637 c 280.133 196.699 l 282.48 199.043 282.48
 202.844 280.133 205.184 c 278.965 206.359 277.43 206.941 275.891 206.941
 c h
275.891 206.941 m f
311.891 206.941 m 310.355 206.941 308.82 206.352 307.648 205.184 c 205.648
 103.121 l 203.305 100.777 203.305 96.977 205.648 94.637 c 207.996 92.293
 211.789 92.293 214.133 94.637 c 316.133 196.699 l 318.48 199.043 318.48
 202.844 316.133 205.184 c 314.965 206.359 313.43 206.941 311.891 206.941
 c h
311.891 206.941 m f
347.891 206.941 m 346.355 206.941 344.82 206.352 343.648 205.184 c 241.648
 103.121 l 239.305 100.777 239.305 96.977 241.648 94.637 c 243.996 92.293
 247.789 92.293 250.133 94.637 c 352.133 196.699 l 354.48 199.043 354.48
 202.844 352.133 205.184 c 350.965 206.359 349.43 206.941 347.891 206.941
 c h
347.891 206.941 m f
377.93 200.977 m 376.391 200.977 374.855 200.387 373.688 199.219 c 277.648
 103.129 l 275.305 100.781 275.305 96.984 277.648 94.645 c 279.996 92.297
 283.789 92.297 286.133 94.645 c 382.172 190.738 l 384.516 193.086 384.516
 196.883 382.172 199.223 c 381 200.387 379.465 200.977 377.93 200.977 c 
h
377.93 200.977 m f
300.035 291.012 m 298.5 291.012 296.965 290.426 295.793 289.262 c 293.449
 286.914 293.449 283.121 295.789 280.77 c 373.68 202.758 l 376.027 200.41
 379.824 200.418 382.172 202.754 c 384.516 205.098 384.516 208.891 382.176
 211.242 c 304.285 289.254 l 303.113 290.426 301.57 291.012 300.035 291.012
 c h
300.035 291.012 m f
378.035 165.023 m 376.5 165.023 374.965 164.438 373.793 163.266 c 313.688
 103.129 l 311.34 100.781 311.34 96.984 313.688 94.645 c 316.031 92.297 
319.824 92.297 322.172 94.645 c 382.277 154.781 l 384.625 157.129 384.625
 160.926 382.277 163.266 c 381.109 164.438 379.57 165.023 378.035 165.023
 c h
378.035 165.023 m f
336.07 291.012 m 334.535 291.012 333 290.426 331.828 289.262 c 329.484 
286.914 329.484 283.121 331.824 280.77 c 373.738 238.793 l 376.086 236.449
 379.883 236.453 382.23 238.789 c 384.574 241.133 384.574 244.926 382.234
 247.277 c 340.32 289.254 l 339.145 290.426 337.609 291.012 336.07 291.012
 c h
336.07 291.012 m f
372 291.012 m 370.465 291.012 368.934 290.426 367.766 289.262 c 365.41 
286.914 365.41 283.121 367.754 280.777 c 373.738 274.777 l 376.086 272.418
 379.879 272.43 382.223 274.766 c 384.574 277.109 384.574 280.902 382.234
 283.246 c 376.246 289.246 l 375.078 290.426 373.535 291.012 372 291.012
 c h
372 291.012 m f
378.086 129.023 m 376.547 129.023 375.012 128.438 373.844 127.266 c 349.723
 103.129 l 347.375 100.781 347.375 96.984 349.723 94.645 c 352.066 92.297
 355.859 92.297 358.207 94.645 c 382.324 118.781 l 384.672 121.129 384.672
 124.926 382.324 127.266 c 381.148 128.438 379.621 129.023 378.086 129.023
 c h
378.086 129.023 m f
378.047 291.012 m 5.988 291.012 l 2.672 291.012 -0.012 288.328 -0.012 285.012
 c -0.012 281.695 2.672 279.012 5.988 279.012 c 378.047 279.012 l 381.367
 279.012 384.047 281.695 384.047 285.012 c 384.047 288.328 381.367 291.012
 378.047 291.012 c h
378.047 291.012 m f
378.047 315.012 m 5.988 315.012 l 2.672 315.012 -0.012 312.328 -0.012 309.012
 c -0.012 305.695 2.672 303.012 5.988 303.012 c 378.047 303.012 l 381.367
 303.012 384.047 305.695 384.047 309.012 c 384.047 312.328 381.367 315.012
 378.047 315.012 c h
378.047 315.012 m f
378.047 105.012 m 5.988 105.012 l 2.672 105.012 -0.012 102.328 -0.012 99.012
 c -0.012 95.695 2.672 93.012 5.988 93.012 c 378.047 93.012 l 381.367 93.012
 384.047 95.695 384.047 99.012 c 384.047 102.328 381.367 105.012 378.047
 105.012 c h
378.047 105.012 m f
83.879 315.012 m 80.562 315.012 77.879 312.328 77.879 309.012 c 77.879 
285.012 l 77.879 281.695 80.562 279.012 83.879 279.012 c 87.199 279.012 
89.879 281.695 89.879 285.012 c 89.879 309.012 l 89.879 312.328 87.199 315.012
 83.879 315.012 c h
83.879 315.012 m f
191.891 315.012 m 188.574 315.012 185.891 312.328 185.891 309.012 c 185.891
 285.012 l 185.891 281.695 188.574 279.012 191.891 279.012 c 195.211 279.012
 197.891 281.695 197.891 285.012 c 197.891 309.012 l 197.891 312.328 195.211
 315.012 191.891 315.012 c h
191.891 315.012 m f
299.914 315.012 m 296.598 315.012 293.914 312.328 293.914 309.012 c 293.914
 285.012 l 293.914 281.695 296.598 279.012 299.914 279.012 c 303.234 279.012
 305.914 281.695 305.914 285.012 c 305.914 309.012 l 305.914 312.328 303.234
 315.012 299.914 315.012 c h
299.914 315.012 m f
378.047 80.988 m 5.988 80.988 l 2.672 80.988 -0.012 78.305 -0.012 74.988
 c -0.012 71.672 2.672 68.988 5.988 68.988 c 378.047 68.988 l 381.367 68.988
 384.047 71.672 384.047 74.988 c 384.047 78.305 381.367 80.988 378.047 80.988
 c h
378.047 80.988 m f
83.879 104.988 m 80.562 104.988 77.879 102.305 77.879 98.988 c 77.879 74.988
 l 77.879 71.672 80.562 68.988 83.879 68.988 c 87.199 68.988 89.879 71.672
 89.879 74.988 c 89.879 98.988 l 89.879 102.305 87.199 104.988 83.879 104.988
 c h
83.879 104.988 m f
191.891 104.988 m 188.574 104.988 185.891 102.305 185.891 98.988 c 185.891
 74.988 l 185.891 71.672 188.574 68.988 191.891 68.988 c 195.211 68.988 
197.891 71.672 197.891 74.988 c 197.891 98.988 l 197.891 102.305 195.211
 104.988 191.891 104.988 c h
191.891 104.988 m f
299.914 104.988 m 296.598 104.988 293.914 102.305 293.914 98.988 c 293.914
 74.988 l 293.914 71.672 296.598 68.988 299.914 68.988 c 303.234 68.988 
305.914 71.672 305.914 74.988 c 305.914 98.988 l 305.914 102.305 303.234
 104.988 299.914 104.988 c h
299.914 104.988 m f
Q Q
showpage
%%Trailer
end
%%EOF
