%!PS-Adobe-3.0 EPSF-3.0
%%Creator: cairo 1.15.12 (http://cairographics.org)
%%CreationDate: Sun May 26 01:50:03 2019
%%Pages: 1
%%DocumentData: Clean7Bit
%%LanguageLevel: 2
%%BoundingBox: 0 68 384 316
%%EndComments
%%BeginProlog
50 dict begin
/q { gsave } bind def
/Q { grestore } bind def
/cm { 6 array astore concat } bind def
/w { setlinewidth } bind def
/J { setlinecap } bind def
/j { setlinejoin } bind def
/M { setmiterlimit } bind def
/d { setdash } bind def
/m { moveto } bind def
/l { lineto } bind def
/c { curveto } bind def
/h { closepath } bind def
/re { exch dup neg 3 1 roll 5 3 roll moveto 0 rlineto
      0 exch rlineto 0 rlineto closepath } bind def
/S { stroke } bind def
/f { fill } bind def
/f* { eofill } bind def
/n { newpath } bind def
/W { clip } bind def
/W* { eoclip } bind def
/BT { } bind def
/ET { } bind def
/BDC { mark 3 1 roll /BDC pdfmark } bind def
/EMC { mark /EMC pdfmark } bind def
/cairo_store_point { /cairo_point_y exch def /cairo_point_x exch def } def
/Tj { show currentpoint cairo_store_point } bind def
/TJ {
  {
    dup
    type /stringtype eq
    { show } { -0.001 mul 0 cairo_font_matrix dtransform rmoveto } ifelse
  } forall
  currentpoint cairo_store_point
} bind def
/cairo_selectfont { cairo_font_matrix aload pop pop pop 0 0 6 array astore
    cairo_font exch selectfont cairo_point_x cairo_point_y moveto } bind def
/Tf { pop /cairo_font exch def /cairo_font_matrix where
      { pop cairo_selectfont } if } bind def
/Td { matrix translate cairo_font_matrix matrix concatmatrix dup
      /cairo_font_matrix exch def dup 4 get exch 5 get cairo_store_point
      /cairo_font where { pop cairo_selectfont } if } bind def
/Tm { 2 copy 8 2 roll 6 array astore /cairo_font_matrix exch def
      cairo_store_point /cairo_font where { pop cairo_selectfont } if } bind def
/g { setgray } bind def
/rg { setrgbcolor } bind def
/d1 { setcachedevice } bind def
/cairo_data_source {
  CairoDataIndex CairoData length lt
    { CairoData CairoDataIndex get /CairoDataIndex CairoDataIndex 1 add def }
    { () } ifelse
} def
/cairo_flush_ascii85_file { cairo_ascii85_file status { cairo_ascii85_file flushfile } if } def
/cairo_image { image cairo_flush_ascii85_file } def
/cairo_imagemask { imagemask cairo_flush_ascii85_file } def
%%EndProlog
%%BeginSetup
%%EndSetup
%%Page: 1 1
%%BeginPageSetup
%%PageBoundingBox: 0 68 384 316
%%EndPageSetup
q 0 68 384 248 rectclip
1 0 0 -1 0 384 cm q
0 g
373.844 127.266 m 375.012 128.438 376.547 129.023 378.086 129.023 c 379.621
 129.023 381.156 128.438 382.324 127.266 c 384.672 124.926 384.672 121.129
 382.324 118.781 c 368.566 105.012 l 378.047 105.012 l 381.367 105.012 384.047
 102.328 384.047 99.012 c 384.047 95.695 381.367 93.012 378.047 93.012 c
 354.629 93.012 l 354.188 92.957 353.754 92.957 353.305 93.012 c 318.594
 93.012 l 318.148 92.957 317.719 92.957 317.27 93.012 c 305.914 93.012 l
 305.914 80.988 l 378.043 80.988 l 381.359 80.988 384.043 78.305 384.043
 74.988 c 384.043 71.672 381.359 68.988 378.043 68.988 c 5.988 68.988 l 
2.672 68.988 -0.012 71.672 -0.012 74.988 c -0.012 78.305 2.672 80.988 5.988
 80.988 c 77.879 80.988 l 77.879 93.012 l 66.551 93.012 l 66.109 92.957 
65.676 92.957 65.227 93.012 c 30.559 93.012 l 30.113 92.957 29.684 92.957
 29.23 93.012 c 5.988 93.012 l 2.672 93.012 -0.012 95.695 -0.012 99.012 
c -0.012 102.324 2.656 104.992 5.965 105.008 c 4.441 105.02 2.914 105.602
 1.758 106.758 c -0.59 109.105 -0.59 112.895 1.758 115.242 c 69.414 182.934
 l 59.887 192.473 l 10.207 142.781 l 7.859 140.438 4.066 140.438 1.723 142.781
 c -0.625 145.129 -0.625 148.922 1.723 151.266 c 33.379 182.934 l 23.852
 192.48 l 10.242 178.859 l 7.895 176.516 4.105 176.516 1.758 178.859 c -0.59
 181.199 -0.59 184.996 1.758 187.344 c 15.371 200.969 l 1.676 214.688 l 
-0.664 217.039 -0.664 220.828 1.68 223.176 c 2.852 224.34 4.387 224.93 5.922
 224.93 c 7.457 224.93 9 224.34 10.172 223.172 c 41.875 191.426 l 51.414
 200.965 l 1.676 250.77 l -0.664 253.121 -0.664 256.914 1.68 259.262 c 2.852
 260.426 4.387 261.012 5.922 261.012 c 7.457 261.012 9 260.426 10.172 259.254
 c 77.91 191.426 l 87.445 200.969 l 9.512 279.012 l 5.988 279.012 l 2.672
 279.012 -0.012 281.695 -0.012 285.012 c -0.012 288.328 2.672 291.012 5.988
 291.012 c 77.879 291.012 l 77.879 303.012 l 5.988 303.012 l 2.672 303.012
 -0.012 305.695 -0.012 309.012 c -0.012 312.328 2.672 315.012 5.988 315.012
 c 378.047 315.012 l 381.367 315.012 384.047 312.328 384.047 309.012 c 384.047
 305.695 381.367 303.012 378.047 303.012 c 305.914 303.012 l 305.914 291.012
 l 378.043 291.012 l 381.359 291.012 384.043 288.328 384.043 285.012 c 384.043
 283.871 383.641 282.871 383.09 281.957 c 384.406 279.66 384.191 276.727
 382.219 274.766 c 379.871 272.43 376.078 272.418 373.734 274.777 c 369.504
 279.012 l 350.543 279.012 l 382.23 247.277 l 384.57 244.926 384.57 241.133
 382.223 238.789 c 379.879 236.453 376.078 236.449 373.734 238.793 c 333.574
 279.012 l 314.504 279.012 l 382.172 211.242 l 384.512 208.891 384.512 205.098
 382.164 202.754 c 379.816 200.418 376.02 200.41 373.676 202.758 c 297.547
 279.012 l 278.477 279.012 l 365.914 191.449 l 373.688 199.219 l 374.855
 200.387 376.391 200.977 377.93 200.977 c 379.465 200.977 381 200.387 382.172
 199.219 c 384.516 196.879 384.516 193.078 382.172 190.734 c 370.176 178.734
 l 370.172 178.727 370.172 178.715 370.156 178.703 c 370.145 178.699 370.133
 178.691 370.129 178.688 c 296.504 105.012 l 315.574 105.012 l 373.793 163.266
 l 374.965 164.438 376.5 165.023 378.035 165.023 c 379.57 165.023 381.109
 164.438 382.277 163.266 c 384.625 160.926 384.625 157.129 382.277 154.781
 c 332.539 105.012 l 351.613 105.012 l h
293.914 93.012 m 282.551 93.012 l 282.109 92.957 281.676 92.957 281.227
 93.012 c 246.551 93.012 l 246.109 92.957 245.676 92.957 245.227 93.012 
c 210.551 93.012 l 210.109 92.957 209.676 92.957 209.227 93.012 c 197.887
 93.012 l 197.887 80.988 l 293.91 80.988 l 293.91 93.012 l h
206.477 279.012 m 293.922 191.441 l 303.438 200.969 l 225.512 279.012 l
 h
134.477 279.012 m 221.922 191.441 l 231.438 200.969 l 153.512 279.012 l
 h
98.477 279.012 m 185.922 191.441 l 195.438 200.969 l 117.512 279.012 l 
h
118.172 178.727 m 118.164 178.723 118.164 178.711 118.156 178.703 c 118.152
 178.699 118.141 178.699 118.133 178.691 c 44.504 105.012 l 63.539 105.012
 l 141.434 182.953 l 131.914 192.48 l h
99.539 105.012 m 177.434 182.953 l 167.914 192.48 l 154.172 178.727 l 154.164
 178.723 154.164 178.711 154.156 178.703 c 154.152 178.699 154.141 178.699
 154.133 178.691 c 80.504 105.012 l h
135.539 105.012 m 213.434 182.953 l 203.914 192.48 l 190.172 178.727 l 
190.164 178.723 190.164 178.711 190.156 178.703 c 190.152 178.699 190.141
 178.699 190.133 178.691 c 116.504 105.012 l h
171.539 105.012 m 249.434 182.953 l 239.914 192.48 l 226.172 178.727 l 
226.164 178.723 226.164 178.711 226.156 178.703 c 226.152 178.699 226.141
 178.699 226.133 178.691 c 152.504 105.012 l h
207.539 105.012 m 285.434 182.953 l 275.914 192.48 l 262.172 178.727 l 
262.164 178.723 262.164 178.711 262.156 178.703 c 262.152 178.699 262.141
 178.699 262.133 178.691 c 188.504 105.012 l h
149.922 191.441 m 159.438 200.969 l 81.512 279.012 l 62.477 279.012 l h
257.922 191.441 m 267.438 200.969 l 189.512 279.012 l 170.477 279.012 l
 h
311.914 192.48 m 298.172 178.727 l 298.164 178.723 298.164 178.711 298.156
 178.703 c 298.152 178.699 298.141 178.699 298.133 178.691 c 224.504 105.012
 l 243.539 105.012 l 321.434 182.953 l h
89.879 80.988 m 185.891 80.988 l 185.891 93.012 l 174.551 93.012 l 174.109
 92.957 173.676 92.957 173.227 93.012 c 138.551 93.012 l 138.109 92.957 
137.676 92.957 137.227 93.012 c 102.551 93.012 l 102.109 92.957 101.676 
92.957 101.227 93.012 c 89.879 93.012 l h
10.242 106.758 m 9.09 105.605 7.578 105.031 6.059 105.012 c 27.539 105.012
 l 105.434 182.953 l 95.914 192.48 l h
113.922 191.441 m 123.438 200.969 l 45.512 279.012 l 26.477 279.012 l h
89.879 291.012 m 185.891 291.012 l 185.891 303.012 l 89.879 303.012 l h
197.891 303.012 m 197.891 291.012 l 293.914 291.012 l 293.914 303.012 l
 h
242.477 279.012 m 329.922 191.441 l 339.438 200.969 l 261.512 279.012 l
 h
357.434 182.953 m 347.914 192.48 l 334.172 178.727 l 334.164 178.723 334.164
 178.711 334.156 178.703 c 334.152 178.699 334.141 178.699 334.133 178.691
 c 260.504 105.012 l 279.539 105.012 l h
357.434 182.953 m f
Q Q
showpage
%%Trailer
end
%%EOF
