%!PS-Adobe-3.0 EPSF-3.0
%%Creator: cairo 1.16.0 (https://cairographics.org)
%%CreationDate: Thu May 23 06:23:44 2019
%%Pages: 1
%%DocumentData: Clean7Bit
%%LanguageLevel: 2
%%BoundingBox: 5 74 379 310
%%EndComments
%%BeginProlog
50 dict begin
/q { gsave } bind def
/Q { grestore } bind def
/cm { 6 array astore concat } bind def
/w { setlinewidth } bind def
/J { setlinecap } bind def
/j { setlinejoin } bind def
/M { setmiterlimit } bind def
/d { setdash } bind def
/m { moveto } bind def
/l { lineto } bind def
/c { curveto } bind def
/h { closepath } bind def
/re { exch dup neg 3 1 roll 5 3 roll moveto 0 rlineto
      0 exch rlineto 0 rlineto closepath } bind def
/S { stroke } bind def
/f { fill } bind def
/f* { eofill } bind def
/n { newpath } bind def
/W { clip } bind def
/W* { eoclip } bind def
/BT { } bind def
/ET { } bind def
/BDC { mark 3 1 roll /BDC pdfmark } bind def
/EMC { mark /EMC pdfmark } bind def
/cairo_store_point { /cairo_point_y exch def /cairo_point_x exch def } def
/Tj { show currentpoint cairo_store_point } bind def
/TJ {
  {
    dup
    type /stringtype eq
    { show } { -0.001 mul 0 cairo_font_matrix dtransform rmoveto } ifelse
  } forall
  currentpoint cairo_store_point
} bind def
/cairo_selectfont { cairo_font_matrix aload pop pop pop 0 0 6 array astore
    cairo_font exch selectfont cairo_point_x cairo_point_y moveto } bind def
/Tf { pop /cairo_font exch def /cairo_font_matrix where
      { pop cairo_selectfont } if } bind def
/Td { matrix translate cairo_font_matrix matrix concatmatrix dup
      /cairo_font_matrix exch def dup 4 get exch 5 get cairo_store_point
      /cairo_font where { pop cairo_selectfont } if } bind def
/Tm { 2 copy 8 2 roll 6 array astore /cairo_font_matrix exch def
      cairo_store_point /cairo_font where { pop cairo_selectfont } if } bind def
/g { setgray } bind def
/rg { setrgbcolor } bind def
/d1 { setcachedevice } bind def
/cairo_data_source {
  CairoDataIndex CairoData length lt
    { CairoData CairoDataIndex get /CairoDataIndex CairoDataIndex 1 add def }
    { () } ifelse
} def
/cairo_flush_ascii85_file { cairo_ascii85_file status { cairo_ascii85_file flushfile } if } def
/cairo_image { image cairo_flush_ascii85_file } def
/cairo_imagemask { imagemask cairo_flush_ascii85_file } def
%%EndProlog
%%BeginSetup
%%EndSetup
%%Page: 1 1
%%BeginPageSetup
%%PageBoundingBox: 5 74 379 310
%%EndPageSetup
q 5 74 374 236 rectclip
1 0 0 -1 0 384 cm q
1 0.807843 0.329412 rg
378.023 207.035 m 378.023 243.035 l 377.965 243.035 l 336.035 285.035 l
 300.035 285.035 l 377.902 207.035 l h
378.023 207.035 m f
365.914 182.965 m 347.914 201.035 l 347.852 200.965 l 329.914 182.965 l
 245.977 99.035 l 281.977 99.035 l h
365.914 182.965 m f
131.914 201.035 m 47.977 285.035 l 11.977 285.035 l 95.914 201.035 l 113.914
 182.965 l 131.852 200.965 l h
131.914 201.035 m f
347.914 201.035 m 263.977 285.035 l 227.977 285.035 l 311.914 201.035 l
 329.914 182.965 l 347.852 200.965 l h
347.914 201.035 m f
257.914 182.965 m 173.977 99.035 l 209.977 99.035 l 293.914 182.965 l 275.914
 201.035 l 275.852 200.965 l h
257.914 182.965 m f
0.964706 0.733333 0.258824 rg
311.914 201.035 m 227.977 285.035 l 191.977 285.035 l 275.914 201.035 l
 293.914 182.965 l 311.852 200.965 l h
311.914 201.035 m f
1 0.807843 0.329412 rg
173.977 99.035 m 83.852 99.035 l 83.852 74.965 l 191.852 74.965 l 191.852
 99.035 l h
173.977 99.035 m f
191.977 285.035 m 299.914 285.035 l 299.914 309.035 l 191.852 309.035 l
 191.852 285.035 l h
191.977 285.035 m f
0.964706 0.733333 0.258824 rg
83.852 99.035 m 101.977 99.035 l 185.914 182.965 l 167.914 201.035 l 167.852
 200.965 l 149.914 182.965 l 65.977 99.035 l h
83.852 99.035 m f
299.914 99.035 m 318.035 99.035 l 378.023 159.035 l 378.023 194.965 l 377.902
 194.965 l 365.914 182.965 l 281.977 99.035 l h
299.914 99.035 m f
1 0.807843 0.329412 rg
275.914 201.035 m 191.977 285.035 l 155.977 285.035 l 239.914 201.035 l
 257.914 182.965 l 275.852 200.965 l h
275.914 201.035 m f
0.964706 0.733333 0.258824 rg
257.914 182.965 m 239.914 201.035 l 239.852 200.965 l 221.914 182.965 l
 137.977 99.035 l 173.977 99.035 l h
257.914 182.965 m f
167.914 201.035 m 83.977 285.035 l 47.977 285.035 l 131.914 201.035 l 149.914
 182.965 l 167.852 200.965 l h
167.914 201.035 m f
378.023 99.035 m 378.023 122.965 l 354.098 99.035 l h
378.023 99.035 m f
1 0.807843 0.329412 rg
299.914 98.965 m 299.914 99.035 l 191.852 99.035 l 191.852 74.965 l 299.914
 74.965 l h
299.914 98.965 m f
0.964706 0.733333 0.258824 rg
329.914 182.965 m 311.914 201.035 l 311.852 200.965 l 293.914 182.965 l
 209.977 99.035 l 245.977 99.035 l h
329.914 182.965 m f
1 0.807843 0.329412 rg
149.914 182.965 m 131.914 201.035 l 131.852 200.965 l 113.914 182.965 l
 29.977 99.035 l 65.977 99.035 l h
149.914 182.965 m f
0.964706 0.733333 0.258824 rg
23.855 201.035 m 5.977 218.852 l 5.977 183.098 l 23.797 200.965 l h
23.855 201.035 m f
1 0.807843 0.329412 rg
203.914 201.035 m 119.977 285.035 l 83.977 285.035 l 167.914 201.035 l 
185.914 182.965 l 203.852 200.965 l h
203.914 201.035 m f
41.855 182.965 m 59.852 200.965 l 5.977 254.965 l 5.977 218.852 l 23.855
 201.035 l h
41.855 182.965 m f
5.977 285.035 77.875 24 re f
0.964706 0.733333 0.258824 rg
239.914 201.035 m 155.977 285.035 l 119.977 285.035 l 203.914 201.035 l
 221.914 182.965 l 239.852 200.965 l h
239.914 201.035 m f
1 0.807843 0.329412 rg
354.098 99.035 m 299.914 99.035 l 299.914 74.965 l 378.023 74.965 l 378.023
 99.035 l h
354.098 99.035 m f
83.852 98.965 m 83.852 99.035 l 5.977 99.035 l 5.977 74.965 l 83.852 74.965
 l h
83.852 98.965 m f
0.964706 0.733333 0.258824 rg
378.023 243.035 m 378.023 279.035 l 377.965 279.035 l 371.965 285.035 l
 336.035 285.035 l 377.965 243.035 l h
378.023 243.035 m f
1 0.807843 0.329412 rg
300.035 285.035 m 378.023 285.035 l 378.023 309.035 l 299.914 309.035 l
 299.914 285.035 l h
300.035 285.035 m f
221.914 182.965 m 203.914 201.035 l 203.852 200.965 l 185.914 182.965 l
 101.977 99.035 l 137.977 99.035 l h
221.914 182.965 m f
0.964706 0.733333 0.258824 rg
377.902 194.965 m 378.023 194.965 l 378.023 207.035 l 377.902 207.035 l
 300.035 285.035 l 263.977 285.035 l 347.914 201.035 l 365.914 182.965 l
 h
377.902 194.965 m f
1 0.807843 0.329412 rg
378.023 122.965 m 378.023 159.035 l 318.035 99.035 l 354.098 99.035 l h
378.023 122.965 m f
0.964706 0.733333 0.258824 rg
113.914 182.965 m 95.914 201.035 l 95.852 200.965 l 5.977 111.035 l 5.977
 99.035 l 29.977 99.035 l h
113.914 182.965 m f
1 0.807843 0.329412 rg
83.977 285.035 m 191.852 285.035 l 191.852 309.035 l 83.852 309.035 l 83.852
 285.035 l h
83.977 285.035 m f
0.964706 0.733333 0.258824 rg
5.977 147.035 m 41.855 182.965 l 23.855 201.035 l 23.797 200.965 l 5.977
 183.098 l h
5.977 147.035 m f
95.84 200.965 m 77.891 182.965 l 59.891 201.035 l 5.977 254.988 l 5.977
 285.035 l 11.953 285.035 l 95.891 201.035 l h
95.84 200.965 m f
1 0.807843 0.329412 rg
5.977 111.047 m 5.977 147.07 l 59.84 200.965 l 59.891 201.035 l 77.891 
182.965 l h
5.977 111.047 m f
371.965 285.035 m 377.965 285.035 l 377.965 279.035 l h
371.965 285.035 m f
0.929412 0.670588 0.215686 rg
378.023 154.77 m 322.32 99.035 l 313.844 99.035 l 378.023 163.254 l h
378.023 154.77 m f
349.879 99.035 m 378.023 127.207 l 378.023 118.723 l 358.363 99.035 l h
349.879 99.035 m f
268.207 285.035 m 365.914 187.199 l 378.023 199.32 l 378.023 190.828 l 
368.047 180.848 l 368.039 180.836 l 368.027 180.828 l 286.285 99.035 l 277.805
 99.035 l 361.676 182.953 l 347.922 196.727 l 332.047 180.84 l 332.039 180.836
 l 332.035 180.828 l 250.285 99.035 l 241.805 99.035 l 325.676 182.953 l
 311.922 196.727 l 296.047 180.84 l 296.039 180.836 l 296.035 180.828 l 
214.285 99.035 l 205.805 99.035 l 289.676 182.953 l 275.922 196.727 l 260.047
 180.84 l 260.039 180.836 l 260.035 180.828 l 178.285 99.035 l 169.805 99.035
 l 253.676 182.953 l 239.922 196.727 l 224.047 180.84 l 224.039 180.836 
l 224.035 180.828 l 142.285 99.035 l 133.805 99.035 l 217.676 182.953 l 
203.922 196.727 l 188.047 180.84 l 188.039 180.836 l 188.035 180.828 l 106.285
 99.035 l 97.805 99.035 l 181.676 182.953 l 167.922 196.727 l 152.047 180.84
 l 152.039 180.836 l 152.035 180.828 l 70.285 99.035 l 61.805 99.035 l 145.676
 182.953 l 131.922 196.727 l 116.047 180.84 l 116.039 180.836 l 116.035 
180.828 l 34.285 99.035 l 25.805 99.035 l 109.676 182.953 l 95.922 196.727
 l 5.977 106.734 l 5.977 115.219 l 73.656 182.934 l 59.891 196.723 l 5.977
 142.793 l 5.977 151.277 l 37.625 182.934 l 23.855 196.727 l 5.977 178.844
 l 5.977 187.324 l 19.613 200.969 l 5.977 214.625 l 5.977 223.121 l 41.875
 187.176 l 55.648 200.965 l 5.977 250.711 l 5.977 259.199 l 77.898 187.184
 l 91.68 200.969 l 7.734 285.035 l 16.211 285.035 l 113.914 187.195 l 127.68
 200.969 l 43.727 285.035 l 52.207 285.035 l 149.914 187.195 l 163.68 200.969
 l 79.727 285.035 l 88.207 285.035 l 185.914 187.195 l 199.68 200.969 l 
115.727 285.035 l 124.207 285.035 l 221.914 187.195 l 235.68 200.969 l 151.727
 285.035 l 160.207 285.035 l 257.914 187.195 l 271.68 200.969 l 187.723 
285.035 l 196.199 285.035 l 293.914 187.195 l 307.68 200.969 l 223.727 285.035
 l 232.207 285.035 l 329.914 187.195 l 343.68 200.969 l 259.727 285.035 
l h
268.207 285.035 m f
378.023 283.219 m 378.023 274.727 l 367.734 285.035 l 376.211 285.035 l
 h
378.023 283.219 m f
378.023 211.145 m 378.023 202.656 l 295.77 285.035 l 304.246 285.035 l 
h
378.023 211.145 m f
378.023 247.246 m 378.023 238.758 l 331.805 285.035 l 340.285 285.035 l
 h
378.023 247.246 m f
0.964706 0.733333 0.258824 rg
80.879 74.988 6 24 re f
188.852 74.988 6 24 re f
296.812 74.988 6 24 re f
80.879 285.012 6 24 re f
188.852 285.012 6 24 re f
296.812 285.012 6 24 re f
0.929412 0.670588 0.215686 rg
5.977 99.035 371.988 6 re f
5.977 279.035 371.988 6 re f
Q Q
showpage
%%Trailer
end
%%EOF
