%!PS-Adobe-3.0 EPSF-3.0
%%Creator: cairo 1.15.12 (http://cairographics.org)
%%CreationDate: Sun May 26 01:50:03 2019
%%Pages: 1
%%DocumentData: Clean7Bit
%%LanguageLevel: 2
%%BoundingBox: 0 0 384 384
%%EndComments
%%BeginProlog
50 dict begin
/q { gsave } bind def
/Q { grestore } bind def
/cm { 6 array astore concat } bind def
/w { setlinewidth } bind def
/J { setlinecap } bind def
/j { setlinejoin } bind def
/M { setmiterlimit } bind def
/d { setdash } bind def
/m { moveto } bind def
/l { lineto } bind def
/c { curveto } bind def
/h { closepath } bind def
/re { exch dup neg 3 1 roll 5 3 roll moveto 0 rlineto
      0 exch rlineto 0 rlineto closepath } bind def
/S { stroke } bind def
/f { fill } bind def
/f* { eofill } bind def
/n { newpath } bind def
/W { clip } bind def
/W* { eoclip } bind def
/BT { } bind def
/ET { } bind def
/BDC { mark 3 1 roll /BDC pdfmark } bind def
/EMC { mark /EMC pdfmark } bind def
/cairo_store_point { /cairo_point_y exch def /cairo_point_x exch def } def
/Tj { show currentpoint cairo_store_point } bind def
/TJ {
  {
    dup
    type /stringtype eq
    { show } { -0.001 mul 0 cairo_font_matrix dtransform rmoveto } ifelse
  } forall
  currentpoint cairo_store_point
} bind def
/cairo_selectfont { cairo_font_matrix aload pop pop pop 0 0 6 array astore
    cairo_font exch selectfont cairo_point_x cairo_point_y moveto } bind def
/Tf { pop /cairo_font exch def /cairo_font_matrix where
      { pop cairo_selectfont } if } bind def
/Td { matrix translate cairo_font_matrix matrix concatmatrix dup
      /cairo_font_matrix exch def dup 4 get exch 5 get cairo_store_point
      /cairo_font where { pop cairo_selectfont } if } bind def
/Tm { 2 copy 8 2 roll 6 array astore /cairo_font_matrix exch def
      cairo_store_point /cairo_font where { pop cairo_selectfont } if } bind def
/g { setgray } bind def
/rg { setrgbcolor } bind def
/d1 { setcachedevice } bind def
/cairo_data_source {
  CairoDataIndex CairoData length lt
    { CairoData CairoDataIndex get /CairoDataIndex CairoDataIndex 1 add def }
    { () } ifelse
} def
/cairo_flush_ascii85_file { cairo_ascii85_file status { cairo_ascii85_file flushfile } if } def
/cairo_image { image cairo_flush_ascii85_file } def
/cairo_imagemask { imagemask cairo_flush_ascii85_file } def
%%EndProlog
%%BeginSetup
%%EndSetup
%%Page: 1 1
%%BeginPageSetup
%%PageBoundingBox: 0 0 384 384
%%EndPageSetup
q 0 0 384 384 rectclip
1 0 0 -1 0 384 cm q
0 g
320.348 180.711 m 324.203 183.613 328.094 186.734 331.906 189.996 c 333.145
 191.055 333.148 192.945 331.906 194.004 c 304.734 217.238 276.441 231.438
 247.816 236.215 c 241.867 237.207 237.203 241.867 236.215 247.816 c 231.438
 276.441 217.238 304.734 194.004 331.906 c 192.945 333.145 191.055 333.148
 189.996 331.906 c 166.762 304.734 152.562 276.441 147.789 247.816 c 146.797
 241.871 142.133 237.207 136.184 236.215 c 128.488 234.93 120.691 232.926
 113.008 230.254 c 110.02 229.219 106.758 230.797 105.719 233.785 c 104.68
 236.777 106.262 240.039 109.25 241.078 c 131.512 248.812 135.852 245.898
 136.484 249.703 c 141.605 280.41 156.68 310.574 181.285 339.352 c 186.922
 345.941 197.082 345.934 202.715 339.352 c 227.32 310.574 242.391 280.41
 247.512 249.703 c 247.703 248.562 248.562 247.703 249.703 247.516 c 280.41
 242.395 310.574 227.32 339.352 202.715 c 345.941 197.078 345.934 186.918
 339.352 181.285 c 335.355 177.875 331.281 174.598 327.234 171.555 c 324.707
 169.652 321.113 170.16 319.211 172.688 c 317.312 175.215 317.82 178.809
 320.348 180.711 c h
320.348 180.711 m f
247.516 134.297 m 242.391 103.586 227.32 73.426 202.715 44.648 c 197.082
 38.059 186.918 38.066 181.285 44.648 c 156.68 73.426 141.609 103.586 136.484
 134.297 c 136.301 135.418 135.418 136.301 134.297 136.484 c 103.59 141.609
 73.426 156.68 44.652 181.285 c 38.059 186.918 38.07 197.082 44.648 202.715
 c 58.547 214.598 72.957 224.371 87.48 231.766 c 90.309 233.203 93.754 232.074
 95.188 229.262 c 96.621 226.441 95.5 222.992 92.68 221.555 c 78.961 214.57
 65.309 205.301 52.098 194.004 c 50.855 192.945 50.855 191.055 52.098 189.996
 c 79.266 166.762 107.559 152.562 136.184 147.789 c 142.133 146.797 146.797
 142.133 147.789 136.184 c 152.562 107.555 166.762 79.266 189.996 52.094
 c 191.055 50.855 192.945 50.852 194.008 52.094 c 217.238 79.266 231.441
 107.555 236.215 136.184 c 237.207 142.133 241.871 146.797 247.82 147.785
 c 265.934 150.809 284.117 157.699 301.863 168.266 c 304.582 169.883 308.098
 168.992 309.715 166.273 c 311.336 163.555 310.445 160.039 307.727 158.422
 c 288.75 147.121 269.23 139.742 249.703 136.484 c 248.582 136.301 247.699
 135.418 247.516 134.297 c h
247.516 134.297 m f
371.879 0 m 362.816 0 15.879 0 12.121 0 c 5.438 0 0 5.438 0 12.121 c 0 
371.879 l 0 378.562 5.438 384 12.121 384 c 371.879 384 l 378.562 384 384
 378.562 384 371.879 c 384 343.723 384 23.164 384 12.121 c 384 5.438 378.562
 0 371.879 0 c h
11.457 12.121 m 11.457 11.75 11.75 11.457 12.121 11.457 c 106.766 11.457
 l 103.43 21.02 99.016 29.672 93.598 37.258 c 90.734 41.285 90.738 46.684
 93.602 50.691 c 105.156 66.867 111.98 87.477 113.867 112.02 c 113.84 112.047
 113.82 112.051 113.781 112.047 c 89.309 110.129 68.707 103.305 52.543 91.762
 c 48.523 88.891 43.121 88.891 39.098 91.762 c 31.039 97.523 21.766 102.145
 11.457 105.543 c h
12.121 372.543 m 11.75 372.543 11.457 372.25 11.457 371.879 c 11.457 278.457
 l 21.766 281.855 31.039 286.477 39.102 292.238 c 43.121 295.109 48.523 
295.109 52.543 292.238 c 68.707 280.695 89.312 273.871 113.781 271.953 c
 113.82 271.957 113.84 271.953 113.887 272.055 c 111.98 296.52 105.156 317.129
 93.605 333.305 c 90.738 337.316 90.734 342.715 93.602 346.746 c 99.016 
354.332 103.43 362.98 106.766 372.543 c h
372.543 371.879 m 372.543 372.25 372.25 372.543 371.879 372.543 c 277.234
 372.543 l 280.57 362.98 284.984 354.328 290.402 346.742 c 293.266 342.715
 293.262 337.316 290.398 333.309 c 278.844 317.133 272.02 296.523 270.133
 271.98 c 270.16 271.953 270.18 271.953 270.211 271.953 c 294.688 273.871
 315.293 280.691 331.457 292.238 c 335.477 295.109 340.879 295.109 344.902
 292.238 c 352.961 286.477 362.234 281.855 372.543 278.457 c h
372.543 105.543 m 362.234 102.145 352.961 97.523 344.898 91.762 c 342.926
 90.352 340.602 89.609 338.18 89.609 c 335.754 89.609 333.43 90.352 331.457
 91.762 c 315.293 103.309 294.688 110.133 270.199 112.047 c 270.141 112.047
 270.113 112 270.113 111.949 c 270.754 103.73 271.969 95.84 273.727 88.492
 c 274.465 85.418 272.566 82.328 269.488 81.59 c 266.406 80.848 263.32 82.75
 262.586 85.828 c 260.688 93.754 259.379 102.242 258.688 111.074 c 258.668
 111.379 258.652 111.676 258.652 111.973 c 258.652 118.332 263.832 123.504
 270.195 123.504 c 270.496 123.504 270.797 123.492 271.105 123.469 c 297.688
 121.391 320.23 113.859 338.117 101.086 c 338.117 101.086 338.238 101.086
 338.238 101.086 c 348.176 108.188 359.699 113.711 372.543 117.547 c 372.543
 266.457 l 359.699 270.293 348.176 275.816 338.238 282.918 c 338.199 282.945
 338.156 282.945 338.117 282.914 c 320.23 270.145 297.688 262.613 271.098
 260.531 c 263.992 259.984 258.133 265.906 258.691 272.945 c 260.762 299.52
 268.293 322.07 281.074 339.969 c 281.094 339.992 281.113 340.035 281.074
 340.09 c 274.316 349.555 268.98 360.457 265.168 372.543 c 118.832 372.543
 l 115.023 360.457 109.688 349.555 102.934 340.098 c 102.887 340.035 102.906
 339.992 102.926 339.969 c 102.926 339.969 102.926 339.969 102.926 339.965
 c 115.707 322.07 123.238 299.52 125.309 272.953 c 125.871 265.875 119.984
 259.988 112.895 260.531 c 86.312 262.613 63.77 270.145 45.883 282.918 c
 45.844 282.945 45.801 282.945 45.762 282.918 c 35.824 275.816 24.301 270.293
 11.457 266.457 c 11.457 117.543 l 24.301 113.707 35.824 108.188 45.762 
101.086 c 45.801 101.059 45.844 101.055 45.883 101.086 c 63.77 113.859 86.312
 121.387 112.895 123.469 c 121.48 123.469 125.793 117.156 125.309 111.059
 c 123.238 84.48 115.707 61.93 102.926 44.035 c 102.906 44.008 102.887 43.965
 102.926 43.91 c 109.684 34.445 115.02 23.543 118.832 11.457 c 265.168 11.457
 l 268.949 23.453 274.387 34.613 281.074 44.035 c 276.914 49.855 273.258
 56.285 270.203 63.141 c 268.918 66.031 270.215 69.418 273.105 70.703 c 
275.996 71.992 279.383 70.691 280.668 67.801 c 283.41 61.648 286.684 55.891
 290.395 50.695 c 293.234 46.723 293.312 41.344 290.398 37.254 c 284.984
 29.668 280.57 21.02 277.234 11.457 c 371.879 11.457 l 372.25 11.457 372.543
 11.75 372.543 12.121 c h
372.543 105.543 m f
221.664 154.074 m 214.965 154.074 201.895 156.793 192 163.195 c 184.035
 158.039 174.285 154.98 162.98 154.098 c 158.16 153.711 154.074 157.566 
154.074 162.336 c 154.074 169.035 156.793 182.105 163.195 192 c 158.039 
199.965 154.98 209.715 154.098 221.02 c 153.699 226 157.848 230.289 162.988
 229.902 c 174.285 229.02 184.035 225.961 192 220.805 c 199.965 225.961 
209.715 229.02 221.02 229.902 c 226.027 230.301 230.285 226.129 229.902 
221.012 c 229.02 209.715 225.961 199.965 220.805 192 c 225.961 184.035 229.02
 174.285 229.902 162.98 c 230.281 158.223 226.504 154.074 221.664 154.074
 c h
210.223 196.809 m 214.309 202.531 216.941 209.672 218.074 218.074 c 206.82
 216.555 198.43 211.844 196.805 210.219 c 193.895 208.145 190.039 208.188
 187.191 210.223 c 181.469 214.309 174.328 216.941 165.926 218.074 c 167.059
 209.668 169.695 202.527 173.781 196.805 c 175.855 193.895 175.812 190.039
 173.777 187.191 c 169.691 181.469 167.059 174.328 165.926 165.926 c 174.332
 167.059 181.473 169.695 187.195 173.781 c 190.105 175.855 193.961 175.812
 196.809 173.777 c 202.531 169.691 209.672 167.059 218.074 165.926 c 216.941
 174.332 214.305 181.473 210.219 187.195 c 208.145 190.105 208.188 193.961
 210.223 196.809 c h
210.223 196.809 m f
67.395 46.156 m 67.395 34.855 58.199 25.66 46.898 25.66 c 35.598 25.66 
26.402 34.855 26.402 46.156 c 26.402 57.457 35.598 66.652 46.898 66.652 
c 58.199 66.652 67.395 57.457 67.395 46.156 c h
37.859 46.156 m 37.859 41.172 41.914 37.117 46.898 37.117 c 51.883 37.117
 55.938 41.172 55.938 46.156 c 55.938 51.141 51.883 55.195 46.898 55.195
 c 41.914 55.195 37.859 51.141 37.859 46.156 c h
37.859 46.156 m f
337.102 25.66 m 325.801 25.66 316.605 34.855 316.605 46.156 c 316.605 57.457
 325.801 66.652 337.102 66.652 c 348.402 66.652 357.598 57.457 357.598 46.156
 c 357.598 34.855 348.402 25.66 337.102 25.66 c h
337.102 55.195 m 332.117 55.195 328.062 51.141 328.062 46.156 c 328.062
 41.172 332.117 37.117 337.102 37.117 c 342.086 37.117 346.141 41.172 346.141
 46.156 c 346.141 51.141 342.086 55.195 337.102 55.195 c h
337.102 55.195 m f
46.898 317.348 m 35.598 317.348 26.402 326.543 26.402 337.844 c 26.402 
349.145 35.598 358.34 46.898 358.34 c 58.199 358.34 67.395 349.145 67.395
 337.844 c 67.395 326.543 58.199 317.348 46.898 317.348 c h
46.898 346.883 m 41.914 346.883 37.859 342.828 37.859 337.844 c 37.859 
332.863 41.914 328.809 46.898 328.809 c 51.883 328.809 55.938 332.863 55.938
 337.844 c 55.938 342.828 51.883 346.883 46.898 346.883 c h
46.898 346.883 m f
316.605 337.844 m 316.605 349.145 325.801 358.34 337.102 358.34 c 348.402
 358.34 357.598 349.145 357.598 337.844 c 357.598 326.543 348.402 317.348
 337.102 317.348 c 325.801 317.348 316.605 326.543 316.605 337.844 c h
346.141 337.844 m 346.141 342.828 342.086 346.883 337.102 346.883 c 332.117
 346.883 328.062 342.828 328.062 337.844 c 328.062 332.863 332.117 328.809
 337.102 328.809 c 342.086 328.809 346.141 332.859 346.141 337.844 c h
346.141 337.844 m f
Q Q
showpage
%%Trailer
end
%%EOF
