%!PS-Adobe-3.0 EPSF-3.0
%%Creator: cairo 1.15.12 (http://cairographics.org)
%%CreationDate: Sun May 26 01:50:03 2019
%%Pages: 1
%%DocumentData: Clean7Bit
%%LanguageLevel: 2
%%BoundingBox: 0 46 512 466
%%EndComments
%%BeginProlog
50 dict begin
/q { gsave } bind def
/Q { grestore } bind def
/cm { 6 array astore concat } bind def
/w { setlinewidth } bind def
/J { setlinecap } bind def
/j { setlinejoin } bind def
/M { setmiterlimit } bind def
/d { setdash } bind def
/m { moveto } bind def
/l { lineto } bind def
/c { curveto } bind def
/h { closepath } bind def
/re { exch dup neg 3 1 roll 5 3 roll moveto 0 rlineto
      0 exch rlineto 0 rlineto closepath } bind def
/S { stroke } bind def
/f { fill } bind def
/f* { eofill } bind def
/n { newpath } bind def
/W { clip } bind def
/W* { eoclip } bind def
/BT { } bind def
/ET { } bind def
/BDC { mark 3 1 roll /BDC pdfmark } bind def
/EMC { mark /EMC pdfmark } bind def
/cairo_store_point { /cairo_point_y exch def /cairo_point_x exch def } def
/Tj { show currentpoint cairo_store_point } bind def
/TJ {
  {
    dup
    type /stringtype eq
    { show } { -0.001 mul 0 cairo_font_matrix dtransform rmoveto } ifelse
  } forall
  currentpoint cairo_store_point
} bind def
/cairo_selectfont { cairo_font_matrix aload pop pop pop 0 0 6 array astore
    cairo_font exch selectfont cairo_point_x cairo_point_y moveto } bind def
/Tf { pop /cairo_font exch def /cairo_font_matrix where
      { pop cairo_selectfont } if } bind def
/Td { matrix translate cairo_font_matrix matrix concatmatrix dup
      /cairo_font_matrix exch def dup 4 get exch 5 get cairo_store_point
      /cairo_font where { pop cairo_selectfont } if } bind def
/Tm { 2 copy 8 2 roll 6 array astore /cairo_font_matrix exch def
      cairo_store_point /cairo_font where { pop cairo_selectfont } if } bind def
/g { setgray } bind def
/rg { setrgbcolor } bind def
/d1 { setcachedevice } bind def
/cairo_data_source {
  CairoDataIndex CairoData length lt
    { CairoData CairoDataIndex get /CairoDataIndex CairoDataIndex 1 add def }
    { () } ifelse
} def
/cairo_flush_ascii85_file { cairo_ascii85_file status { cairo_ascii85_file flushfile } if } def
/cairo_image { image cairo_flush_ascii85_file } def
/cairo_imagemask { imagemask cairo_flush_ascii85_file } def
%%EndProlog
%%BeginSetup
%%EndSetup
%%Page: 1 1
%%BeginPageSetup
%%PageBoundingBox: 0 46 512 466
%%EndPageSetup
q 0 46 512 420 rectclip
1 0 0 -1 0 512 cm q
0 g
512 376 m 512 286 l 451 286 l 451 256 l 481 256 l 481 166 l 421 166 l 421
 136 l 451 136 l 451 46 l 61 46 l 61 136 l 91 136 l 91 166 l 31 166 l 31
 256 l 61 256 l 61 286 l 0 286 l 0 376 l 31 376 l 31 436 l 0 436 l 0 466
 l 151 466 l 151 436 l 121 436 l 121 376 l 391 376 l 391 436 l 361 436 l
 361 466 l 512 466 l 512 436 l 481 436 l 481 376 l h
421 286 m 391 286 l 391 256 l 421 256 l h
361 256 m 361 286 l 151 286 l 151 256 l h
391 166 m 361 166 l 361 136 l 391 136 l h
331 136 m 331 166 l 181 166 l 181 136 l h
91 76 m 421 76 l 421 106 l 91 106 l h
121 136 m 151 136 l 151 166 l 121 166 l h
61 196 m 451 196 l 451 226 l 61 226 l h
91 256 m 121 256 l 121 286 l 91 286 l h
91 436 m 61 436 l 61 376 l 91 376 l h
451 436 m 421 436 l 421 376 l 451 376 l h
30 346 m 30 316 l 482 316 l 482 346 l 461.84 346 59.953 346 30 346 c h
30 346 m f
Q Q
showpage
%%Trailer
end
%%EOF
