%!PS-Adobe-3.0 EPSF-3.0
%%Creator: cairo 1.16.0 (https://cairographics.org)
%%CreationDate: Thu May  9 07:03:04 2019
%%Pages: 1
%%DocumentData: Clean7Bit
%%LanguageLevel: 2
%%BoundingBox: 0 46 512 466
%%EndComments
%%BeginProlog
50 dict begin
/q { gsave } bind def
/Q { grestore } bind def
/cm { 6 array astore concat } bind def
/w { setlinewidth } bind def
/J { setlinecap } bind def
/j { setlinejoin } bind def
/M { setmiterlimit } bind def
/d { setdash } bind def
/m { moveto } bind def
/l { lineto } bind def
/c { curveto } bind def
/h { closepath } bind def
/re { exch dup neg 3 1 roll 5 3 roll moveto 0 rlineto
      0 exch rlineto 0 rlineto closepath } bind def
/S { stroke } bind def
/f { fill } bind def
/f* { eofill } bind def
/n { newpath } bind def
/W { clip } bind def
/W* { eoclip } bind def
/BT { } bind def
/ET { } bind def
/BDC { mark 3 1 roll /BDC pdfmark } bind def
/EMC { mark /EMC pdfmark } bind def
/cairo_store_point { /cairo_point_y exch def /cairo_point_x exch def } def
/Tj { show currentpoint cairo_store_point } bind def
/TJ {
  {
    dup
    type /stringtype eq
    { show } { -0.001 mul 0 cairo_font_matrix dtransform rmoveto } ifelse
  } forall
  currentpoint cairo_store_point
} bind def
/cairo_selectfont { cairo_font_matrix aload pop pop pop 0 0 6 array astore
    cairo_font exch selectfont cairo_point_x cairo_point_y moveto } bind def
/Tf { pop /cairo_font exch def /cairo_font_matrix where
      { pop cairo_selectfont } if } bind def
/Td { matrix translate cairo_font_matrix matrix concatmatrix dup
      /cairo_font_matrix exch def dup 4 get exch 5 get cairo_store_point
      /cairo_font where { pop cairo_selectfont } if } bind def
/Tm { 2 copy 8 2 roll 6 array astore /cairo_font_matrix exch def
      cairo_store_point /cairo_font where { pop cairo_selectfont } if } bind def
/g { setgray } bind def
/rg { setrgbcolor } bind def
/d1 { setcachedevice } bind def
/cairo_data_source {
  CairoDataIndex CairoData length lt
    { CairoData CairoDataIndex get /CairoDataIndex CairoDataIndex 1 add def }
    { () } ifelse
} def
/cairo_flush_ascii85_file { cairo_ascii85_file status { cairo_ascii85_file flushfile } if } def
/cairo_image { image cairo_flush_ascii85_file } def
/cairo_imagemask { imagemask cairo_flush_ascii85_file } def
%%EndProlog
%%BeginSetup
%%EndSetup
%%Page: 1 1
%%BeginPageSetup
%%PageBoundingBox: 0 46 512 466
%%EndPageSetup
q 0 46 512 420 rectclip
1 0 0 -1 0 512 cm q
0.27451 0.352941 0.380392 rg
91 121 m 91 181 l 181 181 l 181 121 l 151.914 121 87.297 121 91 121 c h
91 121 m f
61 241 m 61 301 l 151 301 l 151 241 l 146.516 241 56.66 241 61 241 c h
61 241 m f
31 331 90 120 re f
0.231373 0.290196 0.317647 rg
331 121 m 331 181 l 421 181 l 421 121 l 416.516 121 326.66 121 331 121 
c h
331 121 m f
361 239 m 361 316 l 451 316 l 451 239 l 446.516 239 356.66 239 361 239 
c h
361 239 m f
391 331 90 120 re f
0.862745 0.882353 0.921569 rg
61 46 390 90 re f
0.745098 0.764706 0.823529 rg
256 46 195 90 re f
0.862745 0.882353 0.921569 rg
31 166 450 90 re f
0.745098 0.764706 0.823529 rg
256 166 225 90 re f
0.27451 0.352941 0.380392 rg
0 436 151 30 re f
0.231373 0.290196 0.317647 rg
361 436 151 30 re f
0.862745 0.882353 0.921569 rg
0 286 512 90 re f
0.745098 0.764706 0.823529 rg
256 286 256 90 re f
Q Q
showpage
%%Trailer
end
%%EOF
