%!PS-Adobe-3.0 EPSF-3.0
%%Creator: cairo 1.15.12 (http://cairographics.org)
%%CreationDate: Sun May 26 01:50:03 2019
%%Pages: 1
%%DocumentData: Clean7Bit
%%LanguageLevel: 2
%%BoundingBox: 0 1 511 512
%%EndComments
%%BeginProlog
50 dict begin
/q { gsave } bind def
/Q { grestore } bind def
/cm { 6 array astore concat } bind def
/w { setlinewidth } bind def
/J { setlinecap } bind def
/j { setlinejoin } bind def
/M { setmiterlimit } bind def
/d { setdash } bind def
/m { moveto } bind def
/l { lineto } bind def
/c { curveto } bind def
/h { closepath } bind def
/re { exch dup neg 3 1 roll 5 3 roll moveto 0 rlineto
      0 exch rlineto 0 rlineto closepath } bind def
/S { stroke } bind def
/f { fill } bind def
/f* { eofill } bind def
/n { newpath } bind def
/W { clip } bind def
/W* { eoclip } bind def
/BT { } bind def
/ET { } bind def
/BDC { mark 3 1 roll /BDC pdfmark } bind def
/EMC { mark /EMC pdfmark } bind def
/cairo_store_point { /cairo_point_y exch def /cairo_point_x exch def } def
/Tj { show currentpoint cairo_store_point } bind def
/TJ {
  {
    dup
    type /stringtype eq
    { show } { -0.001 mul 0 cairo_font_matrix dtransform rmoveto } ifelse
  } forall
  currentpoint cairo_store_point
} bind def
/cairo_selectfont { cairo_font_matrix aload pop pop pop 0 0 6 array astore
    cairo_font exch selectfont cairo_point_x cairo_point_y moveto } bind def
/Tf { pop /cairo_font exch def /cairo_font_matrix where
      { pop cairo_selectfont } if } bind def
/Td { matrix translate cairo_font_matrix matrix concatmatrix dup
      /cairo_font_matrix exch def dup 4 get exch 5 get cairo_store_point
      /cairo_font where { pop cairo_selectfont } if } bind def
/Tm { 2 copy 8 2 roll 6 array astore /cairo_font_matrix exch def
      cairo_store_point /cairo_font where { pop cairo_selectfont } if } bind def
/g { setgray } bind def
/rg { setrgbcolor } bind def
/d1 { setcachedevice } bind def
/cairo_data_source {
  CairoDataIndex CairoData length lt
    { CairoData CairoDataIndex get /CairoDataIndex CairoDataIndex 1 add def }
    { () } ifelse
} def
/cairo_flush_ascii85_file { cairo_ascii85_file status { cairo_ascii85_file flushfile } if } def
/cairo_image { image cairo_flush_ascii85_file } def
/cairo_imagemask { imagemask cairo_flush_ascii85_file } def
%%EndProlog
%%BeginSetup
%%EndSetup
%%Page: 1 1
%%BeginPageSetup
%%PageBoundingBox: 0 1 511 512
%%EndPageSetup
q 0 1 511 511 rectclip
1 0 0 -1 0 512 cm q
0 g
508.07 65.93 m 444.07 1.93 l 442.195 0.055 439.652 -1 437 -1 c 173 -1 l
 167.477 -1 163 3.477 163 9 c 163 14.523 167.477 19 173 19 c 432.855 19 
l 491 77.145 l 491 432.855 l 432.855 491 l 77.145 491 l 19 432.855 l 19 
77.145 l 77.145 19 l 93 19 l 98.523 19 103 14.523 103 9 c 103 3.477 98.523
 -1 93 -1 c 73 -1 l 70.352 -1 67.805 0.055 65.93 1.93 c 1.93 65.93 l 0.055
 67.805 -1 70.348 -1 73 c -1 437 l -1 439.648 0.055 442.195 1.93 444.07 
c 65.93 508.07 l 67.805 509.945 70.348 511 73 511 c 437 511 l 439.648 511
 442.195 509.945 444.07 508.07 c 508.07 444.07 l 509.945 442.195 511 439.648
 511 437 c 511 73 l 511 70.348 509.945 67.805 508.07 65.93 c h
508.07 65.93 m f
49 215 m 43.477 215 39 219.477 39 225 c 39 285 l 39 290.523 43.477 295 
49 295 c 59.004 295 l 66.789 333.465 85.547 368.379 113.582 396.414 c 141.617
 424.445 176.531 443.203 215 450.988 c 215 461 l 215 466.523 219.477 471
 225 471 c 285 471 l 290.523 471 295 466.523 295 461 c 295 450.988 l 333.469
 443.203 368.383 424.445 396.418 396.414 c 424.453 368.379 443.211 333.465
 450.996 295 c 461 295 l 466.523 295 471 290.523 471 285 c 471 225 l 471
 219.477 466.523 215 461 215 c 450.996 215 l 443.211 176.535 424.453 141.621
 396.418 113.586 c 368.383 85.555 333.465 66.793 295 59.012 c 295 49 l 295
 43.477 290.523 39 285 39 c 225 39 l 219.477 39 215 43.477 215 49 c 215 
59.012 l 176.531 66.793 141.617 85.551 113.582 113.586 c 85.547 141.621 
66.789 176.535 59.004 215 c h
77.238 226.566 m 89.465 149.48 149.477 89.473 226.566 77.242 c 231.426 
76.473 235 72.285 235 67.367 c 235 59 l 275 59 l 275 67.367 l 275 72.285
 278.574 76.473 283.434 77.242 c 360.523 89.473 420.535 149.48 432.762 226.566
 c 433.535 231.426 437.723 235 442.641 235 c 451 235 l 451 275 l 442.641
 275 l 437.723 275 433.535 278.574 432.762 283.434 c 420.535 360.52 360.523
 420.527 283.434 432.758 c 278.574 433.527 275 437.715 275 442.633 c 275
 451 l 235 451 l 235 442.633 l 235 437.715 231.426 433.527 226.566 432.758
 c 149.477 420.527 89.465 360.52 77.238 283.434 c 76.465 278.574 72.277 
275 67.359 275 c 59 275 l 59 235 l 67.359 235 l 72.277 235 76.465 231.426
 77.238 226.566 c h
77.238 226.566 m f
285 215 m 285 295 l 285 300.523 289.48 305 295 305 c 300.523 305 305 300.523
 305 295 c 305 215 l 305 209.477 300.523 205 295 205 c 289.48 205 285 209.477
 285 215 c h
285 215 m f
205 215 m 205 295 l 205 300.523 209.477 305 215 305 c 220.523 305 225 300.523
 225 295 c 225 215 l 225 209.477 220.523 205 215 205 c 209.477 205 205 209.477
 205 215 c h
205 215 m f
255 415 m 282.676 415 309.957 407.812 333.895 394.215 c 338.699 391.488
 340.379 385.383 337.652 380.582 c 334.926 375.781 328.82 374.098 324.02
 376.824 c 303.082 388.715 279.219 395 255 395 c 177.805 395 115 332.195
 115 255 c 115 177.805 177.805 115 255 115 c 332.195 115 395 177.805 395
 255 c 395 279.211 388.715 303.078 376.828 324.016 c 374.102 328.816 375.785
 334.922 380.586 337.648 c 385.391 340.375 391.492 338.691 394.219 333.891
 c 407.812 309.949 415 282.668 415 255 c 415 166.777 343.223 95 255 95 c
 166.777 95 95 166.777 95 255 c 95 343.223 166.777 415 255 415 c h
255 415 m f
353.672 354.332 m 353.668 354.34 l 349.953 358.426 350.254 364.746 354.34
 368.461 c 356.258 370.203 358.664 371.062 361.062 371.062 c 363.785 371.062
 366.496 369.957 368.469 367.785 c 372.184 363.699 371.883 357.375 367.797
 353.66 c 363.711 349.945 357.387 350.246 353.672 354.332 c h
353.672 354.332 m f
133.004 19 m 138.527 19 143.004 14.523 143.004 9 c 143.004 3.477 138.527
 -1 133.004 -1 c 132.996 -1 l 127.473 -1 123 3.477 123 9 c 123 14.523 127.484
 19 133.004 19 c h
133.004 19 m f
Q Q
showpage
%%Trailer
end
%%EOF
