%!PS-Adobe-3.0 EPSF-3.0
%%Creator: cairo 1.15.12 (http://cairographics.org)
%%CreationDate: Sun May 26 01:50:03 2019
%%Pages: 1
%%DocumentData: Clean7Bit
%%LanguageLevel: 2
%%BoundingBox: 0 0 512 512
%%EndComments
%%BeginProlog
50 dict begin
/q { gsave } bind def
/Q { grestore } bind def
/cm { 6 array astore concat } bind def
/w { setlinewidth } bind def
/J { setlinecap } bind def
/j { setlinejoin } bind def
/M { setmiterlimit } bind def
/d { setdash } bind def
/m { moveto } bind def
/l { lineto } bind def
/c { curveto } bind def
/h { closepath } bind def
/re { exch dup neg 3 1 roll 5 3 roll moveto 0 rlineto
      0 exch rlineto 0 rlineto closepath } bind def
/S { stroke } bind def
/f { fill } bind def
/f* { eofill } bind def
/n { newpath } bind def
/W { clip } bind def
/W* { eoclip } bind def
/BT { } bind def
/ET { } bind def
/BDC { mark 3 1 roll /BDC pdfmark } bind def
/EMC { mark /EMC pdfmark } bind def
/cairo_store_point { /cairo_point_y exch def /cairo_point_x exch def } def
/Tj { show currentpoint cairo_store_point } bind def
/TJ {
  {
    dup
    type /stringtype eq
    { show } { -0.001 mul 0 cairo_font_matrix dtransform rmoveto } ifelse
  } forall
  currentpoint cairo_store_point
} bind def
/cairo_selectfont { cairo_font_matrix aload pop pop pop 0 0 6 array astore
    cairo_font exch selectfont cairo_point_x cairo_point_y moveto } bind def
/Tf { pop /cairo_font exch def /cairo_font_matrix where
      { pop cairo_selectfont } if } bind def
/Td { matrix translate cairo_font_matrix matrix concatmatrix dup
      /cairo_font_matrix exch def dup 4 get exch 5 get cairo_store_point
      /cairo_font where { pop cairo_selectfont } if } bind def
/Tm { 2 copy 8 2 roll 6 array astore /cairo_font_matrix exch def
      cairo_store_point /cairo_font where { pop cairo_selectfont } if } bind def
/g { setgray } bind def
/rg { setrgbcolor } bind def
/d1 { setcachedevice } bind def
/cairo_data_source {
  CairoDataIndex CairoData length lt
    { CairoData CairoDataIndex get /CairoDataIndex CairoDataIndex 1 add def }
    { () } ifelse
} def
/cairo_flush_ascii85_file { cairo_ascii85_file status { cairo_ascii85_file flushfile } if } def
/cairo_image { image cairo_flush_ascii85_file } def
/cairo_imagemask { imagemask cairo_flush_ascii85_file } def
%%EndProlog
%%BeginSetup
%%EndSetup
%%Page: 1 1
%%BeginPageSetup
%%PageBoundingBox: 0 0 512 512
%%EndPageSetup
q 0 0 512 512 rectclip
1 0 0 -1 0 512 cm q
0 g
494.934 0 m 17.066 0 l 7.645 0.012 0.012 7.645 0 17.066 c 0 494.934 l 0.012
 504.355 7.645 511.988 17.066 512 c 494.934 512 l 504.355 511.988 511.988
 504.355 512 494.934 c 512 17.066 l 511.988 7.645 504.355 0.012 494.934 
0 c h
494.934 136.535 m 469.332 136.535 l 469.332 17.066 l 494.934 17.066 l h
426.668 59.734 m 421.953 59.734 418.133 63.555 418.133 68.266 c 418.133
 136.535 l 392.535 136.535 l 392.535 17.066 l 418.133 17.066 l 418.133 34.133
 l 418.133 38.848 421.953 42.668 426.668 42.668 c 431.379 42.668 435.199
 38.848 435.199 34.133 c 435.199 17.066 l 452.266 17.066 l 452.266 136.535
 l 435.199 136.535 l 435.199 68.266 l 435.199 63.555 431.379 59.734 426.668
 59.734 c h
375.465 358.398 m 349.867 358.398 l 349.867 204.801 l 349.867 200.086 346.047
 196.266 341.332 196.266 c 336.621 196.266 332.801 200.086 332.801 204.801
 c 332.801 358.398 l 264.535 358.398 l 264.535 17.066 l 290.133 17.066 l
 290.133 332.801 l 290.133 337.512 293.953 341.332 298.668 341.332 c 303.379
 341.332 307.199 337.512 307.199 332.801 c 307.199 17.066 l 332.801 17.066
 l 332.801 128 l 332.801 132.711 336.621 136.535 341.332 136.535 c 346.047
 136.535 349.867 132.711 349.867 128 c 349.867 17.066 l 375.465 17.066 l
 h
247.465 136.535 m 221.867 136.535 l 221.867 119.465 l 221.867 114.754 218.047
 110.934 213.332 110.934 c 208.621 110.934 204.801 114.754 204.801 119.465
 c 204.801 136.535 l 170.668 136.535 l 170.668 68.266 l 170.668 63.555 166.848
 59.734 162.133 59.734 c 157.422 59.734 153.602 63.555 153.602 68.266 c 
153.602 136.535 l 136.535 136.535 l 136.535 17.066 l 153.602 17.066 l 153.602
 34.133 l 153.602 38.848 157.422 42.668 162.133 42.668 c 166.848 42.668 
170.668 38.848 170.668 34.133 c 170.668 17.066 l 204.801 17.066 l 204.801
 42.668 l 204.801 47.379 208.621 51.199 213.332 51.199 c 218.047 51.199 
221.867 47.379 221.867 42.668 c 221.867 17.066 l 247.465 17.066 l h
119.465 375.465 m 119.465 494.934 l 85.332 494.934 l 85.332 375.465 l h
42.668 17.066 m 42.668 145.066 l 42.668 149.781 46.488 153.602 51.199 153.602
 c 55.914 153.602 59.734 149.781 59.734 145.066 c 59.734 17.066 l 76.801
 17.066 l 76.801 25.602 l 76.801 30.312 80.621 34.133 85.332 34.133 c 90.047
 34.133 93.867 30.312 93.867 25.602 c 93.867 17.066 l 119.465 17.066 l 119.465
 358.398 l 93.867 358.398 l 93.867 341.332 l 93.867 336.621 90.047 332.801
 85.332 332.801 c 80.621 332.801 76.801 336.621 76.801 341.332 c 76.801 
358.398 l 59.734 358.398 l 59.734 230.398 l 59.734 225.688 55.914 221.867
 51.199 221.867 c 46.488 221.867 42.668 225.688 42.668 230.398 c 42.668 
358.398 l 17.066 358.398 l 17.066 17.066 l h
17.066 375.465 m 34.133 375.465 l 34.133 435.199 l 34.133 439.914 37.953
 443.734 42.668 443.734 c 47.379 443.734 51.199 439.914 51.199 435.199 c
 51.199 375.465 l 68.266 375.465 l 68.266 494.934 l 51.199 494.934 l 51.199
 477.867 l 51.199 473.152 47.379 469.332 42.668 469.332 c 37.953 469.332
 34.133 473.152 34.133 477.867 c 34.133 494.934 l 17.066 494.934 l h
136.535 153.602 m 162.133 153.602 l 162.133 358.398 l 162.133 363.113 165.953
 366.934 170.668 366.934 c 175.379 366.934 179.199 363.113 179.199 358.398
 c 179.199 153.602 l 204.801 153.602 l 204.801 264.535 l 204.801 269.246
 208.621 273.066 213.332 273.066 c 218.047 273.066 221.867 269.246 221.867
 264.535 c 221.867 153.602 l 247.465 153.602 l 247.465 494.934 l 221.867
 494.934 l 221.867 298.668 l 221.867 293.953 218.047 290.133 213.332 290.133
 c 208.621 290.133 204.801 293.953 204.801 298.668 c 204.801 494.934 l 179.199
 494.934 l 179.199 435.199 l 179.199 430.488 175.379 426.668 170.668 426.668
 c 165.953 426.668 162.133 430.488 162.133 435.199 c 162.133 494.934 l 136.535
 494.934 l h
264.535 375.465 m 290.133 375.465 l 290.133 452.266 l 290.133 456.98 293.953
 460.801 298.668 460.801 c 303.379 460.801 307.199 456.98 307.199 452.266
 c 307.199 375.465 l 332.801 375.465 l 332.801 409.602 l 332.801 414.312
 336.621 418.133 341.332 418.133 c 346.047 418.133 349.867 414.312 349.867
 409.602 c 349.867 375.465 l 375.465 375.465 l 375.465 494.934 l 349.867
 494.934 l 349.867 443.734 l 349.867 439.02 346.047 435.199 341.332 435.199
 c 336.621 435.199 332.801 439.02 332.801 443.734 c 332.801 494.934 l 307.199
 494.934 l 307.199 486.398 l 307.199 481.688 303.379 477.867 298.668 477.867
 c 293.953 477.867 290.133 481.688 290.133 486.398 c 290.133 494.934 l 264.535
 494.934 l h
469.332 494.934 m 469.332 443.734 l 469.332 439.02 465.512 435.199 460.801
 435.199 c 456.086 435.199 452.266 439.02 452.266 443.734 c 452.266 494.934
 l 435.199 494.934 l 435.199 281.602 l 435.199 276.887 431.379 273.066 426.668
 273.066 c 421.953 273.066 418.133 276.887 418.133 281.602 c 418.133 494.934
 l 392.535 494.934 l 392.535 153.602 l 418.133 153.602 l 418.133 204.801
 l 418.133 209.512 421.953 213.332 426.668 213.332 c 431.379 213.332 435.199
 209.512 435.199 204.801 c 435.199 153.602 l 452.266 153.602 l 452.266 409.602
 l 452.266 414.312 456.086 418.133 460.801 418.133 c 465.512 418.133 469.332
 414.312 469.332 409.602 c 469.332 153.602 l 494.934 153.602 l 494.941 494.934
 l h
469.332 494.934 m f
51.199 204.801 m 55.914 204.801 59.734 200.98 59.734 196.266 c 59.734 187.734
 l 59.734 183.02 55.914 179.199 51.199 179.199 c 46.488 179.199 42.668 183.02
 42.668 187.734 c 42.668 196.266 l 42.668 200.98 46.488 204.801 51.199 204.801
 c h
51.199 204.801 m f
85.332 298.668 m 90.047 298.668 93.867 294.848 93.867 290.133 c 93.867 
59.734 l 93.867 55.02 90.047 51.199 85.332 51.199 c 80.621 51.199 76.801
 55.02 76.801 59.734 c 76.801 290.133 l 76.801 294.848 80.621 298.668 85.332
 298.668 c h
85.332 298.668 m f
170.668 409.602 m 175.379 409.602 179.199 405.781 179.199 401.066 c 179.199
 392.535 l 179.199 387.82 175.379 384 170.668 384 c 165.953 384 162.133 
387.82 162.133 392.535 c 162.133 401.066 l 162.133 405.781 165.953 409.602
 170.668 409.602 c h
170.668 409.602 m f
213.332 68.266 m 208.621 68.266 204.801 72.086 204.801 76.801 c 204.801
 85.332 l 204.801 90.047 208.621 93.867 213.332 93.867 c 218.047 93.867 
221.867 90.047 221.867 85.332 c 221.867 76.801 l 221.867 72.086 218.047 
68.266 213.332 68.266 c h
213.332 68.266 m f
341.332 153.602 m 336.621 153.602 332.801 157.422 332.801 162.133 c 332.801
 170.668 l 332.801 175.379 336.621 179.199 341.332 179.199 c 346.047 179.199
 349.867 175.379 349.867 170.668 c 349.867 162.133 l 349.867 157.422 346.047
 153.602 341.332 153.602 c h
341.332 153.602 m f
426.668 230.398 m 421.953 230.398 418.133 234.219 418.133 238.934 c 418.133
 247.465 l 418.133 252.18 421.953 256 426.668 256 c 431.379 256 435.199 
252.18 435.199 247.465 c 435.199 238.934 l 435.199 234.219 431.379 230.398
 426.668 230.398 c h
426.668 230.398 m f
Q Q
showpage
%%Trailer
end
%%EOF
