%!PS-Adobe-3.0 EPSF-3.0
%%Creator: cairo 1.15.12 (http://cairographics.org)
%%CreationDate: Sun May 26 01:50:03 2019
%%Pages: 1
%%DocumentData: Clean7Bit
%%LanguageLevel: 2
%%BoundingBox: 8 0 488 496
%%EndComments
%%BeginProlog
50 dict begin
/q { gsave } bind def
/Q { grestore } bind def
/cm { 6 array astore concat } bind def
/w { setlinewidth } bind def
/J { setlinecap } bind def
/j { setlinejoin } bind def
/M { setmiterlimit } bind def
/d { setdash } bind def
/m { moveto } bind def
/l { lineto } bind def
/c { curveto } bind def
/h { closepath } bind def
/re { exch dup neg 3 1 roll 5 3 roll moveto 0 rlineto
      0 exch rlineto 0 rlineto closepath } bind def
/S { stroke } bind def
/f { fill } bind def
/f* { eofill } bind def
/n { newpath } bind def
/W { clip } bind def
/W* { eoclip } bind def
/BT { } bind def
/ET { } bind def
/BDC { mark 3 1 roll /BDC pdfmark } bind def
/EMC { mark /EMC pdfmark } bind def
/cairo_store_point { /cairo_point_y exch def /cairo_point_x exch def } def
/Tj { show currentpoint cairo_store_point } bind def
/TJ {
  {
    dup
    type /stringtype eq
    { show } { -0.001 mul 0 cairo_font_matrix dtransform rmoveto } ifelse
  } forall
  currentpoint cairo_store_point
} bind def
/cairo_selectfont { cairo_font_matrix aload pop pop pop 0 0 6 array astore
    cairo_font exch selectfont cairo_point_x cairo_point_y moveto } bind def
/Tf { pop /cairo_font exch def /cairo_font_matrix where
      { pop cairo_selectfont } if } bind def
/Td { matrix translate cairo_font_matrix matrix concatmatrix dup
      /cairo_font_matrix exch def dup 4 get exch 5 get cairo_store_point
      /cairo_font where { pop cairo_selectfont } if } bind def
/Tm { 2 copy 8 2 roll 6 array astore /cairo_font_matrix exch def
      cairo_store_point /cairo_font where { pop cairo_selectfont } if } bind def
/g { setgray } bind def
/rg { setrgbcolor } bind def
/d1 { setcachedevice } bind def
/cairo_data_source {
  CairoDataIndex CairoData length lt
    { CairoData CairoDataIndex get /CairoDataIndex CairoDataIndex 1 add def }
    { () } ifelse
} def
/cairo_flush_ascii85_file { cairo_ascii85_file status { cairo_ascii85_file flushfile } if } def
/cairo_image { image cairo_flush_ascii85_file } def
/cairo_imagemask { imagemask cairo_flush_ascii85_file } def
%%EndProlog
%%BeginSetup
%%EndSetup
%%Page: 1 1
%%BeginPageSetup
%%PageBoundingBox: 8 0 488 496
%%EndPageSetup
q 8 0 480 496 rectclip
1 0 0 -1 0 496 cm q
0 g
72 400 m 54.352 400 40 414.352 40 432 c 40 449.648 54.352 464 72 464 c 
89.648 464 104 449.648 104 432 c 104 414.352 89.648 400 72 400 c h
72 448 m 63.176 448 56 440.824 56 432 c 56 423.176 63.176 416 72 416 c 
80.824 416 88 423.176 88 432 c 88 440.824 80.824 448 72 448 c h
72 448 m f
133.895 48 m 126.762 20.441 101.754 0 72 0 c 36.711 0 8 28.711 8 64 c 8
 432 l 8 467.289 36.711 496 72 496 c 488 496 l 488 48 l h
472 136 m 456 136 l 456 64 l 472 64 l h
184 408 m 184 480 l 168 480 l 168 408 l h
200 408 m 216 408 l 216 480 l 200 480 l h
232 408 m 248 408 l 248 480 l 232 480 l h
264 408 m 280 408 l 280 480 l 264 480 l h
296 408 m 312 408 l 312 480 l 296 480 l h
328 408 m 344 408 l 344 480 l 328 480 l h
360 408 m 376 408 l 376 480 l 360 480 l h
392 408 m 408 408 l 408 480 l 392 480 l h
424 408 m 440 408 l 440 480 l 424 480 l h
136 392 m 136 376 l 472 376 l 472 392 l h
48 372.711 m 48 341.414 l 52.863 339.062 58.258 337.414 64 336.609 c 64
 368.559 l 58.414 369.258 53.047 370.664 48 372.711 c h
80 336.602 m 85.742 337.406 91.137 339.055 96 341.406 c 96 372.703 l 90.953
 370.656 85.586 369.246 80 368.543 c h
112 353.938 m 117.047 360.266 120 367.848 120 376 c 120 389.809 l 117.551
 387.023 114.887 384.441 112 382.121 c h
136 360 m 136 184 l 472 184 l 472 360 l h
136 168 m 136 152 l 472 152 l 472 168 l h
424 136 m 424 64 l 440 64 l 440 136 l h
408 136 m 392 136 l 392 64 l 408 64 l h
376 136 m 360 136 l 360 64 l 376 64 l h
344 136 m 328 136 l 328 64 l 344 64 l h
312 136 m 296 136 l 296 64 l 312 64 l h
280 136 m 264 136 l 264 64 l 280 64 l h
248 136 m 232 136 l 232 64 l 248 64 l h
216 136 m 200 136 l 200 64 l 216 64 l h
184 136 m 168 136 l 168 64 l 184 64 l h
152 64 m 152 136 l 136 136 l 136 64 l h
120 64 m 120 77.344 l 117.551 75.617 114.895 74.023 112 72.594 c 112 37.52
 l 117.047 45.121 120 54.215 120 64 c h
48 22.496 m 52.863 19.672 58.258 17.695 64 16.727 c 64 64.336 l 58.391 
64.754 53.031 65.602 48 66.84 c h
80 16.719 m 85.742 17.688 91.137 19.672 96 22.488 c 96 66.832 l 90.969 
65.594 85.609 64.742 80 64.32 c h
32 37.52 m 32 72.586 l 29.105 74.016 26.449 75.609 24 77.336 c 24 64 l 
24 54.215 26.953 45.121 32 37.52 c h
72 80 m 100.289 80 120 92.648 120 104 c 120 115.078 l 108.266 103.414 91.121
 96 72 96 c 52.879 96 35.734 103.414 24 115.078 c 24 104 l 24 92.648 43.711
 80 72 80 c h
72 112 m 98.473 112 120 129.945 120 152 c 120 301.344 l 108.359 293.129
 91.336 288 72 288 c 52.664 288 35.641 293.129 24 301.344 c 24 152 l 24 
129.945 45.527 112 72 112 c h
72 304 m 100.289 304 120 316.648 120 328 c 120 339.078 l 108.266 327.414
 91.121 320 72 320 c 52.879 320 35.734 327.414 24 339.078 c 24 328 l 24 
316.648 43.711 304 72 304 c h
24 376 m 24 367.848 26.953 360.266 32 353.938 c 32 382.121 l 29.113 384.441
 26.449 387.031 24 389.809 c h
24 432 m 24 405.527 45.527 384 72 384 c 98.473 384 120 405.527 120 432 
c 120 458.473 98.473 480 72 480 c 45.527 480 24 458.473 24 432 c h
136 432 m 136 408 l 152 408 l 152 480 l 114.191 480 l 127.527 468.266 136
 451.121 136 432 c h
456 480 m 456 408 l 472 408 l 472 480 l h
456 480 m f
Q Q
showpage
%%Trailer
end
%%EOF
