%!PS-Adobe-3.0 EPSF-3.0
%%Creator: cairo 1.15.12 (http://cairographics.org)
%%CreationDate: Sun May 26 01:50:03 2019
%%Pages: 1
%%DocumentData: Clean7Bit
%%LanguageLevel: 2
%%BoundingBox: 0 0 384 384
%%EndComments
%%BeginProlog
50 dict begin
/q { gsave } bind def
/Q { grestore } bind def
/cm { 6 array astore concat } bind def
/w { setlinewidth } bind def
/J { setlinecap } bind def
/j { setlinejoin } bind def
/M { setmiterlimit } bind def
/d { setdash } bind def
/m { moveto } bind def
/l { lineto } bind def
/c { curveto } bind def
/h { closepath } bind def
/re { exch dup neg 3 1 roll 5 3 roll moveto 0 rlineto
      0 exch rlineto 0 rlineto closepath } bind def
/S { stroke } bind def
/f { fill } bind def
/f* { eofill } bind def
/n { newpath } bind def
/W { clip } bind def
/W* { eoclip } bind def
/BT { } bind def
/ET { } bind def
/BDC { mark 3 1 roll /BDC pdfmark } bind def
/EMC { mark /EMC pdfmark } bind def
/cairo_store_point { /cairo_point_y exch def /cairo_point_x exch def } def
/Tj { show currentpoint cairo_store_point } bind def
/TJ {
  {
    dup
    type /stringtype eq
    { show } { -0.001 mul 0 cairo_font_matrix dtransform rmoveto } ifelse
  } forall
  currentpoint cairo_store_point
} bind def
/cairo_selectfont { cairo_font_matrix aload pop pop pop 0 0 6 array astore
    cairo_font exch selectfont cairo_point_x cairo_point_y moveto } bind def
/Tf { pop /cairo_font exch def /cairo_font_matrix where
      { pop cairo_selectfont } if } bind def
/Td { matrix translate cairo_font_matrix matrix concatmatrix dup
      /cairo_font_matrix exch def dup 4 get exch 5 get cairo_store_point
      /cairo_font where { pop cairo_selectfont } if } bind def
/Tm { 2 copy 8 2 roll 6 array astore /cairo_font_matrix exch def
      cairo_store_point /cairo_font where { pop cairo_selectfont } if } bind def
/g { setgray } bind def
/rg { setrgbcolor } bind def
/d1 { setcachedevice } bind def
/cairo_data_source {
  CairoDataIndex CairoData length lt
    { CairoData CairoDataIndex get /CairoDataIndex CairoDataIndex 1 add def }
    { () } ifelse
} def
/cairo_flush_ascii85_file { cairo_ascii85_file status { cairo_ascii85_file flushfile } if } def
/cairo_image { image cairo_flush_ascii85_file } def
/cairo_imagemask { imagemask cairo_flush_ascii85_file } def
%%EndProlog
%%BeginSetup
%%EndSetup
%%Page: 1 1
%%BeginPageSetup
%%PageBoundingBox: 0 0 384 384
%%EndPageSetup
q 0 0 384 384 rectclip
1 0 0 -1 0 384 cm q
0 g
372.75 82.777 m 378.965 82.777 384 77.742 384 71.527 c 384 11.25 l 384 
5.035 378.965 0 372.75 0 c 71.656 0 l 65.445 0 60.406 5.035 60.406 11.25
 c 60.406 60.277 l 11.25 60.277 l 5.035 60.277 0 65.316 0 71.527 c 0 131.805
 l 0 138.02 5.035 143.055 11.25 143.055 c 60.406 143.055 l 60.406 180.668
 l 11.25 180.668 l 5.035 180.668 0 185.703 0 191.918 c 0 252.195 l 0 258.406
 5.035 263.445 11.25 263.445 c 60.406 263.445 l 60.406 301.223 l 11.25 301.223
 l 5.035 301.223 0 306.262 0 312.473 c 0 372.75 l 0 378.965 5.035 384 11.25
 384 c 312.344 384 l 318.555 384 323.594 378.965 323.594 372.75 c 323.594
 323.723 l 372.75 323.723 l 378.965 323.723 384 318.684 384 312.473 c 384
 252.195 l 384 245.98 378.965 240.945 372.75 240.945 c 323.594 240.945 l
 323.594 203.164 l 372.75 203.164 l 378.965 203.164 384 198.129 384 191.914
 c 384 131.637 l 384 125.426 378.965 120.387 372.75 120.387 c 323.594 120.387
 l 323.594 82.777 l h
82.906 22.5 m 361.5 22.5 l 361.5 60.277 l 82.906 60.277 l h
22.5 82.777 m 301.094 82.777 l 301.094 120.555 l 22.5 120.555 l h
22.5 203.164 m 301.094 203.164 l 301.094 240.945 l 22.5 240.945 l h
301.094 361.5 m 22.5 361.5 l 22.5 323.723 l 301.094 323.723 l h
361.5 301.223 m 82.906 301.223 l 82.906 263.445 l 361.5 263.445 l h
361.5 180.664 m 82.906 180.664 l 82.906 143.055 l 312.344 143.055 l 312.98
 143.055 313.602 142.992 314.211 142.887 c 361.5 142.887 l h
361.5 180.664 m f
Q Q
showpage
%%Trailer
end
%%EOF
