%!PS-Adobe-3.0 EPSF-3.0
%%Creator: cairo 1.15.12 (http://cairographics.org)
%%CreationDate: Sun May 26 01:50:03 2019
%%Pages: 1
%%DocumentData: Clean7Bit
%%LanguageLevel: 2
%%BoundingBox: 0 0 511 511
%%EndComments
%%BeginProlog
50 dict begin
/q { gsave } bind def
/Q { grestore } bind def
/cm { 6 array astore concat } bind def
/w { setlinewidth } bind def
/J { setlinecap } bind def
/j { setlinejoin } bind def
/M { setmiterlimit } bind def
/d { setdash } bind def
/m { moveto } bind def
/l { lineto } bind def
/c { curveto } bind def
/h { closepath } bind def
/re { exch dup neg 3 1 roll 5 3 roll moveto 0 rlineto
      0 exch rlineto 0 rlineto closepath } bind def
/S { stroke } bind def
/f { fill } bind def
/f* { eofill } bind def
/n { newpath } bind def
/W { clip } bind def
/W* { eoclip } bind def
/BT { } bind def
/ET { } bind def
/BDC { mark 3 1 roll /BDC pdfmark } bind def
/EMC { mark /EMC pdfmark } bind def
/cairo_store_point { /cairo_point_y exch def /cairo_point_x exch def } def
/Tj { show currentpoint cairo_store_point } bind def
/TJ {
  {
    dup
    type /stringtype eq
    { show } { -0.001 mul 0 cairo_font_matrix dtransform rmoveto } ifelse
  } forall
  currentpoint cairo_store_point
} bind def
/cairo_selectfont { cairo_font_matrix aload pop pop pop 0 0 6 array astore
    cairo_font exch selectfont cairo_point_x cairo_point_y moveto } bind def
/Tf { pop /cairo_font exch def /cairo_font_matrix where
      { pop cairo_selectfont } if } bind def
/Td { matrix translate cairo_font_matrix matrix concatmatrix dup
      /cairo_font_matrix exch def dup 4 get exch 5 get cairo_store_point
      /cairo_font where { pop cairo_selectfont } if } bind def
/Tm { 2 copy 8 2 roll 6 array astore /cairo_font_matrix exch def
      cairo_store_point /cairo_font where { pop cairo_selectfont } if } bind def
/g { setgray } bind def
/rg { setrgbcolor } bind def
/d1 { setcachedevice } bind def
/cairo_data_source {
  CairoDataIndex CairoData length lt
    { CairoData CairoDataIndex get /CairoDataIndex CairoDataIndex 1 add def }
    { () } ifelse
} def
/cairo_flush_ascii85_file { cairo_ascii85_file status { cairo_ascii85_file flushfile } if } def
/cairo_image { image cairo_flush_ascii85_file } def
/cairo_imagemask { imagemask cairo_flush_ascii85_file } def
%%EndProlog
%%BeginSetup
%%EndSetup
%%Page: 1 1
%%BeginPageSetup
%%PageBoundingBox: 0 0 511 511
%%EndPageSetup
q 0 0 511 511 rectclip
1 0 0 -1 0 511 cm q
0 g
403.574 107.426 m 413.148 111.121 421.879 116.754 429.172 124.047 c 440.934
 135.844 l 440.934 85.031 l 440.934 76.945 434.051 70.062 425.965 70.062
 c 375.148 70.062 l 386.949 81.824 l 394.246 89.121 399.875 97.848 403.574
 107.426 c h
403.574 107.426 m f
440.934 423.969 m 440.934 373.152 l 429.172 384.953 l 421.875 392.25 413.148
 397.879 403.574 401.578 c 399.875 411.152 394.246 419.883 386.949 427.176
 c 375.152 438.938 l 425.965 438.938 l 434.051 438.938 440.934 432.055 440.934
 423.969 c h
440.934 423.969 m f
83.82 384.953 m 72.059 373.156 l 72.059 423.969 l 72.059 432.055 78.941
 438.938 87.027 438.938 c 137.852 438.938 l 126.043 427.176 l 118.746 419.883
 113.117 411.152 109.422 401.578 c 99.844 397.879 91.117 392.25 83.82 384.953
 c h
83.82 384.953 m f
109.418 107.426 m 113.117 97.848 118.746 89.121 126.043 81.824 c 137.844
 70.062 l 87.027 70.062 l 78.941 70.062 72.059 76.945 72.059 85.031 c 72.059
 135.848 l 83.82 124.047 l 91.117 116.754 99.844 111.121 109.418 107.426
 c h
109.418 107.426 m f
116.969 239.531 m 160.477 239.531 l 181.645 218.363 l 181.645 200.816 l
 117.547 136.723 l 113.023 138.82 108.707 141.5 104.992 145.211 c 102 148.211
 l 102 224.562 l 102 232.941 108.883 239.531 116.969 239.531 c h
116.969 239.531 m f
181.645 290.645 m 160.477 269.473 l 116.969 269.473 l 108.883 269.473 102
 276.059 102 284.445 c 102 360.793 l 104.992 363.789 l 108.707 367.504 113.023
 370.184 117.547 372.285 c 181.645 308.188 l h
181.645 290.645 m f
256.496 81.738 m 264.578 74.555 275.059 69.863 286.441 69.863 c 332.848
 69.863 l 266.977 3.492 l 261.285 -2.496 251.707 -2.496 246.02 3.492 c 180.148
 69.863 l 226.555 69.863 l 237.934 69.863 248.414 74.555 256.496 81.738 
c h
256.496 81.738 m f
396.023 239.531 m 404.109 239.531 410.992 232.941 410.992 224.562 c 410.992
 148.211 l 408 145.211 l 404.285 141.5 399.973 138.82 395.449 136.723 c 
331.352 200.816 l 331.352 218.359 l 352.52 239.531 l h
396.023 239.531 m f
286.441 209.59 m 282.465 209.59 278.66 208.012 275.855 205.203 c 256.496
 185.848 l 237.137 205.203 l 234.336 208.012 230.531 209.59 226.555 209.59
 c 211.586 209.59 l 211.586 224.562 l 211.586 228.539 210.008 232.34 207.195
 235.145 c 187.844 254.504 l 207.199 273.859 l 210.008 276.668 211.586 280.469
 211.586 284.445 c 211.586 299.414 l 226.555 299.414 l 230.531 299.414 234.336
 300.992 237.137 303.801 c 256.496 323.156 l 275.855 303.801 l 278.66 300.992
 282.461 299.414 286.441 299.414 c 301.41 299.414 l 301.41 284.445 l 301.41
 280.469 302.988 276.668 305.797 273.859 c 325.152 254.504 l 305.793 235.145
 l 302.988 232.34 301.41 228.539 301.41 224.562 c 301.41 209.59 l h
286.441 209.59 m f
408 363.789 m 410.992 360.789 l 410.992 284.445 l 410.992 276.059 404.109
 269.473 396.023 269.473 c 352.52 269.473 l 331.352 290.645 l 331.352 308.184
 l 395.445 372.281 l 399.973 370.184 404.285 367.5 408 363.789 c h
408 363.789 m f
271.469 114.973 m 271.469 158.477 l 292.637 179.648 l 310.184 179.648 l
 374.277 115.551 l 372.18 111.027 369.496 106.715 365.785 102.996 c 362.785
 100.004 l 286.441 100.004 l 278.055 100.004 271.469 106.891 271.469 114.973
 c h
271.469 114.973 m f
365.785 406.004 m 369.496 402.289 372.18 397.977 374.281 393.449 c 310.184
 329.355 l 292.637 329.355 l 271.469 350.527 l 271.469 394.027 l 271.469
 402.113 278.055 408.996 286.441 408.996 c 362.789 408.996 l h
365.785 406.004 m f
441.137 224.562 m 441.137 236.238 436.441 246.719 429.258 254.504 c 436.445
 262.289 441.137 272.766 441.137 284.445 c 441.137 330.852 l 507.504 264.98
 l 513.492 259.293 513.492 249.711 507.504 244.023 c 441.137 178.152 l h
441.137 224.562 m f
220.359 179.648 m 241.527 158.48 l 241.527 114.973 l 241.527 106.891 234.938
 100.004 226.555 100.004 c 150.207 100.004 l 147.207 102.996 l 143.496 106.715
 140.812 111.023 138.715 115.551 c 202.812 179.648 l h
220.359 179.648 m f
256.496 510.004 m 260.391 510.004 264.281 508.508 266.973 505.508 c 332.844
 439.141 l 286.441 439.141 l 274.758 439.141 264.281 434.453 256.496 427.266
 c 248.711 434.453 238.234 439.141 226.555 439.141 c 180.148 439.141 l 246.02
 505.508 l 248.711 508.508 252.602 510.004 256.496 510.004 c h
256.496 510.004 m f
150.207 408.996 m 226.555 408.996 l 234.938 408.996 241.527 402.113 241.527
 394.027 c 241.527 350.527 l 220.359 329.355 l 202.812 329.355 l 138.715
 393.453 l 140.812 397.977 143.496 402.289 147.211 406.008 c h
150.207 408.996 m f
71.859 330.848 m 71.859 284.445 l 71.859 272.766 76.551 262.289 83.734 
254.504 c 76.551 246.719 71.859 236.238 71.859 224.562 c 71.859 178.152 
l 5.488 244.023 l -0.5 249.711 -0.5 259.289 5.488 264.977 c h
71.859 330.848 m f
Q Q
showpage
%%Trailer
end
%%EOF
