%!PS-Adobe-3.0 EPSF-3.0
%%Creator: cairo 1.15.12 (http://cairographics.org)
%%CreationDate: Sun May 26 01:50:03 2019
%%Pages: 1
%%DocumentData: Clean7Bit
%%LanguageLevel: 2
%%BoundingBox: 0 0 384 384
%%EndComments
%%BeginProlog
50 dict begin
/q { gsave } bind def
/Q { grestore } bind def
/cm { 6 array astore concat } bind def
/w { setlinewidth } bind def
/J { setlinecap } bind def
/j { setlinejoin } bind def
/M { setmiterlimit } bind def
/d { setdash } bind def
/m { moveto } bind def
/l { lineto } bind def
/c { curveto } bind def
/h { closepath } bind def
/re { exch dup neg 3 1 roll 5 3 roll moveto 0 rlineto
      0 exch rlineto 0 rlineto closepath } bind def
/S { stroke } bind def
/f { fill } bind def
/f* { eofill } bind def
/n { newpath } bind def
/W { clip } bind def
/W* { eoclip } bind def
/BT { } bind def
/ET { } bind def
/BDC { mark 3 1 roll /BDC pdfmark } bind def
/EMC { mark /EMC pdfmark } bind def
/cairo_store_point { /cairo_point_y exch def /cairo_point_x exch def } def
/Tj { show currentpoint cairo_store_point } bind def
/TJ {
  {
    dup
    type /stringtype eq
    { show } { -0.001 mul 0 cairo_font_matrix dtransform rmoveto } ifelse
  } forall
  currentpoint cairo_store_point
} bind def
/cairo_selectfont { cairo_font_matrix aload pop pop pop 0 0 6 array astore
    cairo_font exch selectfont cairo_point_x cairo_point_y moveto } bind def
/Tf { pop /cairo_font exch def /cairo_font_matrix where
      { pop cairo_selectfont } if } bind def
/Td { matrix translate cairo_font_matrix matrix concatmatrix dup
      /cairo_font_matrix exch def dup 4 get exch 5 get cairo_store_point
      /cairo_font where { pop cairo_selectfont } if } bind def
/Tm { 2 copy 8 2 roll 6 array astore /cairo_font_matrix exch def
      cairo_store_point /cairo_font where { pop cairo_selectfont } if } bind def
/g { setgray } bind def
/rg { setrgbcolor } bind def
/d1 { setcachedevice } bind def
/cairo_data_source {
  CairoDataIndex CairoData length lt
    { CairoData CairoDataIndex get /CairoDataIndex CairoDataIndex 1 add def }
    { () } ifelse
} def
/cairo_flush_ascii85_file { cairo_ascii85_file status { cairo_ascii85_file flushfile } if } def
/cairo_image { image cairo_flush_ascii85_file } def
/cairo_imagemask { imagemask cairo_flush_ascii85_file } def
%%EndProlog
%%BeginSetup
%%EndSetup
%%Page: 1 1
%%BeginPageSetup
%%PageBoundingBox: 0 0 384 384
%%EndPageSetup
q 0 0 384 384 rectclip
1 0 0 -1 0 384 cm q
0 g
372.75 0.004 m 11.25 0.004 l 5.035 0.004 0 5.039 0 11.254 c 0 372.746 l
 0 378.961 5.035 383.996 11.25 383.996 c 372.75 383.996 l 378.965 383.996
 384 378.957 384 372.746 c 384 11.254 l 384 5.039 378.965 0.004 372.75 0.004
 c h
229.074 258.211 m 229.074 177.43 l 309.859 177.43 l 309.859 258.211 l h
258.215 74.145 m 258.215 154.93 l 177.434 154.93 l 177.434 74.145 l h
361.5 125.785 m 361.5 206.57 l 332.359 206.57 l 332.359 125.785 l h
309.859 154.93 m 280.715 154.93 l 280.715 125.785 l 309.859 125.785 l h
206.574 206.57 m 177.434 206.57 l 177.434 177.43 l 206.574 177.43 l h
154.934 103.285 m 125.789 103.285 l 125.789 74.145 l 154.934 74.145 l h
154.934 125.785 m 154.934 206.57 l 74.148 206.57 l 74.148 125.785 l h
22.5 177.43 m 51.641 177.43 l 51.641 258.211 l 22.5 258.211 l h
103.289 258.211 m 74.148 258.211 l 74.148 229.07 l 103.289 229.07 l h
51.641 154.93 m 22.5 154.93 l 22.5 125.785 l 51.641 125.785 l h
125.789 229.07 m 206.574 229.07 l 206.574 309.852 l 125.789 309.852 l h
258.215 309.852 m 229.074 309.852 l 229.074 280.711 l 258.215 280.711 l
 h
332.359 229.07 m 361.5 229.07 l 361.5 258.211 l 332.359 258.211 l h
361.5 103.285 m 280.715 103.285 l 280.715 22.504 l 361.5 22.504 l h
258.215 51.645 m 229.074 51.645 l 229.074 22.504 l 258.215 22.504 l h
125.789 22.496 m 206.574 22.496 l 206.574 51.645 l 125.789 51.645 l h
22.5 22.504 m 103.285 22.504 l 103.285 103.285 l 22.5 103.285 l h
103.285 361.496 m 22.5 361.496 l 22.5 280.715 l 103.285 280.715 l h
125.789 332.352 m 154.934 332.352 l 154.934 361.492 l 125.789 361.492 l
 h
177.434 332.355 m 258.215 332.355 l 258.215 361.492 l 177.434 361.492 l
 h
361.5 361.496 m 280.715 361.496 l 280.715 280.711 l 361.5 280.711 l h
361.5 361.496 m f
Q Q
showpage
%%Trailer
end
%%EOF
