%!PS-Adobe-3.0 EPSF-3.0
%%Creator: cairo 1.15.12 (http://cairographics.org)
%%CreationDate: Sun May 26 01:50:03 2019
%%Pages: 1
%%DocumentData: Clean7Bit
%%LanguageLevel: 2
%%BoundingBox: 0 0 384 384
%%EndComments
%%BeginProlog
50 dict begin
/q { gsave } bind def
/Q { grestore } bind def
/cm { 6 array astore concat } bind def
/w { setlinewidth } bind def
/J { setlinecap } bind def
/j { setlinejoin } bind def
/M { setmiterlimit } bind def
/d { setdash } bind def
/m { moveto } bind def
/l { lineto } bind def
/c { curveto } bind def
/h { closepath } bind def
/re { exch dup neg 3 1 roll 5 3 roll moveto 0 rlineto
      0 exch rlineto 0 rlineto closepath } bind def
/S { stroke } bind def
/f { fill } bind def
/f* { eofill } bind def
/n { newpath } bind def
/W { clip } bind def
/W* { eoclip } bind def
/BT { } bind def
/ET { } bind def
/BDC { mark 3 1 roll /BDC pdfmark } bind def
/EMC { mark /EMC pdfmark } bind def
/cairo_store_point { /cairo_point_y exch def /cairo_point_x exch def } def
/Tj { show currentpoint cairo_store_point } bind def
/TJ {
  {
    dup
    type /stringtype eq
    { show } { -0.001 mul 0 cairo_font_matrix dtransform rmoveto } ifelse
  } forall
  currentpoint cairo_store_point
} bind def
/cairo_selectfont { cairo_font_matrix aload pop pop pop 0 0 6 array astore
    cairo_font exch selectfont cairo_point_x cairo_point_y moveto } bind def
/Tf { pop /cairo_font exch def /cairo_font_matrix where
      { pop cairo_selectfont } if } bind def
/Td { matrix translate cairo_font_matrix matrix concatmatrix dup
      /cairo_font_matrix exch def dup 4 get exch 5 get cairo_store_point
      /cairo_font where { pop cairo_selectfont } if } bind def
/Tm { 2 copy 8 2 roll 6 array astore /cairo_font_matrix exch def
      cairo_store_point /cairo_font where { pop cairo_selectfont } if } bind def
/g { setgray } bind def
/rg { setrgbcolor } bind def
/d1 { setcachedevice } bind def
/cairo_data_source {
  CairoDataIndex CairoData length lt
    { CairoData CairoDataIndex get /CairoDataIndex CairoDataIndex 1 add def }
    { () } ifelse
} def
/cairo_flush_ascii85_file { cairo_ascii85_file status { cairo_ascii85_file flushfile } if } def
/cairo_image { image cairo_flush_ascii85_file } def
/cairo_imagemask { imagemask cairo_flush_ascii85_file } def
%%EndProlog
%%BeginSetup
%%EndSetup
%%Page: 1 1
%%BeginPageSetup
%%PageBoundingBox: 0 0 384 384
%%EndPageSetup
q 0 0 384 384 rectclip
1 0 0 -1 0 384 cm q
0 g
375.652 0 m 8.348 0 l 3.738 0 0 3.738 0 8.348 c 0 375.652 l 0 380.262 3.738
 384 8.348 384 c 375.652 384 l 380.262 384 384 380.262 384 375.652 c 384
 8.348 l 384 3.738 380.262 0 375.652 0 c h
290.773 16.695 m 361.609 16.695 l 330.504 47.801 l 330.504 47.805 330.5
 47.805 330.496 47.809 c 289.176 89.129 l 253.758 53.711 l h
147.504 159.961 m 112.086 195.379 l 70.773 154.059 l 70.762 154.043 70.746
 154.035 70.73 154.02 c 17.648 100.934 l 53.059 65.516 l 94.379 106.836 
l 94.383 106.836 94.383 106.84 94.383 106.84 c h
112.09 100.934 m 147.508 65.516 l 188.828 106.836 l 188.832 106.844 188.84
 106.848 188.844 106.852 c 241.953 159.961 l 206.535 195.379 l h
117.988 213.086 m 159.309 171.766 l 194.727 207.184 l 141.605 260.309 l
 100.281 301.629 l 64.867 266.215 l h
212.438 213.086 m 212.438 213.086 212.441 213.086 212.441 213.082 c 253.758
 171.766 l 289.176 207.184 l 236.051 260.309 l 236.051 260.312 236.047 260.312
 236.047 260.316 c 194.73 301.629 l 159.312 266.211 l h
259.664 154.062 m 259.664 154.059 259.66 154.059 259.66 154.059 c 206.535
 100.934 l 241.953 65.516 l 336.398 159.961 l 300.98 195.375 l h
196.328 16.695 m 267.16 16.695 l 236.062 47.793 l 236.059 47.801 236.055
 47.801 236.051 47.805 c 194.73 89.125 l 159.312 53.711 l h
101.879 16.695 m 172.715 16.695 l 141.602 47.809 l 141.602 47.809 141.602
 47.809 141.598 47.812 c 100.281 89.129 l 64.863 53.711 l h
16.695 16.695 m 78.266 16.695 l 47.156 47.809 l 47.156 47.809 47.152 47.809
 47.152 47.812 c 16.695 78.273 l h
16.695 123.594 m 53.062 159.965 l 16.695 196.332 l h
16.695 219.941 m 64.867 171.77 l 100.281 207.184 l 47.156 260.309 l 47.152
 260.312 47.152 260.312 47.152 260.312 c 17.711 289.762 l 16.695 290.777
 l h
16.695 367.305 m 16.695 336.098 l 47.898 367.305 l h
71.512 367.305 m 17.648 313.434 l 53.062 278.02 l 67.062 292.023 l 94.379
 319.34 l 94.379 319.34 94.383 319.34 94.383 319.344 c 142.344 367.305 l
 h
165.957 367.305 m 112.086 313.434 l 147.504 278.016 l 188.824 319.34 l 
188.828 319.34 188.828 319.344 188.832 319.344 c 236.793 367.305 l h
260.402 367.305 m 206.535 313.434 l 241.953 278.02 l 331.238 367.305 l 
h
367.305 367.305 m 354.852 367.305 l 300.984 313.434 l 336.402 278.016 l
 367.305 308.922 l h
367.305 285.309 m 348.207 266.211 l 367.305 247.117 l h
367.305 223.504 m 330.5 260.309 l 330.5 260.309 330.496 260.309 330.496
 260.309 c 289.176 301.629 l 253.758 266.211 l 306.883 213.086 l 306.883
 213.086 306.883 213.086 306.887 213.086 c 348.203 171.766 l 367.305 190.867
 l h
367.305 167.254 m 354.105 154.059 l 354.105 154.055 354.105 154.055 354.102
 154.055 c 300.984 100.934 l 336.402 65.516 l 367.305 96.418 l h
367.305 72.809 m 348.207 53.711 l 367.305 34.613 l h
367.305 72.809 m f
Q Q
showpage
%%Trailer
end
%%EOF
