%!PS-Adobe-3.0 EPSF-3.0
%%Creator: cairo 1.15.12 (http://cairographics.org)
%%CreationDate: Sun May 26 01:50:03 2019
%%Pages: 1
%%DocumentData: Clean7Bit
%%LanguageLevel: 2
%%BoundingBox: 0 0 384 384
%%EndComments
%%BeginProlog
50 dict begin
/q { gsave } bind def
/Q { grestore } bind def
/cm { 6 array astore concat } bind def
/w { setlinewidth } bind def
/J { setlinecap } bind def
/j { setlinejoin } bind def
/M { setmiterlimit } bind def
/d { setdash } bind def
/m { moveto } bind def
/l { lineto } bind def
/c { curveto } bind def
/h { closepath } bind def
/re { exch dup neg 3 1 roll 5 3 roll moveto 0 rlineto
      0 exch rlineto 0 rlineto closepath } bind def
/S { stroke } bind def
/f { fill } bind def
/f* { eofill } bind def
/n { newpath } bind def
/W { clip } bind def
/W* { eoclip } bind def
/BT { } bind def
/ET { } bind def
/BDC { mark 3 1 roll /BDC pdfmark } bind def
/EMC { mark /EMC pdfmark } bind def
/cairo_store_point { /cairo_point_y exch def /cairo_point_x exch def } def
/Tj { show currentpoint cairo_store_point } bind def
/TJ {
  {
    dup
    type /stringtype eq
    { show } { -0.001 mul 0 cairo_font_matrix dtransform rmoveto } ifelse
  } forall
  currentpoint cairo_store_point
} bind def
/cairo_selectfont { cairo_font_matrix aload pop pop pop 0 0 6 array astore
    cairo_font exch selectfont cairo_point_x cairo_point_y moveto } bind def
/Tf { pop /cairo_font exch def /cairo_font_matrix where
      { pop cairo_selectfont } if } bind def
/Td { matrix translate cairo_font_matrix matrix concatmatrix dup
      /cairo_font_matrix exch def dup 4 get exch 5 get cairo_store_point
      /cairo_font where { pop cairo_selectfont } if } bind def
/Tm { 2 copy 8 2 roll 6 array astore /cairo_font_matrix exch def
      cairo_store_point /cairo_font where { pop cairo_selectfont } if } bind def
/g { setgray } bind def
/rg { setrgbcolor } bind def
/d1 { setcachedevice } bind def
/cairo_data_source {
  CairoDataIndex CairoData length lt
    { CairoData CairoDataIndex get /CairoDataIndex CairoDataIndex 1 add def }
    { () } ifelse
} def
/cairo_flush_ascii85_file { cairo_ascii85_file status { cairo_ascii85_file flushfile } if } def
/cairo_image { image cairo_flush_ascii85_file } def
/cairo_imagemask { imagemask cairo_flush_ascii85_file } def
%%EndProlog
%%BeginSetup
%%EndSetup
%%Page: 1 1
%%BeginPageSetup
%%PageBoundingBox: 0 0 384 384
%%EndPageSetup
q 0 0 384 384 rectclip
1 0 0 -1 0 384 cm q
0 g
202.293 174.219 m 181.723 174.219 l 177.578 174.219 174.223 177.574 174.223
 181.719 c 174.223 202.289 l 174.223 206.43 177.578 209.789 181.723 209.789
 c 202.293 209.789 l 206.434 209.789 209.793 206.43 209.793 202.289 c 209.793
 181.719 l 209.793 177.574 206.434 174.219 202.293 174.219 c h
202.293 174.219 m f
144.223 58.078 m 123.652 58.078 l 119.508 58.078 116.152 61.434 116.152
 65.578 c 116.152 86.148 l 116.152 90.289 119.508 93.648 123.652 93.648 
c 144.223 93.648 l 148.363 93.648 151.723 90.289 151.723 86.148 c 151.723
 65.578 l 151.723 61.434 148.363 58.078 144.223 58.078 c h
144.223 58.078 m f
162.988 325.93 m 202.293 325.93 l 206.434 325.93 209.793 322.57 209.793
 318.43 c 209.793 239.789 l 209.793 235.645 206.434 232.289 202.293 232.289
 c 123.652 232.289 l 119.508 232.289 116.152 235.645 116.152 239.789 c 116.152
 318.426 l 116.152 322.57 119.508 325.926 123.652 325.926 c 162.973 325.926
 l 162.977 325.926 162.98 325.93 162.988 325.93 c h
162.988 325.93 m f
260.363 290.359 m 239.793 290.359 l 235.648 290.359 232.293 293.715 232.293
 297.859 c 232.293 318.43 l 232.293 322.57 235.648 325.93 239.793 325.93
 c 260.363 325.93 l 264.504 325.93 267.863 322.57 267.863 318.43 c 267.863
 297.859 l 267.863 293.715 264.504 290.359 260.363 290.359 c h
260.363 290.359 m f
260.363 151.719 m 264.504 151.719 267.863 148.359 267.863 144.219 c 267.863
 65.578 l 267.863 61.434 264.504 58.078 260.363 58.078 c 181.723 58.078 
l 177.578 58.078 174.223 61.434 174.223 65.578 c 174.223 144.219 l 174.223
 148.359 177.578 151.719 181.723 151.719 c h
260.363 151.719 m f
144.223 209.789 m 148.363 209.789 151.723 206.43 151.723 202.289 c 151.723
 123.648 l 151.723 119.504 148.363 116.148 144.223 116.148 c 65.582 116.148
 l 61.438 116.148 58.082 119.504 58.082 123.648 c 58.082 202.285 l 58.082
 206.43 61.438 209.785 65.582 209.785 c 144.223 209.785 l h
144.223 209.789 m f
355.934 267.859 m 376.496 267.859 l 380.641 267.859 383.996 264.5 383.996
 260.359 c 383.996 239.789 l 383.996 235.645 380.641 232.289 376.496 232.289
 c 355.934 232.289 l 351.793 232.289 348.434 235.645 348.434 239.789 c 348.434
 260.359 l 348.434 264.5 351.793 267.859 355.934 267.859 c h
355.934 267.859 m f
65.582 267.859 m 86.152 267.859 l 90.293 267.859 93.652 264.5 93.652 260.359
 c 93.652 239.789 l 93.652 235.645 90.293 232.289 86.152 232.289 c 65.582
 232.289 l 61.438 232.289 58.082 235.645 58.082 239.789 c 58.082 260.359
 l 58.082 264.5 61.438 267.859 65.582 267.859 c h
65.582 267.859 m f
355.934 116.148 m 351.793 116.148 348.434 119.504 348.434 123.648 c 348.434
 202.289 l 348.434 206.43 351.793 209.789 355.934 209.789 c 376.496 209.789
 l 380.641 209.789 383.996 206.43 383.996 202.289 c 383.996 123.648 l 383.996
 119.504 380.641 116.148 376.496 116.148 c h
355.934 116.148 m f
290.363 86.148 m 290.363 90.289 293.723 93.648 297.863 93.648 c 376.496
 93.648 l 380.641 93.648 383.996 90.289 383.996 86.148 c 383.996 7.5 l 383.996
 3.359 380.641 0 376.496 0 c 297.863 0 l 293.723 0 290.363 3.359 290.363
 7.5 c h
290.363 86.148 m f
318.434 267.859 m 322.578 267.859 325.934 264.5 325.934 260.359 c 325.934
 181.719 l 325.934 177.574 322.578 174.219 318.434 174.219 c 239.793 174.219
 l 235.648 174.219 232.293 177.574 232.293 181.719 c 232.293 260.359 l 232.293
 264.5 235.648 267.859 239.793 267.859 c h
318.434 267.859 m f
28.074 116.148 m 7.504 116.148 l 3.359 116.148 0.004 119.504 0.004 123.648
 c 0.004 144.219 l 0.004 148.359 3.359 151.719 7.504 151.719 c 28.074 151.719
 l 32.219 151.719 35.574 148.359 35.574 144.219 c 35.574 123.648 l 35.574
 119.504 32.219 116.148 28.074 116.148 c h
28.074 116.148 m f
318.434 116.148 m 297.863 116.148 l 293.723 116.148 290.363 119.504 290.363
 123.648 c 290.363 144.219 l 290.363 148.359 293.723 151.719 297.863 151.719
 c 318.434 151.719 l 322.578 151.719 325.934 148.359 325.934 144.219 c 325.934
 123.648 l 325.934 119.504 322.574 116.148 318.434 116.148 c h
318.434 116.148 m f
116.152 355.93 m 116.152 376.5 l 116.152 380.641 119.508 384 123.652 384
 c 144.223 384 l 148.363 384 151.723 380.641 151.723 376.5 c 151.723 355.93
 l 151.723 351.785 148.363 348.43 144.223 348.43 c 123.652 348.43 l 119.508
 348.43 116.152 351.785 116.152 355.93 c h
116.152 355.93 m f
383.996 297.859 m 383.996 293.715 380.641 290.359 376.496 290.359 c 297.863
 290.359 l 293.723 290.359 290.363 293.715 290.363 297.859 c 290.363 376.5
 l 290.363 380.641 293.723 384 297.863 384 c 376.496 384 l 380.641 384 383.996
 380.641 383.996 376.5 c h
383.996 297.859 m f
174.223 355.93 m 174.223 376.5 l 174.223 380.641 177.578 384 181.723 384
 c 260.363 384 l 264.504 384 267.863 380.641 267.863 376.5 c 267.863 355.93
 l 267.863 351.789 264.504 348.43 260.363 348.43 c 181.723 348.43 l 177.578
 348.43 174.223 351.789 174.223 355.93 c h
174.223 355.93 m f
0.004 297.859 m 0.004 376.5 l 0.004 380.641 3.359 384 7.504 384 c 86.145
 384 l 90.289 384 93.645 380.641 93.645 376.5 c 93.645 297.859 l 93.645 
293.719 90.289 290.359 86.145 290.359 c 7.504 290.359 l 3.359 290.359 0.004
 293.719 0.004 297.859 c h
0.004 297.859 m f
28.07 174.219 m 7.504 174.219 l 3.359 174.219 0.004 177.574 0.004 181.719
 c 0.004 260.359 l 0.004 264.5 3.359 267.859 7.504 267.859 c 28.07 267.859
 l 32.215 267.859 35.57 264.5 35.57 260.359 c 35.57 181.719 l 35.57 177.574
 32.215 174.219 28.07 174.219 c h
28.07 174.219 m f
162.973 35.578 m 202.293 35.578 l 206.434 35.578 209.793 32.219 209.793
 28.078 c 209.793 7.5 l 209.793 3.359 206.434 0 202.293 0 c 123.652 0 l 
119.508 0 116.152 3.359 116.152 7.5 c 116.152 28.078 l 116.152 32.219 119.508
 35.578 123.652 35.578 c h
162.973 35.578 m f
267.863 28.078 m 267.863 7.5 l 267.863 3.359 264.504 0 260.363 0 c 239.793
 0 l 235.648 0 232.293 3.359 232.293 7.5 c 232.293 28.078 l 232.293 32.219
 235.648 35.578 239.793 35.578 c 260.363 35.578 l 264.504 35.578 267.863
 32.219 267.863 28.078 c h
267.863 28.078 m f
0.004 86.148 m 0.004 90.289 3.359 93.648 7.504 93.648 c 86.145 93.648 l
 90.289 93.648 93.645 90.289 93.645 86.148 c 93.645 7.5 l 93.645 3.359 90.289
 0 86.145 0 c 7.504 0 l 3.359 0 0.004 3.359 0.004 7.5 c h
0.004 86.148 m f
Q Q
showpage
%%Trailer
end
%%EOF
