%!PS-Adobe-3.0 EPSF-3.0
%%Creator: cairo 1.14.6 (http://cairographics.org)
%%CreationDate: Wed Aug 22 12:01:18 2018
%%Pages: 1
%%DocumentData: Clean7Bit
%%LanguageLevel: 2
%%BoundingBox: 0 68 512 443
%%EndComments
%%BeginProlog
save
50 dict begin
/q { gsave } bind def
/Q { grestore } bind def
/cm { 6 array astore concat } bind def
/w { setlinewidth } bind def
/J { setlinecap } bind def
/j { setlinejoin } bind def
/M { setmiterlimit } bind def
/d { setdash } bind def
/m { moveto } bind def
/l { lineto } bind def
/c { curveto } bind def
/h { closepath } bind def
/re { exch dup neg 3 1 roll 5 3 roll moveto 0 rlineto
      0 exch rlineto 0 rlineto closepath } bind def
/S { stroke } bind def
/f { fill } bind def
/f* { eofill } bind def
/n { newpath } bind def
/W { clip } bind def
/W* { eoclip } bind def
/BT { } bind def
/ET { } bind def
/pdfmark where { pop globaldict /?pdfmark /exec load put }
    { globaldict begin /?pdfmark /pop load def /pdfmark
    /cleartomark load def end } ifelse
/BDC { mark 3 1 roll /BDC pdfmark } bind def
/EMC { mark /EMC pdfmark } bind def
/cairo_store_point { /cairo_point_y exch def /cairo_point_x exch def } def
/Tj { show currentpoint cairo_store_point } bind def
/TJ {
  {
    dup
    type /stringtype eq
    { show } { -0.001 mul 0 cairo_font_matrix dtransform rmoveto } ifelse
  } forall
  currentpoint cairo_store_point
} bind def
/cairo_selectfont { cairo_font_matrix aload pop pop pop 0 0 6 array astore
    cairo_font exch selectfont cairo_point_x cairo_point_y moveto } bind def
/Tf { pop /cairo_font exch def /cairo_font_matrix where
      { pop cairo_selectfont } if } bind def
/Td { matrix translate cairo_font_matrix matrix concatmatrix dup
      /cairo_font_matrix exch def dup 4 get exch 5 get cairo_store_point
      /cairo_font where { pop cairo_selectfont } if } bind def
/Tm { 2 copy 8 2 roll 6 array astore /cairo_font_matrix exch def
      cairo_store_point /cairo_font where { pop cairo_selectfont } if } bind def
/g { setgray } bind def
/rg { setrgbcolor } bind def
/d1 { setcachedevice } bind def
%%EndProlog
%%BeginSetup
%%EndSetup
%%Page: 1 1
%%BeginPageSetup
%%PageBoundingBox: 0 68 512 443
%%EndPageSetup
q 0 68 512 375 rectclip q
0.65098 0.364706 0.317647 rg
458.875 142.977 m 504.5 155.219 l 504.5 275.059 l 504.5 285.566 495.984
 294.082 485.477 294.082 c 123.082 294.082 l 112.574 294.082 104.059 285.566
 104.059 275.059 c 104.059 95.098 l 104.059 84.594 112.574 76.078 123.082
 76.078 c 485.48 76.078 l 495.984 76.078 504.5 84.594 504.5 95.098 c 504.5
 123.305 l h
458.875 142.977 m f
0.4 0.211765 0.184314 rg
394.809 192.496 m 415.316 192.496 431.941 209.121 431.941 229.629 c 431.941
 294.082 l 123.082 294.082 l 112.574 294.082 104.059 285.566 104.059 275.059
 c 104.059 192.496 l h
394.809 192.496 m f
0.917647 0.721569 0.458824 rg
388.922 435.5 m 26.523 435.5 l 16.016 435.5 7.5 426.984 7.5 416.477 c 7.5
 236.516 l 7.5 226.012 16.016 217.496 26.523 217.496 c 388.922 217.496 l
 399.426 217.496 407.941 226.012 407.941 236.516 c 407.941 416.477 l 407.941
 426.984 399.426 435.5 388.922 435.5 c h
388.922 435.5 m f
0 g
485.48 301.582 m 437.941 301.582 l 433.797 301.582 430.441 298.227 430.441
 294.082 c 430.441 289.938 433.797 286.582 437.941 286.582 c 485.48 286.582
 l 491.832 286.582 497 281.414 497 275.059 c 497 256.379 l 471.793 256.379
 l 467.648 256.379 464.293 253.023 464.293 248.879 c 464.293 244.738 467.648
 241.379 471.793 241.379 c 497 241.379 l 497 160.969 l 457.887 150.477 l
 301.316 150.477 l 297.172 150.477 293.816 147.121 293.816 142.977 c 293.816
 138.836 297.172 135.477 301.316 135.477 c 457.328 135.477 l 497 118.371
 l 497 95.102 l 497 88.746 491.832 83.578 485.48 83.578 c 123.082 83.578
 l 116.727 83.578 111.559 88.746 111.559 95.102 c 111.559 164.289 l 198.641
 164.289 l 202.785 164.289 206.141 167.648 206.141 171.789 c 206.141 175.934
 202.785 179.289 198.641 179.289 c 111.559 179.289 l 111.559 187.504 l 111.559
 191.645 108.203 195.004 104.059 195.004 c 99.918 195.004 96.559 191.645
 96.559 187.504 c 96.559 95.102 l 96.559 80.477 108.457 68.578 123.082 68.578
 c 485.48 68.578 l 500.102 68.578 512 80.477 512 95.102 c 512 123.305 l 
512 126.301 510.219 129.008 507.469 130.195 c 481.656 141.324 l 506.445 
147.973 l 509.719 148.855 512 151.824 512 155.219 c 512 275.059 l 512 289.684
 500.102 301.582 485.48 301.582 c h
485.48 301.582 m f
415.441 236.516 m 415.441 416.477 l 415.441 431.102 403.547 443 388.922
 443 c 167.059 443 l 162.914 443 159.559 439.641 159.559 435.5 c 159.559
 431.355 162.914 428 167.059 428 c 216.469 428 l 222.629 419.656 229.676
 408.23 232.434 396.734 c 235.285 384.848 232.855 375.742 225.016 368.891
 c 213.785 359.086 197.465 358.871 188.73 359.605 c 169.754 361.199 150.336
 366.621 131.012 375.719 c 120.508 380.668 110.203 386.348 99.297 392.355
 c 74.012 406.293 47.961 420.645 19.219 425.383 c 21.211 427.016 23.754 
427.996 26.523 427.996 c 137.059 427.996 l 141.199 427.996 144.559 431.355
 144.559 435.496 c 144.559 439.641 141.199 442.996 137.059 442.996 c 26.523
 442.996 l 11.898 442.996 0 431.102 0 416.477 c 0 236.516 l 0 221.891 11.898
 209.996 26.523 209.996 c 388.922 209.996 l 403.543 209.996 415.441 221.891
 415.441 236.516 c h
400.441 416.477 m 400.441 334.902 l 393.719 326.344 386.125 318.383 377.84
 311.203 c 347.742 285.098 308.188 268.551 266.465 264.609 c 202.172 258.562
 134.707 282.547 68.188 278.098 c 49.098 276.812 30.941 273.043 15 267.09
 c 15 301.848 l 21.277 303.09 27.66 304.172 34.047 305.07 c 87.191 312.582
 140.789 308.891 190.789 303.785 c 193.238 303.531 l 208.504 301.961 224.293
 300.34 240.137 301.84 c 259.719 303.699 276.387 310.34 288.328 321.039 
c 312.367 342.574 314.895 376.832 309.25 401.703 c 307.324 410.219 304.375
 418.898 300.312 428 c 388.922 428 l 395.273 428 400.441 422.832 400.441
 416.477 c h
124.621 362.152 m 145.566 352.289 166.715 346.402 187.469 344.66 c 189.996
 344.445 192.48 344.34 194.922 344.34 c 210.977 344.344 224.973 348.941 
234.883 357.594 c 253.312 373.695 253.055 398.918 234.656 428 c 283.738 
428 l 288.922 417.512 292.492 407.789 294.621 398.391 c 300.531 372.355 
294.133 346.379 278.32 332.215 c 266.27 321.414 250.133 317.859 238.719 
316.773 c 224.352 315.41 209.316 316.961 194.773 318.453 c 192.312 318.707
 l 141.371 323.91 86.684 327.656 31.949 319.926 c 26.277 319.125 20.605 
318.188 15 317.129 c 15 410.859 l 41.949 406.836 67.387 392.816 92.059 379.223
 c 102.688 373.363 113.684 367.301 124.621 362.152 c h
15 236.516 m 15 250.953 l 30.746 257.605 49.371 261.801 69.191 263.133 
c 134.707 267.523 200.191 243.316 267.871 249.676 c 312.684 253.91 355.23
 271.734 387.668 299.867 c 392.117 303.723 396.383 307.789 400.441 312.039
 c 400.441 236.516 l 400.441 230.164 395.273 224.996 388.922 224.996 c 26.523
 224.996 l 20.168 224.996 15 230.164 15 236.516 c h
15 236.516 m f
Q Q
showpage
%%Trailer
end restore
%%EOF
