%!PS-Adobe-3.0 EPSF-3.0
%%Creator: cairo 1.14.6 (http://cairographics.org)
%%CreationDate: Wed Aug 22 12:01:48 2018
%%Pages: 1
%%DocumentData: Clean7Bit
%%LanguageLevel: 2
%%BoundingBox: 0 70 512 441
%%EndComments
%%BeginProlog
save
50 dict begin
/q { gsave } bind def
/Q { grestore } bind def
/cm { 6 array astore concat } bind def
/w { setlinewidth } bind def
/J { setlinecap } bind def
/j { setlinejoin } bind def
/M { setmiterlimit } bind def
/d { setdash } bind def
/m { moveto } bind def
/l { lineto } bind def
/c { curveto } bind def
/h { closepath } bind def
/re { exch dup neg 3 1 roll 5 3 roll moveto 0 rlineto
      0 exch rlineto 0 rlineto closepath } bind def
/S { stroke } bind def
/f { fill } bind def
/f* { eofill } bind def
/n { newpath } bind def
/W { clip } bind def
/W* { eoclip } bind def
/BT { } bind def
/ET { } bind def
/pdfmark where { pop globaldict /?pdfmark /exec load put }
    { globaldict begin /?pdfmark /pop load def /pdfmark
    /cleartomark load def end } ifelse
/BDC { mark 3 1 roll /BDC pdfmark } bind def
/EMC { mark /EMC pdfmark } bind def
/cairo_store_point { /cairo_point_y exch def /cairo_point_x exch def } def
/Tj { show currentpoint cairo_store_point } bind def
/TJ {
  {
    dup
    type /stringtype eq
    { show } { -0.001 mul 0 cairo_font_matrix dtransform rmoveto } ifelse
  } forall
  currentpoint cairo_store_point
} bind def
/cairo_selectfont { cairo_font_matrix aload pop pop pop 0 0 6 array astore
    cairo_font exch selectfont cairo_point_x cairo_point_y moveto } bind def
/Tf { pop /cairo_font exch def /cairo_font_matrix where
      { pop cairo_selectfont } if } bind def
/Td { matrix translate cairo_font_matrix matrix concatmatrix dup
      /cairo_font_matrix exch def dup 4 get exch 5 get cairo_store_point
      /cairo_font where { pop cairo_selectfont } if } bind def
/Tm { 2 copy 8 2 roll 6 array astore /cairo_font_matrix exch def
      cairo_store_point /cairo_font where { pop cairo_selectfont } if } bind def
/g { setgray } bind def
/rg { setrgbcolor } bind def
/d1 { setcachedevice } bind def
%%EndProlog
%%BeginSetup
%%EndSetup
%%Page: 1 1
%%BeginPageSetup
%%PageBoundingBox: 0 70 512 441
%%EndPageSetup
q 0 70 512 371 rectclip q
0.65098 0.364706 0.317647 rg
467.863 140.414 m 511.238 152.051 l 511.688 152.172 512 152.582 512 153.047
 c 512 275.715 l 512 286.539 503.227 295.312 492.402 295.312 c 119.066 295.312
 l 108.242 295.312 99.473 286.539 99.473 275.715 c 99.473 90.324 l 99.473
 79.5 108.242 70.727 119.066 70.727 c 492.402 70.727 l 503.227 70.727 512
 79.5 512 90.324 c 512 118.703 l 512 119.113 511.754 119.484 511.379 119.648
 c 467.723 138.473 l 466.824 138.859 466.918 140.16 467.863 140.414 c h
467.863 140.414 m f
0.4 0.211765 0.184314 rg
398.996 190.66 m 420.121 190.66 437.25 207.785 437.25 228.914 c 437.25 
295.312 l 119.066 295.312 l 108.246 295.312 99.473 286.539 99.473 275.715
 c 99.473 190.66 l h
398.996 190.66 m f
0.917647 0.721569 0.458824 rg
392.934 441 m 19.598 441 l 8.773 441 0 432.227 0 421.402 c 0 236.008 l 
0 225.188 8.773 216.414 19.598 216.414 c 392.934 216.414 l 403.754 216.414
 412.527 225.188 412.527 236.008 c 412.527 421.402 l 412.527 432.227 403.754
 441 392.934 441 c h
392.934 441 m f
0.776471 0.552941 0.305882 rg
412.527 322.09 m 412.527 344.781 l 404.512 334.824 389.945 319.953 381.668
 312.781 c 350.625 285.855 309.832 268.793 266.805 264.727 c 234.902 261.727
 203.738 265.582 166.305 270.938 c 163.562 271.332 l 130.625 276.035 96.562
 280.898 62.535 278.621 c 41.457 277.203 17.457 269.848 0 262.703 c 0 246.395
 l 17.531 254.207 43.129 262.281 63.539 263.652 c 96 265.832 129.27 261.078
 161.441 256.48 c 164.18 256.09 l 194.398 251.766 232.004 246.383 268.211
 249.793 c 314.324 254.148 358.109 272.492 391.492 301.445 c 397.102 306.305
 405.16 314.219 412.527 322.09 c h
412.527 322.09 m f
0 416.328 m 30.523 412.871 60.566 396.949 89.664 381.52 c 100.398 375.828
 110.535 370.453 120.75 365.641 c 142.305 355.492 164.062 349.438 185.418
 347.645 c 188.016 347.422 190.566 347.312 193.074 347.316 c 209.559 347.316
 223.926 352.035 234.094 360.91 c 241.781 367.629 245.965 376.551 246.516
 387.422 c 247.062 398.156 243.863 410.801 237.27 423.98 c 234.387 429.738
 230.895 435.504 227.016 441 c 208.074 441 l 220.531 426.289 232.383 404.805
 231.535 388.184 c 231.191 381.434 228.801 376.207 224.227 372.211 c 212.598
 362.059 195.715 361.824 186.68 362.594 c 167.105 364.234 147.074 369.828
 127.141 379.215 c 117.25 383.871 107.266 389.168 96.691 394.773 c 66.832
 410.609 36.016 426.949 3.305 431.051 c 3.105 431.141 2.902 431.219 2.695
 431.289 c 0.992 428.383 0 425.012 0 421.402 c h
0 416.328 m f
296.008 402.816 m 302.113 375.918 295.492 349.074 279.145 334.426 c 266.684
 323.262 250.012 319.582 238.219 318.465 c 223.402 317.059 207.902 318.652
 192.918 320.191 c 190.367 320.453 l 137.902 325.816 81.586 329.68 25.219
 321.711 c 17.152 320.574 6.734 318.516 0 317.117 c 0 301.789 l 8.648 303.629
 19.707 305.789 27.312 306.859 c 82.098 314.598 137.324 310.797 188.844 
305.535 c 191.383 305.273 l 207.094 303.656 223.34 301.988 239.633 303.531
 c 259.762 305.441 276.883 312.262 289.152 323.258 c 299.863 332.852 307.395
 346.195 310.934 361.852 c 314.117 375.938 314.016 391.25 310.637 406.137
 c 308.539 415.402 302.852 429.293 297.469 441 c 280.895 441 l 286.828 428.73
 293.855 412.316 296.008 402.816 c h
296.008 402.816 m f
0.4 0.211765 0.184314 rg
99.473 161.828 m 196.91 161.828 l 201.055 161.828 204.41 165.184 204.41
 169.328 c 204.41 173.473 201.055 176.828 196.91 176.828 c 99.473 176.828
 l h
99.473 161.828 m f
512 256.246 m 478.305 256.246 l 474.16 256.246 470.805 252.891 470.805 
248.746 c 470.805 244.602 474.16 241.246 478.305 241.246 c 512 241.246 l
 h
512 256.246 m f
467.723 138.473 m 466.824 138.859 466.918 140.16 467.863 140.414 c 492.957
 147.148 l 302.684 147.148 l 298.539 147.148 295.184 143.789 295.184 139.648
 c 295.184 135.504 298.539 132.148 302.684 132.148 c 482.395 132.148 l h
467.723 138.473 m f
Q Q
showpage
%%Trailer
end restore
%%EOF
