%!PS-Adobe-3.0 EPSF-3.0
%%Creator: cairo 1.15.12 (http://cairographics.org)
%%CreationDate: Sun May 26 01:50:03 2019
%%Pages: 1
%%DocumentData: Clean7Bit
%%LanguageLevel: 2
%%BoundingBox: 0 68 512 443
%%EndComments
%%BeginProlog
50 dict begin
/q { gsave } bind def
/Q { grestore } bind def
/cm { 6 array astore concat } bind def
/w { setlinewidth } bind def
/J { setlinecap } bind def
/j { setlinejoin } bind def
/M { setmiterlimit } bind def
/d { setdash } bind def
/m { moveto } bind def
/l { lineto } bind def
/c { curveto } bind def
/h { closepath } bind def
/re { exch dup neg 3 1 roll 5 3 roll moveto 0 rlineto
      0 exch rlineto 0 rlineto closepath } bind def
/S { stroke } bind def
/f { fill } bind def
/f* { eofill } bind def
/n { newpath } bind def
/W { clip } bind def
/W* { eoclip } bind def
/BT { } bind def
/ET { } bind def
/BDC { mark 3 1 roll /BDC pdfmark } bind def
/EMC { mark /EMC pdfmark } bind def
/cairo_store_point { /cairo_point_y exch def /cairo_point_x exch def } def
/Tj { show currentpoint cairo_store_point } bind def
/TJ {
  {
    dup
    type /stringtype eq
    { show } { -0.001 mul 0 cairo_font_matrix dtransform rmoveto } ifelse
  } forall
  currentpoint cairo_store_point
} bind def
/cairo_selectfont { cairo_font_matrix aload pop pop pop 0 0 6 array astore
    cairo_font exch selectfont cairo_point_x cairo_point_y moveto } bind def
/Tf { pop /cairo_font exch def /cairo_font_matrix where
      { pop cairo_selectfont } if } bind def
/Td { matrix translate cairo_font_matrix matrix concatmatrix dup
      /cairo_font_matrix exch def dup 4 get exch 5 get cairo_store_point
      /cairo_font where { pop cairo_selectfont } if } bind def
/Tm { 2 copy 8 2 roll 6 array astore /cairo_font_matrix exch def
      cairo_store_point /cairo_font where { pop cairo_selectfont } if } bind def
/g { setgray } bind def
/rg { setrgbcolor } bind def
/d1 { setcachedevice } bind def
/cairo_data_source {
  CairoDataIndex CairoData length lt
    { CairoData CairoDataIndex get /CairoDataIndex CairoDataIndex 1 add def }
    { () } ifelse
} def
/cairo_flush_ascii85_file { cairo_ascii85_file status { cairo_ascii85_file flushfile } if } def
/cairo_image { image cairo_flush_ascii85_file } def
/cairo_imagemask { imagemask cairo_flush_ascii85_file } def
%%EndProlog
%%BeginSetup
%%EndSetup
%%Page: 1 1
%%BeginPageSetup
%%PageBoundingBox: 0 68 512 443
%%EndPageSetup
q 0 68 512 375 rectclip
1 0 0 -1 0 512 cm q
0 g
485.48 210.418 m 437.941 210.418 l 433.797 210.418 430.441 213.773 430.441
 217.918 c 430.441 222.062 433.797 225.418 437.941 225.418 c 485.48 225.418
 l 491.832 225.418 497 230.586 497 236.941 c 497 255.621 l 471.793 255.621
 l 467.648 255.621 464.293 258.977 464.293 263.121 c 464.293 267.262 467.648
 270.621 471.793 270.621 c 497 270.621 l 497 351.031 l 457.887 361.523 l
 301.316 361.523 l 297.172 361.523 293.816 364.879 293.816 369.023 c 293.816
 373.164 297.172 376.523 301.316 376.523 c 457.328 376.523 l 497 393.629
 l 497 416.898 l 497 423.254 491.832 428.422 485.48 428.422 c 123.082 428.422
 l 116.727 428.422 111.559 423.254 111.559 416.898 c 111.559 347.711 l 198.641
 347.711 l 202.785 347.711 206.141 344.352 206.141 340.211 c 206.141 336.066
 202.785 332.711 198.641 332.711 c 111.559 332.711 l 111.559 324.496 l 111.559
 320.355 108.203 316.996 104.059 316.996 c 99.918 316.996 96.559 320.355
 96.559 324.496 c 96.559 416.898 l 96.559 431.523 108.457 443.422 123.082
 443.422 c 485.48 443.422 l 500.102 443.422 512 431.523 512 416.898 c 512
 388.695 l 512 385.699 510.219 382.992 507.469 381.805 c 481.656 370.676
 l 506.445 364.027 l 509.719 363.145 512 360.176 512 356.781 c 512 236.941
 l 512 222.316 500.102 210.418 485.48 210.418 c h
485.48 210.418 m f
415.441 275.484 m 415.441 95.523 l 415.441 80.898 403.547 69 388.922 69
 c 288.457 69 l 288.375 69 288.297 69 288.215 69 c 167.059 69 l 162.914 
69 159.559 72.359 159.559 76.5 c 159.559 80.645 162.914 84 167.059 84 c 
216.469 84 l 222.629 92.344 229.676 103.77 232.434 115.266 c 235.285 127.152
 232.855 136.258 225.016 143.109 c 213.785 152.914 197.465 153.129 188.73
 152.395 c 169.754 150.801 150.336 145.379 131.012 136.281 c 120.508 131.332
 110.203 125.652 99.297 119.645 c 74.012 105.707 47.961 91.355 19.219 86.617
 c 21.211 84.984 23.754 84.004 26.523 84.004 c 137.059 84.004 l 141.199 
84.004 144.559 80.645 144.559 76.504 c 144.559 72.359 141.199 69.004 137.059
 69.004 c 26.523 69.004 l 11.898 69.004 0 80.898 0 95.523 c 0 275.484 l 
0 290.109 11.898 302.004 26.523 302.004 c 388.922 302.004 l 403.543 302.004
 415.441 290.109 415.441 275.484 c h
400.441 95.523 m 400.441 177.098 l 393.719 185.656 386.125 193.617 377.84
 200.797 c 347.742 226.902 308.188 243.449 266.465 247.391 c 202.172 253.438
 134.707 229.453 68.188 233.902 c 49.098 235.188 30.941 238.957 15 244.91
 c 15 210.152 l 21.277 208.91 27.66 207.828 34.047 206.93 c 87.191 199.418
 140.789 203.109 190.789 208.215 c 193.238 208.469 l 208.504 210.039 224.293
 211.66 240.137 210.16 c 259.719 208.301 276.387 201.66 288.328 190.961 
c 312.367 169.426 314.895 135.168 309.25 110.297 c 307.324 101.781 304.375
 93.102 300.312 84 c 388.922 84 l 395.273 84 400.441 89.168 400.441 95.523
 c h
124.621 149.848 m 145.566 159.711 166.715 165.598 187.469 167.34 c 189.996
 167.555 192.48 167.66 194.922 167.66 c 210.977 167.656 224.973 163.059 
234.883 154.406 c 253.312 138.305 253.055 113.082 234.656 84 c 283.738 84
 l 288.922 94.488 292.492 104.211 294.621 113.609 c 300.531 139.645 294.133
 165.621 278.32 179.785 c 266.27 190.586 250.133 194.141 238.719 195.227
 c 224.352 196.59 209.316 195.039 194.773 193.547 c 192.312 193.293 l 141.371
 188.09 86.684 184.344 31.949 192.074 c 26.277 192.875 20.605 193.812 15
 194.871 c 15 101.141 l 41.949 105.164 67.387 119.184 92.059 132.777 c 102.688
 138.637 113.684 144.699 124.621 149.848 c h
15 275.484 m 15 261.047 l 30.746 254.395 49.371 250.199 69.191 248.867 
c 134.707 244.477 200.191 268.684 267.871 262.324 c 312.684 258.09 355.23
 240.266 387.668 212.133 c 392.117 208.277 396.383 204.211 400.441 199.961
 c 400.441 275.484 l 400.441 281.836 395.273 287.004 388.922 287.004 c 26.523
 287.004 l 20.168 287.004 15 281.836 15 275.484 c h
15 275.484 m f
Q Q
showpage
%%Trailer
end
%%EOF
