%!PS-Adobe-3.0 EPSF-3.0
%%Creator: cairo 1.15.12 (http://cairographics.org)
%%CreationDate: Sun May 26 01:50:03 2019
%%Pages: 1
%%DocumentData: Clean7Bit
%%LanguageLevel: 2
%%BoundingBox: 33 0 479 512
%%EndComments
%%BeginProlog
50 dict begin
/q { gsave } bind def
/Q { grestore } bind def
/cm { 6 array astore concat } bind def
/w { setlinewidth } bind def
/J { setlinecap } bind def
/j { setlinejoin } bind def
/M { setmiterlimit } bind def
/d { setdash } bind def
/m { moveto } bind def
/l { lineto } bind def
/c { curveto } bind def
/h { closepath } bind def
/re { exch dup neg 3 1 roll 5 3 roll moveto 0 rlineto
      0 exch rlineto 0 rlineto closepath } bind def
/S { stroke } bind def
/f { fill } bind def
/f* { eofill } bind def
/n { newpath } bind def
/W { clip } bind def
/W* { eoclip } bind def
/BT { } bind def
/ET { } bind def
/BDC { mark 3 1 roll /BDC pdfmark } bind def
/EMC { mark /EMC pdfmark } bind def
/cairo_store_point { /cairo_point_y exch def /cairo_point_x exch def } def
/Tj { show currentpoint cairo_store_point } bind def
/TJ {
  {
    dup
    type /stringtype eq
    { show } { -0.001 mul 0 cairo_font_matrix dtransform rmoveto } ifelse
  } forall
  currentpoint cairo_store_point
} bind def
/cairo_selectfont { cairo_font_matrix aload pop pop pop 0 0 6 array astore
    cairo_font exch selectfont cairo_point_x cairo_point_y moveto } bind def
/Tf { pop /cairo_font exch def /cairo_font_matrix where
      { pop cairo_selectfont } if } bind def
/Td { matrix translate cairo_font_matrix matrix concatmatrix dup
      /cairo_font_matrix exch def dup 4 get exch 5 get cairo_store_point
      /cairo_font where { pop cairo_selectfont } if } bind def
/Tm { 2 copy 8 2 roll 6 array astore /cairo_font_matrix exch def
      cairo_store_point /cairo_font where { pop cairo_selectfont } if } bind def
/g { setgray } bind def
/rg { setrgbcolor } bind def
/d1 { setcachedevice } bind def
/cairo_data_source {
  CairoDataIndex CairoData length lt
    { CairoData CairoDataIndex get /CairoDataIndex CairoDataIndex 1 add def }
    { () } ifelse
} def
/cairo_flush_ascii85_file { cairo_ascii85_file status { cairo_ascii85_file flushfile } if } def
/cairo_image { image cairo_flush_ascii85_file } def
/cairo_imagemask { imagemask cairo_flush_ascii85_file } def
%%EndProlog
%%BeginSetup
%%EndSetup
%%Page: 1 1
%%BeginPageSetup
%%PageBoundingBox: 33 0 479 512
%%EndPageSetup
q 33 0 446 512 rectclip
1 0 0 -1 0 512 cm q
0 g
470.848 417.508 m 405.941 417.508 l 405.941 345.512 l 405.941 341.371 402.582
 338.012 398.441 338.012 c 286.59 338.012 l 286.59 222.672 l 286.59 218.531
 283.234 215.172 279.09 215.172 c 274.949 215.172 271.59 218.531 271.59 
222.672 c 271.59 338.012 l 207.098 338.012 l 207.098 154.168 l 271.59 154.168
 l 271.59 192.672 l 271.59 196.812 274.949 200.172 279.09 200.172 c 283.234
 200.172 286.59 196.812 286.59 192.672 c 286.59 146.668 l 286.59 142.523
 283.234 139.168 279.09 139.168 c 40.5 139.168 l 36.355 139.168 33 142.523
 33 146.668 c 33.004 153.754 33.098 366.73 33.109 398.328 c 33.109 402.473
 36.469 405.828 40.609 405.828 c 44.754 405.828 48.109 402.473 48.109 398.328
 c 48.109 313.156 l 112.602 313.156 l 112.602 497 l 48.109 497 l 48.109 
428.328 l 48.109 424.184 44.754 420.828 40.609 420.828 c 36.469 420.828 
33.109 424.184 33.109 428.328 c 33.109 504.5 l 33.109 508.645 36.469 512
 40.609 512 c 470.848 512 l 474.992 512 478.348 508.645 478.348 504.5 c 
478.348 425.008 l 478.348 420.863 474.992 417.508 470.848 417.508 c h
390.941 353.012 m 390.941 417.508 l 207.098 417.508 l 207.098 353.012 l
 h
127.602 417.508 m 127.602 233.664 l 192.098 233.664 l 192.098 417.508 l
 h
48 154.168 m 192.098 154.168 l 192.098 218.664 l 48 218.664 l h
48 298.156 m 48 233.664 l 112.605 233.664 l 112.605 298.156 l h
127.602 432.508 m 311.449 432.508 l 311.449 497 l 127.602 497 l h
463.348 497 m 326.449 497 l 326.449 432.508 l 463.348 432.508 l h
463.348 497 m f
470.848 0 m 272.004 0 l 267.863 0 264.504 3.355 264.504 7.5 c 264.504 86.992
 l 264.504 91.137 267.863 94.492 272.004 94.492 c 383.855 94.492 l 383.855
 285.836 l 383.855 289.98 387.211 293.336 391.355 293.336 c 470.848 293.336
 l 474.992 293.336 478.348 289.98 478.348 285.836 c 478.348 7.5 l 478.348
 3.355 474.992 0 470.848 0 c h
279.504 15 m 463.348 15 l 463.348 79.492 l 279.504 79.492 l h
463.348 278.336 m 398.855 278.336 l 398.855 94.492 l 463.348 94.492 l h
463.348 278.336 m f
Q Q
showpage
%%Trailer
end
%%EOF
