%!PS-Adobe-3.0 EPSF-3.0
%%Creator: cairo 1.15.12 (http://cairographics.org)
%%CreationDate: Sun May 26 01:50:03 2019
%%Pages: 1
%%DocumentData: Clean7Bit
%%LanguageLevel: 2
%%BoundingBox: 0 0 512 512
%%EndComments
%%BeginProlog
50 dict begin
/q { gsave } bind def
/Q { grestore } bind def
/cm { 6 array astore concat } bind def
/w { setlinewidth } bind def
/J { setlinecap } bind def
/j { setlinejoin } bind def
/M { setmiterlimit } bind def
/d { setdash } bind def
/m { moveto } bind def
/l { lineto } bind def
/c { curveto } bind def
/h { closepath } bind def
/re { exch dup neg 3 1 roll 5 3 roll moveto 0 rlineto
      0 exch rlineto 0 rlineto closepath } bind def
/S { stroke } bind def
/f { fill } bind def
/f* { eofill } bind def
/n { newpath } bind def
/W { clip } bind def
/W* { eoclip } bind def
/BT { } bind def
/ET { } bind def
/BDC { mark 3 1 roll /BDC pdfmark } bind def
/EMC { mark /EMC pdfmark } bind def
/cairo_store_point { /cairo_point_y exch def /cairo_point_x exch def } def
/Tj { show currentpoint cairo_store_point } bind def
/TJ {
  {
    dup
    type /stringtype eq
    { show } { -0.001 mul 0 cairo_font_matrix dtransform rmoveto } ifelse
  } forall
  currentpoint cairo_store_point
} bind def
/cairo_selectfont { cairo_font_matrix aload pop pop pop 0 0 6 array astore
    cairo_font exch selectfont cairo_point_x cairo_point_y moveto } bind def
/Tf { pop /cairo_font exch def /cairo_font_matrix where
      { pop cairo_selectfont } if } bind def
/Td { matrix translate cairo_font_matrix matrix concatmatrix dup
      /cairo_font_matrix exch def dup 4 get exch 5 get cairo_store_point
      /cairo_font where { pop cairo_selectfont } if } bind def
/Tm { 2 copy 8 2 roll 6 array astore /cairo_font_matrix exch def
      cairo_store_point /cairo_font where { pop cairo_selectfont } if } bind def
/g { setgray } bind def
/rg { setrgbcolor } bind def
/d1 { setcachedevice } bind def
/cairo_data_source {
  CairoDataIndex CairoData length lt
    { CairoData CairoDataIndex get /CairoDataIndex CairoDataIndex 1 add def }
    { () } ifelse
} def
/cairo_flush_ascii85_file { cairo_ascii85_file status { cairo_ascii85_file flushfile } if } def
/cairo_image { image cairo_flush_ascii85_file } def
/cairo_imagemask { imagemask cairo_flush_ascii85_file } def
%%EndProlog
%%BeginSetup
%%EndSetup
%%Page: 1 1
%%BeginPageSetup
%%PageBoundingBox: 0 0 512 512
%%EndPageSetup
q 0 0 512 512 rectclip
1 0 0 -1 0 512 cm q
0 g
421.242 220.289 m 419.211 214.148 413.469 210 407 210 c 105 210 l 98.531
 210 92.793 214.148 90.758 220.289 c 0.758 492.289 l -0.754 496.859 0.02
 501.879 2.84 505.785 c 5.66 509.688 10.184 512 15 512 c 497 512 l 501.816
 512 506.34 509.688 509.16 505.785 c 511.98 501.879 512.754 496.859 511.242
 492.289 c h
426.273 331 m 271 331 l 271 240 l 396.164 240 l h
115.836 240 m 241 240 l 241 331 l 85.727 331 l h
75.801 361 m 241 361 l 241 482 l 35.762 482 l h
271 482 m 271 361 l 436.199 361 l 476.238 482 l h
271 482 m f
331 135 m 331 143.285 337.715 150 346 150 c 354.285 150 361 143.285 361
 135 c 361 110.188 381.188 90 406 90 c 414.285 90 421 83.285 421 75 c 421
 66.715 414.285 60 406 60 c 381.188 60 361 39.812 361 15 c 361 6.715 354.285
 0 346 0 c 337.715 0 331 6.715 331 15 c 331 39.812 310.812 60 286 60 c 277.715
 60 271 66.715 271 75 c 271 83.285 277.715 90 286 90 c 310.812 90 331 110.188
 331 135 c h
346 59.953 m 350.281 65.652 355.352 70.723 361.047 75 c 355.348 79.281 
350.281 84.352 346 90.047 c 341.723 84.348 336.652 79.281 330.953 75 c 336.652
 70.723 341.723 65.652 346 59.953 c h
346 59.953 m f
106 120 m 130.812 120 151 140.188 151 165 c 151 173.285 157.715 180 166
 180 c 174.285 180 181 173.285 181 165 c 181 140.188 201.188 120 226 120
 c 234.285 120 241 113.285 241 105 c 241 96.715 234.285 90 226 90 c 201.188
 90 181 69.812 181 45 c 181 36.715 174.285 30 166 30 c 157.715 30 151 36.715
 151 45 c 151 69.812 130.812 90 106 90 c 97.715 90 91 96.715 91 105 c 91
 113.285 97.715 120 106 120 c h
166 89.953 m 170.281 95.652 175.352 100.723 181.047 105 c 175.348 109.281
 170.281 114.352 166 120.047 c 161.723 114.348 156.652 109.281 150.953 105
 c 156.652 100.723 161.723 95.652 166 89.953 c h
166 89.953 m f
Q Q
showpage
%%Trailer
end
%%EOF
