%!PS-Adobe-3.0 EPSF-3.0
%%Creator: cairo 1.15.12 (http://cairographics.org)
%%CreationDate: Sun May 26 01:50:03 2019
%%Pages: 1
%%DocumentData: Clean7Bit
%%LanguageLevel: 2
%%BoundingBox: 0 0 512 512
%%EndComments
%%BeginProlog
50 dict begin
/q { gsave } bind def
/Q { grestore } bind def
/cm { 6 array astore concat } bind def
/w { setlinewidth } bind def
/J { setlinecap } bind def
/j { setlinejoin } bind def
/M { setmiterlimit } bind def
/d { setdash } bind def
/m { moveto } bind def
/l { lineto } bind def
/c { curveto } bind def
/h { closepath } bind def
/re { exch dup neg 3 1 roll 5 3 roll moveto 0 rlineto
      0 exch rlineto 0 rlineto closepath } bind def
/S { stroke } bind def
/f { fill } bind def
/f* { eofill } bind def
/n { newpath } bind def
/W { clip } bind def
/W* { eoclip } bind def
/BT { } bind def
/ET { } bind def
/BDC { mark 3 1 roll /BDC pdfmark } bind def
/EMC { mark /EMC pdfmark } bind def
/cairo_store_point { /cairo_point_y exch def /cairo_point_x exch def } def
/Tj { show currentpoint cairo_store_point } bind def
/TJ {
  {
    dup
    type /stringtype eq
    { show } { -0.001 mul 0 cairo_font_matrix dtransform rmoveto } ifelse
  } forall
  currentpoint cairo_store_point
} bind def
/cairo_selectfont { cairo_font_matrix aload pop pop pop 0 0 6 array astore
    cairo_font exch selectfont cairo_point_x cairo_point_y moveto } bind def
/Tf { pop /cairo_font exch def /cairo_font_matrix where
      { pop cairo_selectfont } if } bind def
/Td { matrix translate cairo_font_matrix matrix concatmatrix dup
      /cairo_font_matrix exch def dup 4 get exch 5 get cairo_store_point
      /cairo_font where { pop cairo_selectfont } if } bind def
/Tm { 2 copy 8 2 roll 6 array astore /cairo_font_matrix exch def
      cairo_store_point /cairo_font where { pop cairo_selectfont } if } bind def
/g { setgray } bind def
/rg { setrgbcolor } bind def
/d1 { setcachedevice } bind def
/cairo_data_source {
  CairoDataIndex CairoData length lt
    { CairoData CairoDataIndex get /CairoDataIndex CairoDataIndex 1 add def }
    { () } ifelse
} def
/cairo_flush_ascii85_file { cairo_ascii85_file status { cairo_ascii85_file flushfile } if } def
/cairo_image { image cairo_flush_ascii85_file } def
/cairo_imagemask { imagemask cairo_flush_ascii85_file } def
%%EndProlog
%%BeginSetup
%%EndSetup
%%Page: 1 1
%%BeginPageSetup
%%PageBoundingBox: 0 0 512 512
%%EndPageSetup
q 0 0 512 512 rectclip
1 0 0 -1 0 512 cm q
0 g
71 332.547 m 71 426 l 71 434.285 77.715 441 86 441 c 179.453 441 l 245.34
 507.555 l 248.156 510.398 251.996 512 256 512 c 260.004 512 263.844 510.398
 266.66 507.555 c 332.547 441 l 426 441 l 434.285 441 441 434.285 441 426
 c 441 332.547 l 507.555 266.66 l 510.398 263.844 512 260.004 512 256 c 
512 251.996 510.398 248.156 507.555 245.34 c 441 179.453 l 441 86 l 441 
77.715 434.285 71 426 71 c 332.547 71 l 266.66 4.445 l 263.844 1.602 260.004
 0 256 0 c 251.996 0 248.156 1.602 245.34 4.445 c 179.453 71 l 86 71 l 77.715
 71 71 77.715 71 86 c 71 179.453 l 4.445 245.34 l 1.602 248.156 0 251.996
 0 256 c 0 260.004 1.602 263.844 4.445 266.66 c h
101 411 m 101 362.246 l 104.18 365.395 l 112.316 373.531 122.82 377.895
 133.492 378.484 c 134.094 389.57 138.691 399.906 146.555 407.766 c 149.754
 411 l h
167.871 125.34 m 191.969 101 l 226 101 l 234.27 101 241 107.859 241 116.293
 c 241 159.785 l 219.785 181 l 202.215 181 l 167.82 146.605 l 161.973 140.758
 161.973 131.242 167.871 125.34 c h
344.18 125.395 m 350.031 131.242 350.031 140.758 344.18 146.605 c 309.785
 181 l 292.215 181 l 271 159.785 l 271 116.293 l 271 107.859 277.73 101 
286 101 c 320.031 101 l h
344.129 386.66 m 320.031 411 l 286 411 l 277.73 411 271 404.141 271 395.707
 c 271 352.215 l 292.215 331 l 309.785 331 l 344.18 365.395 l 347.016 368.227
 348.574 371.992 348.574 376 c 348.574 380.008 347.016 383.773 344.129 386.66
 c h
167.82 386.605 m 164.984 383.773 163.426 380.008 163.426 376 c 163.426 
371.992 164.984 368.227 167.82 365.395 c 202.215 331 l 219.785 331 l 241
 352.215 l 241 395.703 l 241 404.137 234.27 411 226 411 c 191.969 411 l 
h
256 187.215 m 275.395 206.605 l 278.207 209.422 282.02 211 286 211 c 301
 211 l 301 226 l 301 229.977 302.578 233.793 305.395 236.605 c 324.785 256
 l 305.395 275.395 l 302.578 278.207 301 282.023 301 286 c 301 301 l 286
 301 l 282.02 301 278.207 302.578 275.395 305.395 c 256 324.785 l 236.605
 305.395 l 233.793 302.578 229.98 301 226 301 c 211 301 l 211 286 l 211 
282.023 209.422 278.207 206.605 275.395 c 187.215 256 l 206.605 236.605 
l 209.422 233.793 211 229.977 211 226 c 211 211 l 226 211 l 229.98 211 233.793
 209.422 236.605 206.605 c h
331 309.785 m 331 292.215 l 352.215 271 l 395.707 271 l 404.141 271 411
 277.73 411 286 c 411 320.031 l 386.605 344.18 l 380.758 350.027 371.242
 350.027 365.395 344.18 c h
411 226 m 411 234.27 404.141 241 395.707 241 c 352.215 241 l 331 219.785
 l 331 202.215 l 365.395 167.82 l 371.242 161.973 380.758 161.973 386.66
 167.871 c 411 191.969 l h
181 202.215 m 181 219.785 l 159.785 241 l 116.293 241 l 107.859 241 101
 234.27 101 226 c 101 191.969 l 125.395 167.82 l 131.242 161.973 140.758
 161.973 146.605 167.82 c h
101 286 m 101 277.73 107.859 271 116.293 271 c 159.785 271 l 181 292.215
 l 181 309.785 l 146.605 344.18 l 140.758 350.027 131.242 350.027 125.34
 344.129 c 101 320.031 l h
256 475.68 m 221.668 441 l 226 441 l 237.516 441 248.031 436.617 256 429.43
 c 263.969 436.617 274.484 441 286 441 c 290.332 441 l h
411 411 m 362.246 411 l 365.395 407.82 l 373.305 399.91 377.906 389.574
 378.508 378.492 c 389.168 377.906 399.656 373.555 407.766 365.445 c 411
 362.246 l h
475.68 256 m 441 290.332 l 441 286 l 441 274.484 436.617 263.969 429.43
 256 c 436.617 248.031 441 237.516 441 226 c 441 221.668 l h
411 101 m 411 149.754 l 407.82 146.605 l 399.914 138.699 389.582 134.098
 378.508 133.492 c 377.902 122.414 373.305 112.09 365.445 104.234 c 362.246
 101 l h
256 36.32 m 290.332 71 l 286 71 l 274.484 71 263.969 75.375 256 82.562 
c 248.031 75.375 237.516 71 226 71 c 221.668 71 l h
101 101 m 149.754 101 l 146.605 104.18 l 138.699 112.086 134.098 122.414
 133.496 133.492 c 122.418 134.098 112.09 138.695 104.234 146.555 c 101 
149.754 l h
71 221.668 m 71 226 l 71 237.516 75.383 248.031 82.57 256 c 75.383 263.969
 71 274.484 71 286 c 71 290.332 l 36.32 256 l h
71 221.668 m f
Q Q
showpage
%%Trailer
end
%%EOF
