%!PS-Adobe-3.0 EPSF-3.0
%%Creator: cairo 1.15.12 (http://cairographics.org)
%%CreationDate: Sun May 26 01:50:03 2019
%%Pages: 1
%%DocumentData: Clean7Bit
%%LanguageLevel: 2
%%BoundingBox: 12 42 372 342
%%EndComments
%%BeginProlog
50 dict begin
/q { gsave } bind def
/Q { grestore } bind def
/cm { 6 array astore concat } bind def
/w { setlinewidth } bind def
/J { setlinecap } bind def
/j { setlinejoin } bind def
/M { setmiterlimit } bind def
/d { setdash } bind def
/m { moveto } bind def
/l { lineto } bind def
/c { curveto } bind def
/h { closepath } bind def
/re { exch dup neg 3 1 roll 5 3 roll moveto 0 rlineto
      0 exch rlineto 0 rlineto closepath } bind def
/S { stroke } bind def
/f { fill } bind def
/f* { eofill } bind def
/n { newpath } bind def
/W { clip } bind def
/W* { eoclip } bind def
/BT { } bind def
/ET { } bind def
/BDC { mark 3 1 roll /BDC pdfmark } bind def
/EMC { mark /EMC pdfmark } bind def
/cairo_store_point { /cairo_point_y exch def /cairo_point_x exch def } def
/Tj { show currentpoint cairo_store_point } bind def
/TJ {
  {
    dup
    type /stringtype eq
    { show } { -0.001 mul 0 cairo_font_matrix dtransform rmoveto } ifelse
  } forall
  currentpoint cairo_store_point
} bind def
/cairo_selectfont { cairo_font_matrix aload pop pop pop 0 0 6 array astore
    cairo_font exch selectfont cairo_point_x cairo_point_y moveto } bind def
/Tf { pop /cairo_font exch def /cairo_font_matrix where
      { pop cairo_selectfont } if } bind def
/Td { matrix translate cairo_font_matrix matrix concatmatrix dup
      /cairo_font_matrix exch def dup 4 get exch 5 get cairo_store_point
      /cairo_font where { pop cairo_selectfont } if } bind def
/Tm { 2 copy 8 2 roll 6 array astore /cairo_font_matrix exch def
      cairo_store_point /cairo_font where { pop cairo_selectfont } if } bind def
/g { setgray } bind def
/rg { setrgbcolor } bind def
/d1 { setcachedevice } bind def
/cairo_data_source {
  CairoDataIndex CairoData length lt
    { CairoData CairoDataIndex get /CairoDataIndex CairoDataIndex 1 add def }
    { () } ifelse
} def
/cairo_flush_ascii85_file { cairo_ascii85_file status { cairo_ascii85_file flushfile } if } def
/cairo_image { image cairo_flush_ascii85_file } def
/cairo_imagemask { imagemask cairo_flush_ascii85_file } def
%%EndProlog
%%BeginSetup
%%EndSetup
%%Page: 1 1
%%BeginPageSetup
%%PageBoundingBox: 12 42 372 342
%%EndPageSetup
q 12 42 360 300 rectclip
1 0 0 -1 0 384 cm q
0 g
366 42 m 18 42 l 14.688 42 12 44.688 12 48 c 12 336 l 12 339.312 14.688
 342 18 342 c 366 342 l 369.312 342 372 339.312 372 336 c 372 48 l 372 44.688
 369.312 42 366 42 c h
300 54 m 324 54 l 324 186 l 300 186 l h
264 54 m 288 54 l 288 186 l 264 186 l h
228 54 m 252 54 l 252 186 l 228 186 l h
24 54 m 180 54 l 180 78 l 24 78 l h
24 90 m 180 90 l 180 114 l 24 114 l h
24 126 m 180 126 l 180 150 l 24 150 l h
48 330 m 24 330 l 24 198 l 48 198 l h
84 330 m 60 330 l 60 198 l 84 198 l h
120 330 m 96 330 l 96 198 l 120 198 l h
156 330 m 132 330 l 132 198 l 156 198 l h
24 186 m 24 162 l 180 162 l 180 186 l h
192 330 m 168 330 l 168 198 l 192 198 l h
192 186 m 192 54 l 216 54 l 216 186 l h
360 330 m 204 330 l 204 306 l 360 306 l h
360 294 m 204 294 l 204 270 l 360 270 l h
360 258 m 204 258 l 204 234 l 360 234 l h
360 222 m 204 222 l 204 198 l 360 198 l h
360 186 m 336 186 l 336 54 l 360 54 l h
360 186 m f
Q Q
showpage
%%Trailer
end
%%EOF
