%!PS-Adobe-3.0 EPSF-3.0
%%Creator: cairo 1.15.12 (http://cairographics.org)
%%CreationDate: Sun May 26 01:50:03 2019
%%Pages: 1
%%DocumentData: Clean7Bit
%%LanguageLevel: 2
%%BoundingBox: 29 1 355 385
%%EndComments
%%BeginProlog
50 dict begin
/q { gsave } bind def
/Q { grestore } bind def
/cm { 6 array astore concat } bind def
/w { setlinewidth } bind def
/J { setlinecap } bind def
/j { setlinejoin } bind def
/M { setmiterlimit } bind def
/d { setdash } bind def
/m { moveto } bind def
/l { lineto } bind def
/c { curveto } bind def
/h { closepath } bind def
/re { exch dup neg 3 1 roll 5 3 roll moveto 0 rlineto
      0 exch rlineto 0 rlineto closepath } bind def
/S { stroke } bind def
/f { fill } bind def
/f* { eofill } bind def
/n { newpath } bind def
/W { clip } bind def
/W* { eoclip } bind def
/BT { } bind def
/ET { } bind def
/BDC { mark 3 1 roll /BDC pdfmark } bind def
/EMC { mark /EMC pdfmark } bind def
/cairo_store_point { /cairo_point_y exch def /cairo_point_x exch def } def
/Tj { show currentpoint cairo_store_point } bind def
/TJ {
  {
    dup
    type /stringtype eq
    { show } { -0.001 mul 0 cairo_font_matrix dtransform rmoveto } ifelse
  } forall
  currentpoint cairo_store_point
} bind def
/cairo_selectfont { cairo_font_matrix aload pop pop pop 0 0 6 array astore
    cairo_font exch selectfont cairo_point_x cairo_point_y moveto } bind def
/Tf { pop /cairo_font exch def /cairo_font_matrix where
      { pop cairo_selectfont } if } bind def
/Td { matrix translate cairo_font_matrix matrix concatmatrix dup
      /cairo_font_matrix exch def dup 4 get exch 5 get cairo_store_point
      /cairo_font where { pop cairo_selectfont } if } bind def
/Tm { 2 copy 8 2 roll 6 array astore /cairo_font_matrix exch def
      cairo_store_point /cairo_font where { pop cairo_selectfont } if } bind def
/g { setgray } bind def
/rg { setrgbcolor } bind def
/d1 { setcachedevice } bind def
/cairo_data_source {
  CairoDataIndex CairoData length lt
    { CairoData CairoDataIndex get /CairoDataIndex CairoDataIndex 1 add def }
    { () } ifelse
} def
/cairo_flush_ascii85_file { cairo_ascii85_file status { cairo_ascii85_file flushfile } if } def
/cairo_image { image cairo_flush_ascii85_file } def
/cairo_imagemask { imagemask cairo_flush_ascii85_file } def
%%EndProlog
%%BeginSetup
%%EndSetup
%%Page: 1 1
%%BeginPageSetup
%%PageBoundingBox: 29 1 355 385
%%EndPageSetup
q 29 1 326 384 rectclip
1 0 0 -1 0 385 cm q
0 g
352.586 279.164 m 327.512 254.09 l 352.594 229.008 l 355.582 226.02 355.582
 221.176 352.594 218.188 c 326.945 192.543 l 351.977 167.512 l 354.965 164.523
 354.965 159.68 351.977 156.691 c 197.527 2.242 l 194.539 -0.746 189.695
 -0.746 186.707 2.242 c 31.859 157.09 l 30.422 158.523 29.617 160.473 29.617
 162.5 c 29.617 164.527 30.422 166.477 31.859 167.91 c 56.855 192.906 l 
31.781 217.984 l 28.793 220.973 28.793 225.816 31.781 228.801 c 56.77 253.789
 l 31.406 279.148 l 28.418 282.137 28.418 286.98 31.406 289.969 c 56.855
 315.418 l 31.781 340.496 l 28.793 343.48 28.793 348.324 31.781 351.312 
c 62.227 381.762 l 63.723 383.254 65.68 384 67.637 384 c 69.594 384 71.551
 383.254 73.047 381.762 c 192.137 262.668 l 310.527 381.059 l 311.961 382.492
 313.906 383.297 315.938 383.297 c 317.965 383.297 319.91 382.492 321.344
 381.059 c 351.738 350.664 l 354.727 347.676 354.727 342.832 351.738 339.844
 c 327.234 315.34 l 352.586 289.984 l 355.574 286.996 355.574 282.152 352.586
 279.164 c h
336.367 223.598 m 316.695 243.27 l 202.809 129.387 l 222.48 109.711 l h
335.75 162.102 m 316.129 181.723 l 202.902 68.496 l 222.523 48.875 l h
48.086 162.5 m 192.117 18.469 l 211.707 38.059 l 67.676 182.09 l h
48.008 223.395 m 192.086 79.316 l 211.664 98.895 l 67.586 242.973 l h
47.633 284.559 m 191.992 140.203 l 212.031 160.246 l 67.676 304.602 l h
67.637 365.531 m 48.008 345.906 l 192.086 201.828 l 211.715 221.453 l h
335.512 345.254 m 315.938 364.828 l 202.957 251.848 l 222.535 232.273 l
 h
316.414 304.52 m 202.902 191.008 l 222.848 171.062 l 336.359 284.574 l 
h
316.414 304.52 m f
322.094 156.758 m 285.758 120.422 l 282.773 117.438 277.93 117.438 274.941
 120.422 c 271.953 123.41 271.953 128.254 274.941 131.242 c 311.277 167.578
 l 312.77 169.07 314.727 169.816 316.684 169.816 c 318.645 169.816 320.602
 169.07 322.094 167.578 c 325.082 164.59 325.082 159.746 322.094 156.758
 c h
322.094 156.758 m f
269.312 103.977 m 265.727 100.391 l 262.742 97.406 257.898 97.406 254.91
 100.391 c 251.922 103.379 251.922 108.223 254.91 111.211 c 258.496 114.797
 l 259.988 116.289 261.945 117.035 263.906 117.035 c 265.863 117.035 267.82
 116.289 269.312 114.797 c 272.301 111.809 272.301 106.965 269.312 103.977
 c h
269.312 103.977 m f
Q Q
showpage
%%Trailer
end
%%EOF
