%!PS-Adobe-3.0 EPSF-3.0
%%Creator: cairo 1.15.12 (http://cairographics.org)
%%CreationDate: Sun May 26 01:50:03 2019
%%Pages: 1
%%DocumentData: Clean7Bit
%%LanguageLevel: 2
%%BoundingBox: 7 0 456 463
%%EndComments
%%BeginProlog
50 dict begin
/q { gsave } bind def
/Q { grestore } bind def
/cm { 6 array astore concat } bind def
/w { setlinewidth } bind def
/J { setlinecap } bind def
/j { setlinejoin } bind def
/M { setmiterlimit } bind def
/d { setdash } bind def
/m { moveto } bind def
/l { lineto } bind def
/c { curveto } bind def
/h { closepath } bind def
/re { exch dup neg 3 1 roll 5 3 roll moveto 0 rlineto
      0 exch rlineto 0 rlineto closepath } bind def
/S { stroke } bind def
/f { fill } bind def
/f* { eofill } bind def
/n { newpath } bind def
/W { clip } bind def
/W* { eoclip } bind def
/BT { } bind def
/ET { } bind def
/BDC { mark 3 1 roll /BDC pdfmark } bind def
/EMC { mark /EMC pdfmark } bind def
/cairo_store_point { /cairo_point_y exch def /cairo_point_x exch def } def
/Tj { show currentpoint cairo_store_point } bind def
/TJ {
  {
    dup
    type /stringtype eq
    { show } { -0.001 mul 0 cairo_font_matrix dtransform rmoveto } ifelse
  } forall
  currentpoint cairo_store_point
} bind def
/cairo_selectfont { cairo_font_matrix aload pop pop pop 0 0 6 array astore
    cairo_font exch selectfont cairo_point_x cairo_point_y moveto } bind def
/Tf { pop /cairo_font exch def /cairo_font_matrix where
      { pop cairo_selectfont } if } bind def
/Td { matrix translate cairo_font_matrix matrix concatmatrix dup
      /cairo_font_matrix exch def dup 4 get exch 5 get cairo_store_point
      /cairo_font where { pop cairo_selectfont } if } bind def
/Tm { 2 copy 8 2 roll 6 array astore /cairo_font_matrix exch def
      cairo_store_point /cairo_font where { pop cairo_selectfont } if } bind def
/g { setgray } bind def
/rg { setrgbcolor } bind def
/d1 { setcachedevice } bind def
/cairo_data_source {
  CairoDataIndex CairoData length lt
    { CairoData CairoDataIndex get /CairoDataIndex CairoDataIndex 1 add def }
    { () } ifelse
} def
/cairo_flush_ascii85_file { cairo_ascii85_file status { cairo_ascii85_file flushfile } if } def
/cairo_image { image cairo_flush_ascii85_file } def
/cairo_imagemask { imagemask cairo_flush_ascii85_file } def
%%EndProlog
%%BeginSetup
%%EndSetup
%%Page: 1 1
%%BeginPageSetup
%%PageBoundingBox: 7 0 456 463
%%EndPageSetup
q 7 0 449 463 rectclip
1 0 0 -1 0 463 cm q
0 g
47.246 0 m 41.504 0.969 36.113 2.945 31.254 5.766 c 31.254 50.082 l 36.281
 48.844 41.641 47.996 47.246 47.574 c h
47.246 0 m f
15.266 20.789 m 10.219 28.383 7.27 37.473 7.27 47.254 c 7.27 60.582 l 9.715
 58.852 12.367 57.262 15.266 55.832 c h
15.266 20.789 m f
103.211 98.301 m 103.211 87.223 l 103.211 75.879 83.512 63.234 55.242 63.234
 c 26.969 63.234 7.27 75.879 7.27 87.223 c 7.27 98.301 l 18.996 86.637 36.129
 79.227 55.242 79.227 c 74.352 79.227 91.48 86.637 103.211 98.301 c h
103.211 98.301 m f
79.227 5.766 m 74.367 2.945 68.973 0.969 63.234 0 c 63.234 47.582 l 68.836
 47.996 74.199 48.852 79.227 50.09 c h
79.227 5.766 m f
103.211 284.449 m 103.211 135.195 l 103.211 113.148 81.699 95.219 55.242
 95.219 c 28.781 95.219 7.27 113.148 7.27 135.195 c 7.27 284.441 l 18.902
 276.234 35.914 271.113 55.242 271.113 c 74.566 271.113 91.578 276.234 103.211
 284.449 c h
103.211 284.449 m f
79.227 355.773 m 79.227 324.496 l 74.367 322.148 68.973 320.5 63.234 319.691
 c 63.234 351.625 l 68.812 352.32 74.184 353.73 79.227 355.773 c h
79.227 355.773 m f
103.211 372.871 m 103.211 359.07 l 103.211 350.922 100.262 343.34 95.215
 337.016 c 95.215 365.184 l 98.102 367.504 100.766 370.086 103.211 372.871
 c h
103.211 372.871 m f
103.211 47.246 m 103.211 37.465 100.262 28.375 95.215 20.781 c 95.215 55.824
 l 98.109 57.254 100.766 58.844 103.211 60.574 c h
103.211 47.246 m f
103.211 322.172 m 103.211 311.09 l 103.211 299.746 83.512 287.105 55.242
 287.105 c 26.969 287.105 7.27 299.746 7.27 311.09 c 7.27 322.172 l 18.996
 310.504 36.129 303.094 55.242 303.094 c 74.352 303.094 91.48 310.504 103.211
 322.172 c h
103.211 322.172 m f
47.246 351.625 m 47.246 319.691 l 41.504 320.5 36.113 322.148 31.254 324.496
 c 31.254 355.773 l 36.297 353.73 41.664 352.32 47.246 351.625 c h
47.246 351.625 m f
279.109 47.246 15.988 71.957 re f
311.09 47.246 15.992 71.957 re f
343.07 47.246 15.992 71.957 re f
119.203 47.246 15.988 71.957 re f
407.035 47.246 15.988 71.957 re f
151.184 47.246 15.992 71.957 re f
183.164 47.246 15.992 71.957 re f
215.145 47.246 15.992 71.957 re f
247.129 47.246 15.988 71.957 re f
375.051 47.246 15.992 71.957 re f
407.035 391.043 15.988 71.957 re f
375.051 391.043 15.992 71.957 re f
439.016 391.043 15.988 71.957 re f
343.07 391.043 15.992 71.957 re f
119.203 359.062 335.801 15.992 re f
311.09 391.043 15.992 71.957 re f
119.203 135.195 335.801 15.988 re f
439.016 47.246 15.988 71.957 re f
119.203 167.176 335.801 175.895 re f
119.203 415.031 m 119.203 434.137 110.734 451.27 97.406 463 c 135.191 463
 l 135.191 391.043 l 119.203 391.043 l h
119.203 415.031 m f
151.184 391.043 15.992 71.957 re f
15.266 337.008 m 10.219 343.332 7.27 350.914 7.27 359.062 c 7.27 372.859
 l 9.715 370.078 12.375 367.496 15.266 365.176 c h
15.266 337.008 m f
55.242 367.059 m 28.781 367.059 7.27 388.574 7.27 415.031 c 7.27 441.484
 28.781 463 55.242 463 c 81.699 463 103.211 441.484 103.211 415.031 c 103.211
 388.574 81.699 367.059 55.242 367.059 c h
55.242 447.012 m 37.602 447.012 23.258 432.668 23.258 415.031 c 23.258 
397.391 37.602 383.047 55.242 383.047 c 72.879 383.047 87.223 397.391 87.223
 415.031 c 87.223 432.668 72.879 447.012 55.242 447.012 c h
55.242 447.012 m f
71.23 415.031 m 71.23 423.859 64.07 431.02 55.242 431.02 c 46.41 431.02
 39.25 423.859 39.25 415.031 c 39.25 406.195 46.41 399.039 55.242 399.039
 c 64.07 399.039 71.23 406.195 71.23 415.031 c h
71.23 415.031 m f
215.145 391.043 15.992 71.957 re f
183.164 391.043 15.992 71.957 re f
247.129 391.043 15.988 71.957 re f
279.109 391.043 15.988 71.957 re f
Q Q
showpage
%%Trailer
end
%%EOF
