%!PS-Adobe-3.0 EPSF-3.0
%%Creator: cairo 1.14.6 (http://cairographics.org)
%%CreationDate: Thu Nov 22 09:10:36 2018
%%Pages: 1
%%DocumentData: Clean7Bit
%%LanguageLevel: 3
%%BoundingBox: 8 0 488 496
%%EndComments
%%BeginProlog
save
50 dict begin
/q { gsave } bind def
/Q { grestore } bind def
/cm { 6 array astore concat } bind def
/w { setlinewidth } bind def
/J { setlinecap } bind def
/j { setlinejoin } bind def
/M { setmiterlimit } bind def
/d { setdash } bind def
/m { moveto } bind def
/l { lineto } bind def
/c { curveto } bind def
/h { closepath } bind def
/re { exch dup neg 3 1 roll 5 3 roll moveto 0 rlineto
      0 exch rlineto 0 rlineto closepath } bind def
/S { stroke } bind def
/f { fill } bind def
/f* { eofill } bind def
/n { newpath } bind def
/W { clip } bind def
/W* { eoclip } bind def
/BT { } bind def
/ET { } bind def
/pdfmark where { pop globaldict /?pdfmark /exec load put }
    { globaldict begin /?pdfmark /pop load def /pdfmark
    /cleartomark load def end } ifelse
/BDC { mark 3 1 roll /BDC pdfmark } bind def
/EMC { mark /EMC pdfmark } bind def
/cairo_store_point { /cairo_point_y exch def /cairo_point_x exch def } def
/Tj { show currentpoint cairo_store_point } bind def
/TJ {
  {
    dup
    type /stringtype eq
    { show } { -0.001 mul 0 cairo_font_matrix dtransform rmoveto } ifelse
  } forall
  currentpoint cairo_store_point
} bind def
/cairo_selectfont { cairo_font_matrix aload pop pop pop 0 0 6 array astore
    cairo_font exch selectfont cairo_point_x cairo_point_y moveto } bind def
/Tf { pop /cairo_font exch def /cairo_font_matrix where
      { pop cairo_selectfont } if } bind def
/Td { matrix translate cairo_font_matrix matrix concatmatrix dup
      /cairo_font_matrix exch def dup 4 get exch 5 get cairo_store_point
      /cairo_font where { pop cairo_selectfont } if } bind def
/Tm { 2 copy 8 2 roll 6 array astore /cairo_font_matrix exch def
      cairo_store_point /cairo_font where { pop cairo_selectfont } if } bind def
/g { setgray } bind def
/rg { setrgbcolor } bind def
/d1 { setcachedevice } bind def
%%EndProlog
%%BeginSetup
%%EndSetup
%%Page: 1 1
%%BeginPageSetup
%%PageBoundingBox: 8 0 488 496
%%EndPageSetup
q 8 0 480 496 rectclip q
q
72 96 m 54.352 96 40 81.648 40 64 c 40 46.352 54.352 32 72 32 c 89.648 
32 104 46.352 104 64 c 104 81.648 89.648 96 72 96 c h
72 48 m 63.176 48 56 55.176 56 64 c 56 72.824 63.176 80 72 80 c 80.824 
80 88 72.824 88 64 c 88 55.176 80.824 48 72 48 c h
488 448 m 133.895 448 l 126.762 475.559 101.754 496 72 496 c 36.711 496
 8 467.289 8 432 c 8 64 l 8 28.711 36.711 0 72 0 c 488 0 l h
472 360 m 456 360 l 456 432 l 472 432 l h
184 88 m 184 16 l 168 16 l 168 88 l h
200 88 m 216 88 l 216 16 l 200 16 l h
232 88 m 248 88 l 248 16 l 232 16 l h
264 88 m 280 88 l 280 16 l 264 16 l h
296 88 m 312 88 l 312 16 l 296 16 l h
328 88 m 344 88 l 344 16 l 328 16 l h
360 88 m 376 88 l 376 16 l 360 16 l h
392 88 m 408 88 l 408 16 l 392 16 l h
424 88 m 440 88 l 440 16 l 424 16 l h
136 104 m 136 120 l 472 120 l 472 104 l h
48 123.289 m 48 154.586 l 52.863 156.938 58.258 158.586 64 159.391 c 64
 127.441 l 58.414 126.742 53.047 125.336 48 123.289 c h
80 159.398 m 85.742 158.594 91.137 156.945 96 154.594 c 96 123.297 l 90.953
 125.344 85.586 126.754 80 127.457 c h
112 142.062 m 117.047 135.734 120 128.152 120 120 c 120 106.191 l 117.551
 108.977 114.887 111.559 112 113.879 c h
136 136 m 136 312 l 472 312 l 472 136 l h
136 328 m 136 344 l 472 344 l 472 328 l h
424 360 m 424 432 l 440 432 l 440 360 l h
408 360 m 392 360 l 392 432 l 408 432 l h
376 360 m 360 360 l 360 432 l 376 432 l h
344 360 m 328 360 l 328 432 l 344 432 l h
312 360 m 296 360 l 296 432 l 312 432 l h
280 360 m 264 360 l 264 432 l 280 432 l h
248 360 m 232 360 l 232 432 l 248 432 l h
216 360 m 200 360 l 200 432 l 216 432 l h
184 360 m 168 360 l 168 432 l 184 432 l h
152 432 m 152 360 l 136 360 l 136 432 l h
120 432 m 120 418.656 l 117.551 420.383 114.895 421.977 112 423.406 c 112
 458.48 l 117.047 450.879 120 441.785 120 432 c h
48 473.504 m 52.863 476.328 58.258 478.305 64 479.273 c 64 431.664 l 58.391
 431.246 53.031 430.398 48 429.16 c h
80 479.281 m 85.742 478.312 91.137 476.328 96 473.512 c 96 429.168 l 90.969
 430.406 85.609 431.258 80 431.68 c h
32 458.48 m 32 423.414 l 29.105 421.984 26.449 420.391 24 418.664 c 24 
432 l 24 441.785 26.953 450.879 32 458.48 c h
72 416 m 100.289 416 120 403.352 120 392 c 120 380.922 l 108.266 392.586
 91.121 400 72 400 c 52.879 400 35.734 392.586 24 380.922 c 24 392 l 24 
403.352 43.711 416 72 416 c h
72 384 m 98.473 384 120 366.055 120 344 c 120 194.656 l 108.359 202.871
 91.336 208 72 208 c 52.664 208 35.641 202.871 24 194.656 c 24 344 l 24 
366.055 45.527 384 72 384 c h
72 192 m 100.289 192 120 179.352 120 168 c 120 156.922 l 108.266 168.586
 91.121 176 72 176 c 52.879 176 35.734 168.586 24 156.922 c 24 168 l 24 
179.352 43.711 192 72 192 c h
24 120 m 24 128.152 26.953 135.734 32 142.062 c 32 113.879 l 29.113 111.559
 26.449 108.969 24 106.191 c h
24 64 m 24 90.473 45.527 112 72 112 c 98.473 112 120 90.473 120 64 c 120
 37.527 98.473 16 72 16 c 45.527 16 24 37.527 24 64 c h
136 64 m 136 88 l 152 88 l 152 16 l 114.191 16 l 127.527 27.734 136 44.879
 136 64 c h
456 16 m 456 88 l 472 88 l 472 16 l h
456 16 m W n
[1 0 0 -1 8 496] concat
/CairoFunction
   << /FunctionType 2
      /Domain [ 0 1 ]
      /C0 [ 0.623529 0.184314 1 ]
      /C1 [ 0.0431373 0.694118 0.827451 ]
      /N 1
   >>
def
   << /ShadingType 2
      /ColorSpace /DeviceRGB
      /Coords [ 240 496 240 0 ]
      /Extend [ true true ]
      /Function CairoFunction
   >>
shfill
Q
Q Q
showpage
%%Trailer
end restore
%%EOF
