%!PS-Adobe-3.0 EPSF-3.0
%%Creator: cairo 1.15.12 (http://cairographics.org)
%%CreationDate: Sun May 26 01:50:03 2019
%%Pages: 1
%%DocumentData: Clean7Bit
%%LanguageLevel: 2
%%BoundingBox: 0 20 384 364
%%EndComments
%%BeginProlog
50 dict begin
/q { gsave } bind def
/Q { grestore } bind def
/cm { 6 array astore concat } bind def
/w { setlinewidth } bind def
/J { setlinecap } bind def
/j { setlinejoin } bind def
/M { setmiterlimit } bind def
/d { setdash } bind def
/m { moveto } bind def
/l { lineto } bind def
/c { curveto } bind def
/h { closepath } bind def
/re { exch dup neg 3 1 roll 5 3 roll moveto 0 rlineto
      0 exch rlineto 0 rlineto closepath } bind def
/S { stroke } bind def
/f { fill } bind def
/f* { eofill } bind def
/n { newpath } bind def
/W { clip } bind def
/W* { eoclip } bind def
/BT { } bind def
/ET { } bind def
/BDC { mark 3 1 roll /BDC pdfmark } bind def
/EMC { mark /EMC pdfmark } bind def
/cairo_store_point { /cairo_point_y exch def /cairo_point_x exch def } def
/Tj { show currentpoint cairo_store_point } bind def
/TJ {
  {
    dup
    type /stringtype eq
    { show } { -0.001 mul 0 cairo_font_matrix dtransform rmoveto } ifelse
  } forall
  currentpoint cairo_store_point
} bind def
/cairo_selectfont { cairo_font_matrix aload pop pop pop 0 0 6 array astore
    cairo_font exch selectfont cairo_point_x cairo_point_y moveto } bind def
/Tf { pop /cairo_font exch def /cairo_font_matrix where
      { pop cairo_selectfont } if } bind def
/Td { matrix translate cairo_font_matrix matrix concatmatrix dup
      /cairo_font_matrix exch def dup 4 get exch 5 get cairo_store_point
      /cairo_font where { pop cairo_selectfont } if } bind def
/Tm { 2 copy 8 2 roll 6 array astore /cairo_font_matrix exch def
      cairo_store_point /cairo_font where { pop cairo_selectfont } if } bind def
/g { setgray } bind def
/rg { setrgbcolor } bind def
/d1 { setcachedevice } bind def
/cairo_data_source {
  CairoDataIndex CairoData length lt
    { CairoData CairoDataIndex get /CairoDataIndex CairoDataIndex 1 add def }
    { () } ifelse
} def
/cairo_flush_ascii85_file { cairo_ascii85_file status { cairo_ascii85_file flushfile } if } def
/cairo_image { image cairo_flush_ascii85_file } def
/cairo_imagemask { imagemask cairo_flush_ascii85_file } def
%%EndProlog
%%BeginSetup
%%EndSetup
%%Page: 1 1
%%BeginPageSetup
%%PageBoundingBox: 0 20 384 364
%%EndPageSetup
q 0 20 384 344 rectclip
1 0 0 -1 0 384 cm q
0 g
93.656 65.66 m 96.785 62.531 96.785 57.469 93.656 54.34 c 90.527 51.223
 85.465 51.223 82.348 54.34 c 79.219 57.469 79.219 62.531 82.348 65.66 c
 85.465 68.777 90.527 68.777 93.656 65.66 c h
93.656 65.66 m f
383.996 219.992 m 383.996 215.578 380.41 212.004 375.992 212.004 c 375.992
 195.996 l 380.41 195.996 383.996 192.422 383.996 188.004 c 383.996 183.586
 380.41 180 375.992 180 c 375.992 164.004 l 380.41 164.004 383.996 160.418
 383.996 156 c 383.996 151.582 380.41 147.996 375.992 147.996 c 375.992 
132 l 380.41 132 383.996 128.414 383.996 123.996 c 383.996 119.578 380.41
 116.004 375.992 116.004 c 375.992 99.996 l 380.41 99.996 383.996 96.422
 383.996 92.004 c 383.996 87.586 380.41 84 375.992 84 c 375.992 68.004 l
 380.41 68.004 383.996 64.418 383.996 60 c 383.996 55.582 380.41 51.996 
375.992 51.996 c 375.992 36 l 380.41 36 383.996 32.414 383.996 27.996 c 
383.996 23.578 380.41 20.004 375.992 20.004 c 80.004 20.004 l 80.004 20.156
 l 60.633 20.895 42.562 24.305 28.465 29.941 c 10.102 37.289 0 47.965 0 
60 c 0 323.996 l 0 336.031 10.102 346.707 28.465 354.055 c 44.496 360.465
 65.637 363.992 87.996 363.992 c 110.367 363.992 131.508 360.465 147.539
 354.055 c 165.891 346.707 176.004 336.031 176.004 323.996 c 375.992 323.996
 l 380.41 323.996 383.996 320.41 383.996 315.992 c 383.996 311.574 380.41
 308 375.992 308 c 375.992 291.992 l 380.41 291.992 383.996 288.418 383.996
 284 c 383.996 279.582 380.41 275.996 375.992 275.996 c 375.992 260 l 380.41
 260 383.996 256.414 383.996 251.996 c 383.996 247.578 380.41 243.992 375.992
 243.992 c 375.992 227.996 l 380.41 227.996 383.996 224.41 383.996 219.992
 c h
34.406 44.801 m 48.586 39.129 67.629 36 87.996 36 c 108.375 36 127.406 
39.129 141.598 44.801 c 152.637 49.219 159.809 55.078 159.996 59.812 c 159.703
 61.641 154.688 84 87.996 84 c 21.305 84 16.301 61.641 16.008 59.812 c 16.195
 55.078 23.367 49.219 34.406 44.801 c h
15.996 147.82 m 16.008 147.938 15.996 147.996 15.996 147.996 c h
15.996 235.812 m 16.008 235.93 15.996 236 15.996 236 c h
159.996 323.996 m 159.996 328.754 152.777 334.719 141.598 339.195 c 127.406
 344.867 108.375 347.996 87.996 347.996 c 67.629 347.996 48.586 344.867 
34.406 339.195 c 23.227 334.719 15.996 328.754 15.996 323.996 c 15.996 260.457
 l 31.043 270.77 55.23 275.996 87.996 275.996 c 120.773 275.996 144.961 
270.77 159.996 260.457 c h
159.996 235.754 m 159.809 237.09 155.508 260 87.996 260 c 20.496 260 16.184
 237.09 15.996 235.754 c 15.996 172.465 l 31.043 182.777 55.23 188.004 87.996
 188.004 c 120.773 188.004 144.961 182.777 159.996 172.465 c h
159.996 147.762 m 159.809 149.098 155.508 171.996 87.996 171.996 c 20.496
 171.996 16.184 149.098 15.996 147.762 c 15.996 84.469 l 31.043 94.77 55.23
 99.996 87.996 99.996 c 120.773 99.996 144.961 94.77 159.996 84.469 c h
359.996 308 m 176.004 308 l 176.004 227.996 l 359.996 227.996 l h
359.996 212.004 m 176.004 212.004 l 176.004 132 l 359.996 132 l h
359.996 116.004 m 176.004 116.004 l 176.004 60 l 176.004 50.953 170.285
 42.668 159.656 36 c 359.996 36 l h
359.996 116.004 m f
Q Q
showpage
%%Trailer
end
%%EOF
