%!PS-Adobe-3.0 EPSF-3.0
%%Creator: cairo 1.15.12 (http://cairographics.org)
%%CreationDate: Sun May 26 01:50:03 2019
%%Pages: 1
%%DocumentData: Clean7Bit
%%LanguageLevel: 2
%%BoundingBox: 44 52 340 332
%%EndComments
%%BeginProlog
50 dict begin
/q { gsave } bind def
/Q { grestore } bind def
/cm { 6 array astore concat } bind def
/w { setlinewidth } bind def
/J { setlinecap } bind def
/j { setlinejoin } bind def
/M { setmiterlimit } bind def
/d { setdash } bind def
/m { moveto } bind def
/l { lineto } bind def
/c { curveto } bind def
/h { closepath } bind def
/re { exch dup neg 3 1 roll 5 3 roll moveto 0 rlineto
      0 exch rlineto 0 rlineto closepath } bind def
/S { stroke } bind def
/f { fill } bind def
/f* { eofill } bind def
/n { newpath } bind def
/W { clip } bind def
/W* { eoclip } bind def
/BT { } bind def
/ET { } bind def
/BDC { mark 3 1 roll /BDC pdfmark } bind def
/EMC { mark /EMC pdfmark } bind def
/cairo_store_point { /cairo_point_y exch def /cairo_point_x exch def } def
/Tj { show currentpoint cairo_store_point } bind def
/TJ {
  {
    dup
    type /stringtype eq
    { show } { -0.001 mul 0 cairo_font_matrix dtransform rmoveto } ifelse
  } forall
  currentpoint cairo_store_point
} bind def
/cairo_selectfont { cairo_font_matrix aload pop pop pop 0 0 6 array astore
    cairo_font exch selectfont cairo_point_x cairo_point_y moveto } bind def
/Tf { pop /cairo_font exch def /cairo_font_matrix where
      { pop cairo_selectfont } if } bind def
/Td { matrix translate cairo_font_matrix matrix concatmatrix dup
      /cairo_font_matrix exch def dup 4 get exch 5 get cairo_store_point
      /cairo_font where { pop cairo_selectfont } if } bind def
/Tm { 2 copy 8 2 roll 6 array astore /cairo_font_matrix exch def
      cairo_store_point /cairo_font where { pop cairo_selectfont } if } bind def
/g { setgray } bind def
/rg { setrgbcolor } bind def
/d1 { setcachedevice } bind def
/cairo_data_source {
  CairoDataIndex CairoData length lt
    { CairoData CairoDataIndex get /CairoDataIndex CairoDataIndex 1 add def }
    { () } ifelse
} def
/cairo_flush_ascii85_file { cairo_ascii85_file status { cairo_ascii85_file flushfile } if } def
/cairo_image { image cairo_flush_ascii85_file } def
/cairo_imagemask { imagemask cairo_flush_ascii85_file } def
%%EndProlog
%%BeginSetup
%%EndSetup
%%Page: 1 1
%%BeginPageSetup
%%PageBoundingBox: 44 52 340 332
%%EndPageSetup
q 44 52 296 280 rectclip
1 0 0 -1 0 384 cm q
0 g
70.477 138.461 m 68.406 138.461 66.727 140.137 66.727 142.211 c 66.727 
293.41 l 52 293.41 l 52 276.16 l 58 276.16 l 63 276.16 63 268.66 58 268.66
 c 48.25 268.66 l 46.18 268.66 44.5 270.34 44.5 272.41 c 44.5 297.16 l 44.5
 299.23 46.18 300.91 48.25 300.91 c 66.727 300.91 l 66.727 328.211 l 66.727
 333.211 74.227 333.211 74.227 328.211 c 74.227 142.211 l 74.227 140.137
 72.547 138.461 70.477 138.461 c h
70.477 138.461 m f
103.602 70.199 m 101.883 69.047 99.555 69.5 98.398 71.219 c 97.594 72.418
 78.898 100.973 98.203 137.141 c 115.902 170.27 110.59 219.938 98.504 235.992
 c 95.504 239.992 101.504 244.492 104.504 240.492 c 118.027 222.527 124.113
 169.727 104.801 133.598 c 87.676 101.535 103.902 76.449 104.613 75.398 
c 105.766 73.684 105.312 71.359 103.602 70.199 c h
103.602 70.199 m f
102 294.301 m 98.195 291.238 93.504 296.793 97.164 300.031 c 97.5 300.312
 97.844 300.59 98.191 300.855 c 102.16 303.898 106.723 297.941 102.754 294.898
 c 102.496 294.715 102.246 294.516 102 294.301 c h
102 294.301 m f
89.668 290.953 m 90.715 292.742 93.012 293.34 94.797 292.293 c 96.586 291.246
 97.184 288.949 96.137 287.164 c 87.707 272.781 86.754 246.547 93.961 227.434
 c 99.559 212.629 100.719 196.52 97.309 181.066 c 96 176.238 88.762 178.199
 90.07 183.027 c 93 196.961 91.914 211.441 86.941 224.785 c 78.898 246.129
 80.066 274.574 89.668 290.953 c h
89.668 290.953 m f
139.176 155.242 m 139.797 155.242 140.41 155.09 140.953 154.793 c 141.723
 154.379 142.473 153.953 143.203 153.516 c 144.996 152.461 145.586 150.145
 144.516 148.359 c 143.449 146.574 141.129 146 139.352 147.082 c 138.715
 147.461 138.062 147.832 137.391 148.195 c 133.961 150.043 135.281 155.246
 139.176 155.242 c h
139.176 155.242 m f
148.82 144.941 m 150.328 146.363 152.703 146.289 154.121 144.781 c 174.688
 122.926 169.066 87.977 163.887 69.098 c 163.348 67.09 161.277 65.902 159.273
 66.453 c 157.27 67.004 156.094 69.078 156.652 71.078 c 161.418 88.449 166.715
 120.453 148.66 139.645 c 147.238 141.152 147.312 143.523 148.82 144.941
 c h
148.82 144.941 m f
123.277 144.191 m 121.227 144.469 119.785 146.355 120.062 148.41 c 123.109
 171 132.695 212.328 162.719 235.477 c 166.664 238.445 171.172 232.598 167.297
 229.535 c 139.395 208.027 130.395 168.848 127.492 147.406 c 127.219 145.352
 125.332 143.914 123.277 144.191 c h
123.277 144.191 m f
125.398 305.84 m 115.176 289.391 112.102 269.48 116.891 250.715 c 118.312
 246.02 111.355 243.766 109.754 248.406 c 104.141 269.281 107.512 291.559
 119.055 309.836 c 123.68 317.18 127.703 320.617 131.684 320.617 c 131.812
 320.617 131.941 320.617 132.07 320.617 c 134.863 320.387 137.277 318.578
 138.289 315.965 c 142.789 306.664 139.402 280.062 129.91 266.602 c 128.738
 264.859 126.359 264.422 124.645 265.633 c 122.926 266.844 122.539 269.23
 123.781 270.922 c 132.91 283.867 134.262 308.875 131.434 312.98 c 128.902
 311.09 126.84 308.648 125.398 305.84 c h
125.398 305.84 m f
313.523 154.25 m 311.453 154.25 309.773 155.93 309.773 158 c 309.773 160.25
 l 309.773 165.25 317.273 165.25 317.273 160.25 c 317.273 158 l 317.273 
155.93 315.594 154.25 313.523 154.25 c h
313.523 154.25 m f
317.273 115.332 m 335.75 115.332 l 337.82 115.332 339.5 113.652 339.5 111.582
 c 339.5 86.832 l 339.5 84.762 337.82 83.082 335.75 83.082 c 324.75 83.082
 l 319.75 83.082 319.75 90.582 324.75 90.582 c 331.996 90.582 l 331.996 
107.832 l 317.27 107.832 l 317.27 55.801 l 317.27 53.73 315.594 52.051 313.52
 52.051 c 200.766 52.051 l 198.695 52.051 197.016 53.73 197.016 55.801 c
 197.016 83.102 l 186.984 83.102 l 186.984 55.801 l 186.984 53.73 185.305
 52.051 183.234 52.051 c 70.477 52.051 l 68.406 52.051 66.727 53.73 66.727
 55.801 c 66.727 83.102 l 48.25 83.102 l 46.18 83.102 44.5 84.777 44.5 86.852
 c 44.5 111.602 l 44.5 113.672 46.18 115.352 48.25 115.352 c 58 115.352 
l 63 115.352 63 107.852 58 107.852 c 52 107.852 l 52 90.602 l 66.727 90.602
 l 66.727 129.336 l 66.727 134.336 74.227 134.336 74.227 129.336 c 74.227
 59.539 l 106.387 59.539 l 121.32 69.117 128.992 86.766 125.805 104.219 
c 125.473 106.266 126.855 108.191 128.902 108.527 c 129.098 108.559 129.301
 108.574 129.5 108.574 c 131.34 108.574 132.902 107.242 133.199 105.43 c
 136.266 88.566 130.598 71.297 118.141 59.527 c 131.25 59.527 l 146.707 
71.773 148.23 113.785 139.371 127.277 c 136.484 131.68 133.328 132.379 128.816
 129.574 c 105.602 115.227 116.785 78.848 116.902 78.48 c 118.324 73.766
 111.324 71.539 109.758 76.207 c 109.211 77.926 96.664 118.508 124.883 135.969
 c 127.488 137.684 130.516 138.637 133.633 138.719 c 138.641 138.543 143.199
 135.77 145.652 131.398 c 155.375 116.59 155.164 78.352 141.484 59.531 c
 179.484 59.531 l 179.484 221.492 l 173.184 210.348 164.559 200.691 154.199
 193.172 c 150.082 190.395 145.887 196.527 149.965 199.359 c 150.266 199.559
 179.477 219.906 179.477 249.562 c 179.477 324.461 l 154.059 324.461 l 168.516
 279.559 131.617 223.301 129.977 220.836 c 127.203 216.676 120.961 220.84
 123.734 225 c 124.125 225.582 161.594 282.684 146.109 324.469 c 83.812 
324.469 l 78.812 324.469 78.812 331.969 83.812 331.969 c 183.234 331.969
 l 185.305 331.969 186.984 330.289 186.984 328.219 c 186.984 300.918 l 197.016
 300.918 l 197.016 328.219 l 197.016 330.289 198.695 331.969 200.766 331.969
 c 313.523 331.969 l 315.594 331.969 317.273 330.289 317.273 328.219 c 317.273
 276.168 l 332 276.168 l 332 293.418 l 324.75 293.418 l 319.75 293.418 319.75
 300.918 324.75 300.918 c 335.746 300.918 l 337.82 300.918 339.496 299.238
 339.496 297.168 c 339.496 272.418 l 339.496 270.348 337.82 268.668 335.746
 268.668 c 317.27 268.668 l 317.27 172.754 l 317.27 167.754 309.77 167.754
 309.77 172.754 c 309.77 221.496 l 303.473 210.352 294.852 200.695 284.492
 193.172 c 280.391 190.457 276.238 196.512 280.254 199.359 c 280.555 199.562
 309.77 219.996 309.77 249.566 c 309.77 324.465 l 284.348 324.465 l 298.801
 279.559 261.898 223.301 260.266 220.836 c 257.488 216.676 251.246 220.84
 254.023 225 c 254.41 225.582 291.879 282.684 276.395 324.469 c 204.516 
324.469 l 204.516 287.793 l 204.516 282.793 197.016 282.793 197.016 287.793
 c 197.016 293.418 l 186.984 293.418 l 186.984 276.168 l 200.766 276.168
 l 202.836 276.168 204.516 274.488 204.516 272.418 c 204.516 59.539 l 236.66
 59.539 l 251.504 69.195 259.148 86.777 256.094 104.219 c 255.707 106.293
 257.102 108.277 259.18 108.613 c 261.262 108.953 263.211 107.508 263.496
 105.422 c 266.562 88.559 260.898 71.289 248.438 59.52 c 261.551 59.52 l
 277.004 71.762 278.527 113.773 269.672 127.27 c 266.785 131.672 263.629
 132.367 259.117 129.566 c 245.516 121.168 243.68 105.316 244.531 93.504
 c 244.723 91.414 243.164 89.574 241.07 89.422 c 238.977 89.27 237.168 90.867
 237.055 92.961 c 236.195 104.84 237.809 120.262 248.809 130.961 c 249.129
 141.996 252.707 204.395 293.004 235.453 c 296.953 238.422 301.457 232.578
 297.582 229.516 c 265.102 204.469 258.156 155.414 256.676 136.762 c 258.902
 137.973 261.387 138.637 263.918 138.695 c 268.926 138.527 273.48 135.762
 275.941 131.398 c 285.664 116.59 285.449 78.352 271.773 59.531 c 283.234
 59.531 l 287.656 71.504 305.875 127.633 267.68 148.184 c 265.805 149.141
 265.082 151.453 266.082 153.305 c 267.082 155.16 269.41 155.828 271.238
 154.785 c 312.285 132.68 297.109 76.855 291.184 59.527 c 309.781 59.527
 l 309.781 144.254 l 309.781 149.254 317.281 149.254 317.281 144.254 c h
197.016 90.582 m 197.016 107.832 l 186.984 107.832 l 186.984 90.582 l h
186.984 115.332 m 197.016 115.332 l 197.016 268.668 l 186.984 268.668 l
 h
186.984 115.332 m f
235.105 133.613 m 217.977 101.551 234.203 76.465 234.914 75.414 c 237.699
 71.262 231.473 67.082 228.688 71.234 c 227.883 72.434 209.188 100.992 228.492
 137.156 c 246.191 170.285 240.879 219.957 228.793 236.012 c 225.793 240.012
 231.793 244.512 234.793 240.512 c 248.316 222.543 254.398 169.738 235.105
 133.613 c h
235.105 133.613 m f
228.477 300.863 m 232.453 303.906 237.02 297.945 233.043 294.898 c 217.844
 283.238 215.863 249.656 224.254 227.422 c 227.316 219.242 229.059 210.629
 229.406 201.898 c 229.492 199.828 227.887 198.078 225.816 197.992 c 223.742
 197.906 221.992 199.516 221.906 201.586 c 221.594 209.523 220.016 217.359
 217.23 224.801 c 207.898 249.535 210.227 286.863 228.477 300.863 c h
228.477 300.863 m f
224.699 189.387 m 224.91 189.387 225.121 189.371 225.328 189.336 c 227.367
 188.992 228.742 187.059 228.402 185.016 c 227.977 182.488 227.586 181.066
 227.586 181.066 c 226.277 176.242 219.039 178.203 220.348 183.031 c 220.371
 183.121 220.672 184.273 221.004 186.262 c 221.309 188.066 222.871 189.387
 224.699 189.387 c h
224.699 189.387 m f
242.82 84.059 m 244.551 84.059 246.055 82.875 246.461 81.195 c 246.867 
79.527 247.172 78.543 247.195 78.48 c 248.707 73.715 241.559 71.445 240.047
 76.211 c 240.047 76.211 239.672 77.387 239.176 79.426 c 238.605 81.785 
240.395 84.055 242.82 84.059 c h
242.82 84.059 m f
261.98 320.617 m 262.109 320.617 262.238 320.617 262.367 320.617 c 265.16
 320.387 267.578 318.578 268.586 315.965 c 273.086 306.664 269.699 280.062
 260.211 266.602 c 259.035 264.859 256.66 264.422 254.941 265.633 c 253.227
 266.844 252.836 269.23 254.082 270.922 c 263.211 283.867 264.562 308.875
 261.73 312.98 c 259.203 311.094 257.141 308.656 255.699 305.852 c 245.477
 289.395 242.406 269.484 247.199 250.715 c 248.625 246.02 241.664 243.766
 240.066 248.406 c 234.449 269.281 237.824 291.559 249.367 309.836 c 253.977
 317.18 258 320.617 261.98 320.617 c h
261.98 320.617 m f
Q Q
showpage
%%Trailer
end
%%EOF
