%!PS-Adobe-3.0 EPSF-3.0
%%Creator: cairo 1.15.12 (http://cairographics.org)
%%CreationDate: Sun May 26 01:50:03 2019
%%Pages: 1
%%DocumentData: Clean7Bit
%%LanguageLevel: 2
%%BoundingBox: 0 11 140 130
%%EndComments
%%BeginProlog
50 dict begin
/q { gsave } bind def
/Q { grestore } bind def
/cm { 6 array astore concat } bind def
/w { setlinewidth } bind def
/J { setlinecap } bind def
/j { setlinejoin } bind def
/M { setmiterlimit } bind def
/d { setdash } bind def
/m { moveto } bind def
/l { lineto } bind def
/c { curveto } bind def
/h { closepath } bind def
/re { exch dup neg 3 1 roll 5 3 roll moveto 0 rlineto
      0 exch rlineto 0 rlineto closepath } bind def
/S { stroke } bind def
/f { fill } bind def
/f* { eofill } bind def
/n { newpath } bind def
/W { clip } bind def
/W* { eoclip } bind def
/BT { } bind def
/ET { } bind def
/BDC { mark 3 1 roll /BDC pdfmark } bind def
/EMC { mark /EMC pdfmark } bind def
/cairo_store_point { /cairo_point_y exch def /cairo_point_x exch def } def
/Tj { show currentpoint cairo_store_point } bind def
/TJ {
  {
    dup
    type /stringtype eq
    { show } { -0.001 mul 0 cairo_font_matrix dtransform rmoveto } ifelse
  } forall
  currentpoint cairo_store_point
} bind def
/cairo_selectfont { cairo_font_matrix aload pop pop pop 0 0 6 array astore
    cairo_font exch selectfont cairo_point_x cairo_point_y moveto } bind def
/Tf { pop /cairo_font exch def /cairo_font_matrix where
      { pop cairo_selectfont } if } bind def
/Td { matrix translate cairo_font_matrix matrix concatmatrix dup
      /cairo_font_matrix exch def dup 4 get exch 5 get cairo_store_point
      /cairo_font where { pop cairo_selectfont } if } bind def
/Tm { 2 copy 8 2 roll 6 array astore /cairo_font_matrix exch def
      cairo_store_point /cairo_font where { pop cairo_selectfont } if } bind def
/g { setgray } bind def
/rg { setrgbcolor } bind def
/d1 { setcachedevice } bind def
/cairo_data_source {
  CairoDataIndex CairoData length lt
    { CairoData CairoDataIndex get /CairoDataIndex CairoDataIndex 1 add def }
    { () } ifelse
} def
/cairo_flush_ascii85_file { cairo_ascii85_file status { cairo_ascii85_file flushfile } if } def
/cairo_image { image cairo_flush_ascii85_file } def
/cairo_imagemask { imagemask cairo_flush_ascii85_file } def
%%EndProlog
%%BeginSetup
%%EndSetup
%%Page: 1 1
%%BeginPageSetup
%%PageBoundingBox: 0 11 140 130
%%EndPageSetup
q 0 11 140 119 rectclip
1 0 0 -1 0 140 cm q
0 0 0.00784314 rg
133.254 128.578 m 68.941 128.578 l 68.918 128.578 68.891 128.578 68.863
 128.578 c 5.961 128.578 l 4.926 128.578 4.086 127.742 4.086 126.703 c 4.086
 70.781 l 1.875 70.781 l 0.84 70.781 0 69.941 0 68.906 c 0 24.367 l 0 23.332
 0.84 22.492 1.875 22.492 c 28.5 22.492 l 28.5 12.445 l 28.5 11.41 29.34
 10.57 30.375 10.57 c 42.125 10.57 l 43.164 10.57 44 11.41 44 12.445 c 44
 22.492 l 98.512 22.492 l 99.617 21.062 l 99.973 20.605 100.52 20.336 101.098
 20.336 c 101.68 20.336 102.227 20.605 102.582 21.062 c 138.758 67.758 l
 139.195 68.324 139.273 69.09 138.961 69.73 c 138.645 70.375 137.992 70.781
 137.277 70.781 c 135.129 70.781 l 135.129 126.703 l 135.129 127.742 134.289
 128.578 133.254 128.578 c h
70.816 124.828 m 131.379 124.828 l 131.379 68.906 l 131.379 67.871 132.219
 67.031 133.254 67.031 c 133.449 67.031 l 101.098 25.273 l 68.746 67.031
 l 68.941 67.031 l 69.977 67.031 70.816 67.871 70.816 68.906 c h
62.566 124.828 m 67.066 124.828 l 67.066 70.781 l 64.922 70.781 l 64.898
 70.781 64.871 70.781 64.848 70.781 c 7.836 70.781 l 7.836 124.828 l 45.047
 124.828 l 45.047 101.594 l 45.047 100.559 45.887 99.719 46.922 99.719 c
 60.691 99.719 l 61.727 99.719 62.566 100.559 62.566 101.594 c h
48.797 124.816 m 58.816 124.816 l 58.816 103.469 l 48.797 103.469 l h
3.75 67.031 m 63.926 67.031 l 95.527 26.242 l 44 26.242 l 44 40.715 l 44
 41.75 43.16 42.59 42.125 42.59 c 30.375 42.59 l 29.34 42.59 28.5 41.75 
28.5 40.715 c 28.5 26.242 l 3.75 26.242 l h
32.25 38.84 m 40.25 38.84 l 40.25 14.32 l 32.25 14.32 l h
121.637 120.254 m 107.867 120.254 l 106.832 120.254 105.992 119.418 105.992
 118.379 c 105.992 101.594 l 105.992 100.559 106.832 99.719 107.867 99.719
 c 121.637 99.719 l 122.672 99.719 123.512 100.559 123.512 101.594 c 123.512
 118.379 l 123.512 119.414 122.672 120.254 121.637 120.254 c h
109.742 116.504 m 119.762 116.504 l 119.762 103.469 l 109.742 103.469 l
 h
94.328 120.254 m 80.559 120.254 l 79.523 120.254 78.684 119.418 78.684 
118.379 c 78.684 101.594 l 78.684 100.559 79.523 99.719 80.559 99.719 c 
94.328 99.719 l 95.363 99.719 96.203 100.559 96.203 101.594 c 96.203 118.379
 l 96.203 119.414 95.363 120.254 94.328 120.254 c h
82.434 116.504 m 92.453 116.504 l 92.453 103.469 l 82.434 103.469 l h
35.969 120.254 m 15.727 120.254 l 14.691 120.254 13.852 119.418 13.852 
118.379 c 13.852 101.594 l 13.852 100.559 14.691 99.719 15.727 99.719 c 
35.969 99.719 l 37.004 99.719 37.844 100.559 37.844 101.594 c 37.844 118.379
 l 37.844 119.414 37.004 120.254 35.969 120.254 c h
17.602 116.504 m 34.094 116.504 l 34.094 103.469 l 17.602 103.469 l h
121.637 94.535 m 107.867 94.535 l 106.832 94.535 105.992 93.695 105.992
 92.66 c 105.992 75.875 l 105.992 74.84 106.832 74 107.867 74 c 121.637 
74 l 122.672 74 123.512 74.84 123.512 75.875 c 123.512 92.66 l 123.512 93.695
 122.672 94.535 121.637 94.535 c h
109.742 90.785 m 119.762 90.785 l 119.762 77.75 l 109.742 77.75 l h
94.328 94.535 m 80.559 94.535 l 79.523 94.535 78.684 93.695 78.684 92.66
 c 78.684 75.875 l 78.684 74.84 79.523 74 80.559 74 c 94.328 74 l 95.363
 74 96.203 74.84 96.203 75.875 c 96.203 92.66 l 96.203 93.695 95.363 94.535
 94.328 94.535 c h
82.434 90.785 m 92.453 90.785 l 92.453 77.75 l 82.434 77.75 l h
60.691 94.535 m 46.922 94.535 l 45.887 94.535 45.047 93.695 45.047 92.66
 c 45.047 75.875 l 45.047 74.84 45.887 74 46.922 74 c 60.691 74 l 61.727
 74 62.566 74.84 62.566 75.875 c 62.566 92.66 l 62.566 93.695 61.727 94.535
 60.691 94.535 c h
48.797 90.785 m 58.816 90.785 l 58.816 77.75 l 48.797 77.75 l h
35.969 94.535 m 15.727 94.535 l 14.691 94.535 13.852 93.695 13.852 92.66
 c 13.852 75.875 l 13.852 74.84 14.691 74 15.727 74 c 35.969 74 l 37.004
 74 37.844 74.84 37.844 75.875 c 37.844 92.66 l 37.844 93.695 37.004 94.535
 35.969 94.535 c h
17.602 90.785 m 34.094 90.785 l 34.094 77.75 l 17.602 77.75 l h
17.602 90.785 m f
Q Q
showpage
%%Trailer
end
%%EOF
