%!PS-Adobe-3.0 EPSF-3.0
%%Creator: cairo 1.14.6 (http://cairographics.org)
%%CreationDate: Wed Feb 13 11:22:31 2019
%%Pages: 1
%%DocumentData: Clean7Bit
%%LanguageLevel: 2
%%BoundingBox: 0 0 512 512
%%EndComments
%%BeginProlog
save
50 dict begin
/q { gsave } bind def
/Q { grestore } bind def
/cm { 6 array astore concat } bind def
/w { setlinewidth } bind def
/J { setlinecap } bind def
/j { setlinejoin } bind def
/M { setmiterlimit } bind def
/d { setdash } bind def
/m { moveto } bind def
/l { lineto } bind def
/c { curveto } bind def
/h { closepath } bind def
/re { exch dup neg 3 1 roll 5 3 roll moveto 0 rlineto
      0 exch rlineto 0 rlineto closepath } bind def
/S { stroke } bind def
/f { fill } bind def
/f* { eofill } bind def
/n { newpath } bind def
/W { clip } bind def
/W* { eoclip } bind def
/BT { } bind def
/ET { } bind def
/pdfmark where { pop globaldict /?pdfmark /exec load put }
    { globaldict begin /?pdfmark /pop load def /pdfmark
    /cleartomark load def end } ifelse
/BDC { mark 3 1 roll /BDC pdfmark } bind def
/EMC { mark /EMC pdfmark } bind def
/cairo_store_point { /cairo_point_y exch def /cairo_point_x exch def } def
/Tj { show currentpoint cairo_store_point } bind def
/TJ {
  {
    dup
    type /stringtype eq
    { show } { -0.001 mul 0 cairo_font_matrix dtransform rmoveto } ifelse
  } forall
  currentpoint cairo_store_point
} bind def
/cairo_selectfont { cairo_font_matrix aload pop pop pop 0 0 6 array astore
    cairo_font exch selectfont cairo_point_x cairo_point_y moveto } bind def
/Tf { pop /cairo_font exch def /cairo_font_matrix where
      { pop cairo_selectfont } if } bind def
/Td { matrix translate cairo_font_matrix matrix concatmatrix dup
      /cairo_font_matrix exch def dup 4 get exch 5 get cairo_store_point
      /cairo_font where { pop cairo_selectfont } if } bind def
/Tm { 2 copy 8 2 roll 6 array astore /cairo_font_matrix exch def
      cairo_store_point /cairo_font where { pop cairo_selectfont } if } bind def
/g { setgray } bind def
/rg { setrgbcolor } bind def
/d1 { setcachedevice } bind def
%%EndProlog
%%BeginSetup
%%EndSetup
%%Page: 1 1
%%BeginPageSetup
%%PageBoundingBox: 0 0 512 512
%%EndPageSetup
q 0 0 512 512 rectclip q
0.568627 0.337255 0.176471 rg
128 366.934 128 -358.398 re f
0.509804 0.352941 0.172549 rg
128 503.465 m 128 145.066 l 8.535 145.066 l 8.535 494.934 l 8.547 499.641
 12.359 503.453 17.066 503.465 c h
128 503.465 m f
0.627451 0.321569 0.176471 rg
128 145.066 m 128 8.535 l 17.066 8.535 l 12.359 8.547 8.547 12.359 8.535
 17.066 c 8.535 145.066 l h
128 145.066 m f
128 503.465 128 -136.531 re f
256 145.066 128 -136.531 re f
0.427451 0.254902 0.133333 rg
503.465 366.934 m 503.465 17.066 l 503.453 12.359 499.641 8.547 494.934
 8.535 c 384 8.535 l 384 366.934 l h
503.465 366.934 m f
0.470588 0.243137 0.133333 rg
503.465 494.934 m 503.465 366.934 l 384 366.934 l 384 503.465 l 494.934
 503.465 l 499.641 503.453 503.453 499.641 503.465 494.934 c h
503.465 494.934 m f
0.568627 0.337255 0.176471 rg
477.867 366.934 m 477.867 17.066 l 477.852 12.359 474.039 8.547 469.332
 8.535 c 384 8.535 l 384 366.934 l h
477.867 366.934 m f
0.627451 0.321569 0.176471 rg
477.867 494.934 m 477.867 366.934 l 384 366.934 l 384 503.465 l 469.332
 503.465 l 474.039 503.453 477.852 499.641 477.867 494.934 c h
477.867 494.934 m f
0.509804 0.352941 0.172549 rg
256 503.465 128 -358.398 re f
0 g
128 0 m 17.066 0 l 7.645 0.012 0.012 7.645 0 17.066 c 0 494.934 l 0.012
 504.355 7.645 511.988 17.066 512 c 128 512 l 132.711 512 136.535 508.18
 136.535 503.465 c 136.535 8.535 l 136.535 3.82 132.711 0 128 0 c h
17.066 494.934 m 17.066 17.066 l 119.465 17.066 l 119.465 494.934 l h
17.066 494.934 m f
256 0 m 128 0 l 123.289 0 119.465 3.82 119.465 8.535 c 119.465 503.465 
l 119.465 508.18 123.289 512 128 512 c 256 512 l 260.711 512 264.535 508.18
 264.535 503.465 c 264.535 8.535 l 264.535 3.82 260.711 0 256 0 c h
136.535 17.066 m 247.465 17.066 l 247.465 494.934 l 136.535 494.934 l h
136.535 17.066 m f
384 0 m 256 0 l 251.289 0 247.465 3.82 247.465 8.535 c 247.465 503.465 
l 247.465 508.18 251.289 512 256 512 c 384 512 l 388.711 512 392.535 508.18
 392.535 503.465 c 392.535 8.535 l 392.535 3.82 388.711 0 384 0 c h
264.535 17.066 m 375.465 17.066 l 375.465 494.934 l 264.535 494.934 l h
264.535 17.066 m f
494.934 0 m 384 0 l 379.289 0 375.465 3.82 375.465 8.535 c 375.465 503.465
 l 375.465 508.18 379.289 512 384 512 c 494.934 512 l 504.355 511.988 511.988
 504.355 512 494.934 c 512 17.066 l 511.988 7.645 504.355 0.012 494.934 
0 c h
392.535 17.066 m 494.941 17.066 l 494.934 494.934 l 392.535 494.934 l h
392.535 17.066 m f
256 358.398 m 128 358.398 l 123.289 358.398 119.465 362.219 119.465 366.934
 c 119.465 371.645 123.289 375.465 128 375.465 c 256 375.465 l 260.711 375.465
 264.535 371.645 264.535 366.934 c 264.535 362.219 260.711 358.398 256 358.398
 c h
256 358.398 m f
384 136.535 m 256 136.535 l 251.289 136.535 247.465 140.355 247.465 145.066
 c 247.465 149.781 251.289 153.602 256 153.602 c 384 153.602 l 388.711 153.602
 392.535 149.781 392.535 145.066 c 392.535 140.355 388.711 136.535 384 136.535
 c h
384 136.535 m f
503.465 358.398 m 384 358.398 l 379.289 358.398 375.465 362.219 375.465
 366.934 c 375.465 371.645 379.289 375.465 384 375.465 c 503.465 375.465
 l 508.18 375.465 512 371.645 512 366.934 c 512 362.219 508.18 358.398 503.465
 358.398 c h
503.465 358.398 m f
128 136.535 m 8.535 136.535 l 3.82 136.535 0 140.355 0 145.066 c 0 149.781
 3.82 153.602 8.535 153.602 c 128 153.602 l 132.711 153.602 136.535 149.781
 136.535 145.066 c 136.535 140.355 132.711 136.535 128 136.535 c h
128 136.535 m f
51.199 358.398 m 46.488 358.398 42.668 362.219 42.668 366.934 c 42.668 
503.465 l 42.668 508.18 46.488 512 51.199 512 c 55.914 512 59.734 508.18
 59.734 503.465 c 59.734 366.934 l 59.734 362.219 55.914 358.398 51.199 
358.398 c h
51.199 358.398 m f
51.199 307.199 m 46.488 307.199 42.668 311.02 42.668 315.734 c 42.668 324.266
 l 42.668 328.98 46.488 332.801 51.199 332.801 c 55.914 332.801 59.734 328.98
 59.734 324.266 c 59.734 315.734 l 59.734 311.02 55.914 307.199 51.199 307.199
 c h
51.199 307.199 m f
51.199 136.535 m 46.488 136.535 42.668 140.355 42.668 145.066 c 42.668 
281.602 l 42.668 286.312 46.488 290.133 51.199 290.133 c 55.914 290.133 
59.734 286.312 59.734 281.602 c 59.734 145.066 l 59.734 140.355 55.914 136.535
 51.199 136.535 c h
51.199 136.535 m f
85.332 213.332 m 80.621 213.332 76.801 217.152 76.801 221.867 c 76.801 
452.266 l 76.801 456.98 80.621 460.801 85.332 460.801 c 90.047 460.801 93.867
 456.98 93.867 452.266 c 93.867 221.867 l 93.867 217.152 90.047 213.332 
85.332 213.332 c h
85.332 213.332 m f
85.332 136.535 m 80.621 136.535 76.801 140.355 76.801 145.066 c 76.801 
170.668 l 76.801 175.379 80.621 179.199 85.332 179.199 c 90.047 179.199 
93.867 175.379 93.867 170.668 c 93.867 145.066 l 93.867 140.355 90.047 136.535
 85.332 136.535 c h
85.332 136.535 m f
85.332 477.867 m 80.621 477.867 76.801 481.688 76.801 486.398 c 76.801 
503.465 l 76.801 508.18 80.621 512 85.332 512 c 90.047 512 93.867 508.18
 93.867 503.465 c 93.867 486.398 l 93.867 481.688 90.047 477.867 85.332 
477.867 c h
85.332 477.867 m f
42.668 68.266 m 37.953 68.266 34.133 72.086 34.133 76.801 c 34.133 145.066
 l 34.133 149.781 37.953 153.602 42.668 153.602 c 47.379 153.602 51.199 
149.781 51.199 145.066 c 51.199 76.801 l 51.199 72.086 47.379 68.266 42.668
 68.266 c h
42.668 68.266 m f
42.668 0 m 37.953 0 34.133 3.82 34.133 8.535 c 34.133 34.133 l 34.133 38.848
 37.953 42.668 42.668 42.668 c 47.379 42.668 51.199 38.848 51.199 34.133
 c 51.199 8.535 l 51.199 3.82 47.379 0 42.668 0 c h
42.668 0 m f
76.801 0 m 72.086 0 68.266 3.82 68.266 8.535 c 68.266 145.066 l 68.266 
149.781 72.086 153.602 76.801 153.602 c 81.512 153.602 85.332 149.781 85.332
 145.066 c 85.332 8.535 l 85.332 3.82 81.512 0 76.801 0 c h
76.801 0 m f
170.668 145.066 m 165.953 145.066 162.133 148.887 162.133 153.602 c 162.133
 366.934 l 162.133 371.645 165.953 375.465 170.668 375.465 c 175.379 375.465
 179.199 371.645 179.199 366.934 c 179.199 153.602 l 179.199 148.887 175.379
 145.066 170.668 145.066 c h
170.668 145.066 m f
170.668 102.398 m 165.953 102.398 162.133 106.219 162.133 110.934 c 162.133
 119.465 l 162.133 124.18 165.953 128 170.668 128 c 175.379 128 179.199 
124.18 179.199 119.465 c 179.199 110.934 l 179.199 106.219 175.379 102.398
 170.668 102.398 c h
170.668 102.398 m f
170.668 0 m 165.953 0 162.133 3.82 162.133 8.535 c 162.133 76.801 l 162.133
 81.512 165.953 85.332 170.668 85.332 c 175.379 85.332 179.199 81.512 179.199
 76.801 c 179.199 8.535 l 179.199 3.82 175.379 0 170.668 0 c h
170.668 0 m f
213.332 0 m 208.621 0 204.801 3.82 204.801 8.535 c 204.801 213.332 l 204.801
 218.047 208.621 221.867 213.332 221.867 c 218.047 221.867 221.867 218.047
 221.867 213.332 c 221.867 8.535 l 221.867 3.82 218.047 0 213.332 0 c h
213.332 0 m f
213.332 238.934 m 208.621 238.934 204.801 242.754 204.801 247.465 c 204.801
 366.934 l 204.801 371.645 208.621 375.465 213.332 375.465 c 218.047 375.465
 221.867 371.645 221.867 366.934 c 221.867 247.465 l 221.867 242.754 218.047
 238.934 213.332 238.934 c h
213.332 238.934 m f
162.133 358.398 m 157.422 358.398 153.602 362.219 153.602 366.934 c 153.602
 443.734 l 153.602 448.445 157.422 452.266 162.133 452.266 c 166.848 452.266
 170.668 448.445 170.668 443.734 c 170.668 366.934 l 170.668 362.219 166.848
 358.398 162.133 358.398 c h
162.133 358.398 m f
162.133 469.332 m 157.422 469.332 153.602 473.152 153.602 477.867 c 153.602
 503.465 l 153.602 508.18 157.422 512 162.133 512 c 166.848 512 170.668 
508.18 170.668 503.465 c 170.668 477.867 l 170.668 473.152 166.848 469.332
 162.133 469.332 c h
162.133 469.332 m f
213.332 460.801 m 208.621 460.801 204.801 464.621 204.801 469.332 c 204.801
 503.465 l 204.801 508.18 208.621 512 213.332 512 c 218.047 512 221.867 
508.18 221.867 503.465 c 221.867 469.332 l 221.867 464.621 218.047 460.801
 213.332 460.801 c h
213.332 460.801 m f
213.332 418.133 m 208.621 418.133 204.801 421.953 204.801 426.668 c 204.801
 435.199 l 204.801 439.914 208.621 443.734 213.332 443.734 c 218.047 443.734
 221.867 439.914 221.867 435.199 c 221.867 426.668 l 221.867 421.953 218.047
 418.133 213.332 418.133 c h
213.332 418.133 m f
213.332 358.398 m 208.621 358.398 204.801 362.219 204.801 366.934 c 204.801
 392.535 l 204.801 397.246 208.621 401.066 213.332 401.066 c 218.047 401.066
 221.867 397.246 221.867 392.535 c 221.867 366.934 l 221.867 362.219 218.047
 358.398 213.332 358.398 c h
213.332 358.398 m f
298.668 51.199 m 293.953 51.199 290.133 55.02 290.133 59.734 c 290.133 
145.066 l 290.133 149.781 293.953 153.602 298.668 153.602 c 303.379 153.602
 307.199 149.781 307.199 145.066 c 307.199 59.734 l 307.199 55.02 303.379
 51.199 298.668 51.199 c h
298.668 51.199 m f
298.668 0 m 293.953 0 290.133 3.82 290.133 8.535 c 290.133 25.602 l 290.133
 30.312 293.953 34.133 298.668 34.133 c 303.379 34.133 307.199 30.312 307.199
 25.602 c 307.199 8.535 l 307.199 3.82 303.379 0 298.668 0 c h
298.668 0 m f
341.332 93.867 m 336.621 93.867 332.801 97.688 332.801 102.398 c 332.801
 145.066 l 332.801 149.781 336.621 153.602 341.332 153.602 c 346.047 153.602
 349.867 149.781 349.867 145.066 c 349.867 102.398 l 349.867 97.688 346.047
 93.867 341.332 93.867 c h
341.332 93.867 m f
341.332 0 m 336.621 0 332.801 3.82 332.801 8.535 c 332.801 68.266 l 332.801
 72.98 336.621 76.801 341.332 76.801 c 346.047 76.801 349.867 72.98 349.867
 68.266 c 349.867 8.535 l 349.867 3.82 346.047 0 341.332 0 c h
341.332 0 m f
298.668 170.668 m 293.953 170.668 290.133 174.488 290.133 179.199 c 290.133
 503.465 l 290.133 508.18 293.953 512 298.668 512 c 303.379 512 307.199 
508.18 307.199 503.465 c 307.199 179.199 l 307.199 174.488 303.379 170.668
 298.668 170.668 c h
298.668 170.668 m f
341.332 136.535 m 336.621 136.535 332.801 140.355 332.801 145.066 c 332.801
 307.199 l 332.801 311.914 336.621 315.734 341.332 315.734 c 346.047 315.734
 349.867 311.914 349.867 307.199 c 349.867 145.066 l 349.867 140.355 346.047
 136.535 341.332 136.535 c h
341.332 136.535 m f
341.332 332.801 m 336.621 332.801 332.801 336.621 332.801 341.332 c 332.801
 349.867 l 332.801 354.578 336.621 358.398 341.332 358.398 c 346.047 358.398
 349.867 354.578 349.867 349.867 c 349.867 341.332 l 349.867 336.621 346.047
 332.801 341.332 332.801 c h
341.332 332.801 m f
341.332 375.465 m 336.621 375.465 332.801 379.289 332.801 384 c 332.801
 503.465 l 332.801 508.18 336.621 512 341.332 512 c 346.047 512 349.867 
508.18 349.867 503.465 c 349.867 384 l 349.867 379.289 346.047 375.465 341.332
 375.465 c h
341.332 375.465 m f
426.668 0 m 421.953 0 418.133 3.82 418.133 8.535 c 418.133 230.398 l 418.133
 235.113 421.953 238.934 426.668 238.934 c 431.379 238.934 435.199 235.113
 435.199 230.398 c 435.199 8.535 l 435.199 3.82 431.379 0 426.668 0 c h
426.668 0 m f
426.668 256 m 421.953 256 418.133 259.82 418.133 264.535 c 418.133 273.066
 l 418.133 277.781 421.953 281.602 426.668 281.602 c 431.379 281.602 435.199
 277.781 435.199 273.066 c 435.199 264.535 l 435.199 259.82 431.379 256 
426.668 256 c h
426.668 256 m f
426.668 298.668 m 421.953 298.668 418.133 302.488 418.133 307.199 c 418.133
 366.934 l 418.133 371.645 421.953 375.465 426.668 375.465 c 431.379 375.465
 435.199 371.645 435.199 366.934 c 435.199 307.199 l 435.199 302.488 431.379
 298.668 426.668 298.668 c h
426.668 298.668 m f
460.801 93.867 m 456.086 93.867 452.266 97.688 452.266 102.398 c 452.266
 366.934 l 452.266 371.645 456.086 375.465 460.801 375.465 c 465.512 375.465
 469.332 371.645 469.332 366.934 c 469.332 102.398 l 469.332 97.688 465.512
 93.867 460.801 93.867 c h
460.801 93.867 m f
460.801 0 m 456.086 0 452.266 3.82 452.266 8.535 c 452.266 68.266 l 452.266
 72.98 456.086 76.801 460.801 76.801 c 465.512 76.801 469.332 72.98 469.332
 68.266 c 469.332 8.535 l 469.332 3.82 465.512 0 460.801 0 c h
460.801 0 m f
426.668 358.398 m 421.953 358.398 418.133 362.219 418.133 366.934 c 418.133
 443.734 l 418.133 448.445 421.953 452.266 426.668 452.266 c 431.379 452.266
 435.199 448.445 435.199 443.734 c 435.199 366.934 l 435.199 362.219 431.379
 358.398 426.668 358.398 c h
426.668 358.398 m f
426.668 469.332 m 421.953 469.332 418.133 473.152 418.133 477.867 c 418.133
 503.465 l 418.133 508.18 421.953 512 426.668 512 c 431.379 512 435.199 
508.18 435.199 503.465 c 435.199 477.867 l 435.199 473.152 431.379 469.332
 426.668 469.332 c h
426.668 469.332 m f
460.801 358.398 m 456.086 358.398 452.266 362.219 452.266 366.934 c 452.266
 503.465 l 452.266 508.18 456.086 512 460.801 512 c 465.512 512 469.332 
508.18 469.332 503.465 c 469.332 366.934 l 469.332 362.219 465.512 358.398
 460.801 358.398 c h
460.801 358.398 m f
Q Q
showpage
%%Trailer
end restore
%%EOF
