<?xml version="1.0" encoding="iso-8859-1"?>
<!-- Generator: Adobe Illustrator 19.0.0, SVG Export Plug-In . SVG Version: 6.00 Build 0)  -->
<svg version="1.1" id="Layer_1" xmlns="http://www.w3.org/2000/svg" xmlns:xlink="http://www.w3.org/1999/xlink" x="0px" y="0px"
	 viewBox="0 0 511.996 511.996" style="enable-background:new 0 0 511.996 511.996;" xml:space="preserve">
<rect x="44.656" y="9.998" style="fill:#965353;" width="426" height="491.32"/>
<g>
	<path style="fill:#080808;" d="M394.669,0h-21.328h-63.999h-21.344h-64H202.67h-64h-21.328H32v511.996h85.343h21.328h64h21.327h64
		h21.344h63.999h21.328h85.327V0H394.669z M458.668,350.248c-4.359-1.281-9.328-3.531-13.297-7.469
		c-5.406-5.359-8.031-12.812-8.031-22.781v-85.344c0-13.265,4.875-22.265,14.891-27.5c2.172-1.141,4.375-1.984,6.438-2.625
		L458.668,350.248L458.668,350.248z M309.342,21.344h63.999v223.998h-63.999V21.344z M309.342,266.654h21.328v42.688
		c0,10.156-2.734,18-8.109,23.266c-3.953,3.859-8.891,6.016-13.219,7.234V266.654z M138.671,21.344h64v223.998h-21.328v-53.344
		c0-5.891-4.781-10.656-10.672-10.656s-10.672,4.766-10.672,10.656v53.343h-21.328V21.344z M74.671,21.344v85.312
		c0,10.188-2.734,18-8.109,23.281c-3.953,3.875-8.891,6.031-13.219,7.219V21.344H74.671z M117.343,490.652H95.999v-64.875
		c0-5.891-4.765-10.655-10.656-10.655s-10.672,4.765-10.672,10.655v64.875H53.343V158.999c8.047-1.469,19.062-5.031,27.953-13.625
		c9.766-9.453,14.703-22.469,14.703-38.719V21.344h21.344v223.998v21.312C117.343,266.654,117.343,490.652,117.343,490.652z
		 M202.67,490.652h-64V266.654h64V490.652z M287.998,490.652h-64V266.654v-21.312V21.344h64v223.998v21.312V490.652z
		 M373.341,490.652h-63.999V361.653c8.047-1.453,19.062-5,27.953-13.624c9.766-9.438,14.702-22.469,14.702-38.688v-42.688h21.344
		V490.652z M437.34,490.652v-42.656c0-5.891-4.781-10.656-10.672-10.656s-10.671,4.766-10.671,10.656v42.656h-21.328V266.654
		v-21.312V21.344h21.328v64.874c0,5.891,4.78,10.656,10.671,10.656s10.672-4.765,10.672-10.656V21.344h21.328v161.202
		c-4.484,0.922-9.922,2.484-15.438,5.234c-17.562,8.781-27.233,25.438-27.233,46.875v85.343c0,15.75,4.843,28.5,14.358,37.937
		c8.969,8.875,20.188,12.625,28.312,14.219v118.499H437.34V490.652z"/>
	<path style="fill:#080808;" d="M255.998,117.343c-5.891,0-10.656,4.766-10.656,10.656v277.342c0,5.875,4.766,10.656,10.656,10.656
		c5.906,0,10.672-4.781,10.672-10.656V127.999C266.67,122.108,261.904,117.343,255.998,117.343z"/>
</g>
<g>
</g>
<g>
</g>
<g>
</g>
<g>
</g>
<g>
</g>
<g>
</g>
<g>
</g>
<g>
</g>
<g>
</g>
<g>
</g>
<g>
</g>
<g>
</g>
<g>
</g>
<g>
</g>
<g>
</g>
</svg>
